<?xml version="1.0" encoding="UTF-8" standalone="no"?>
<!-- Created with Inkscape (http://www.inkscape.org/) -->

<svg
   xmlns:dc="http://purl.org/dc/elements/1.1/"
   xmlns:cc="http://creativecommons.org/ns#"
   xmlns:rdf="http://www.w3.org/1999/02/22-rdf-syntax-ns#"
   xmlns:svg="http://www.w3.org/2000/svg"
   xmlns="http://www.w3.org/2000/svg"
   xmlns:xlink="http://www.w3.org/1999/xlink"
   xmlns:sodipodi="http://sodipodi.sourceforge.net/DTD/sodipodi-0.dtd"
   xmlns:inkscape="http://www.inkscape.org/namespaces/inkscape"
   id="svg2"
   version="1.1"
   inkscape:version="0.92.2 2405546, 2018-03-11"
   width="2481"
   height="3503"
   sodipodi:docname="E26P05.svg">
  <metadata
     id="metadata8">
    <rdf:RDF>
      <cc:Work
         rdf:about="">
        <dc:format>image/svg+xml</dc:format>
        <dc:type
           rdf:resource="http://purl.org/dc/dcmitype/StillImage" />
        <dc:title />
      </cc:Work>
    </rdf:RDF>
  </metadata>
  <defs
     id="defs6" />
  <sodipodi:namedview
     pagecolor="#ffffff"
     bordercolor="#666666"
     borderopacity="1"
     objecttolerance="10"
     gridtolerance="10"
     guidetolerance="10"
     inkscape:pageopacity="0"
     inkscape:pageshadow="2"
     inkscape:window-width="1280"
     inkscape:window-height="972"
     id="namedview4"
     showgrid="false"
     inkscape:zoom="0.42773946"
     inkscape:cx="1398.6776"
     inkscape:cy="876.55606"
     inkscape:window-x="0"
     inkscape:window-y="26"
     inkscape:window-maximized="1"
     inkscape:current-layer="layer3"
     inkscape:snap-global="false" />
  <g
     inkscape:groupmode="layer"
     id="layer2"
     inkscape:label="artwork"
     sodipodi:insensitive="true">
    <image
       sodipodi:absref="/home/zveryok/Downloads/webcomics-ep26-ru/ep26_Books-Are-Great/lang/ru/../gfx_Pepper-and-Carrot_by-David-Revoy_E26P05.png"
       xlink:href="../gfx_Pepper-and-Carrot_by-David-Revoy_E26P05.png"
       width="2481"
       height="3503"
       id="image10"
       x="0"
       y="0" />
  </g>
  <g
     inkscape:groupmode="layer"
     id="layer3"
     inkscape:label="speechbubbles">
    <path
       style="color:#000000;display:inline;overflow:visible;visibility:visible;fill:#ffffff;fill-opacity:1;fill-rule:nonzero;stroke:none;stroke-width:0.74462944px;marker:none;enable-background:accumulate"
       d="m 709.63259,167.00749 c 19.33935,-21.99792 169.72104,-35.80523 218.30347,16.41073 48.58241,52.21595 12.60329,107.53771 -18.71596,123.59349 -31.31922,16.05586 -120.94468,29.33511 -159.97439,10.4461 -39.0298,-18.88903 -68.58714,-44.88421 -67.02153,-93.2796 0.63899,-19.75209 8.069,-35.17271 27.40841,-57.17072 z"
       id="path4040"
       inkscape:connector-curvature="0"
       sodipodi:nodetypes="zssssz" />
    <path
       style="color:#000000;display:inline;overflow:visible;visibility:visible;fill:#ffffff;fill-opacity:1;fill-rule:nonzero;stroke:none;stroke-width:1px;marker:none;enable-background:accumulate"
       d="m 723.30366,175.8066 c 15.6509,39.1272 126.32477,118.49941 138.62187,131.91441 12.2971,13.415 38.0092,32.4196 58.1317,35.7734 20.1226,3.3537 29.8656,-15.8488 47.3048,-18.9433 14.983,-2.6587 26.47777,2.1745 35.42117,12.2357 -14.533,-25.7121 -39.12717,-25.7121 -49.18837,-21.2404 -10.0613,4.4717 -27.948,17.8867 -44.7168,5.5896 -16.7687,-12.2971 -86.0797,-88.31561 -103.96637,-91.66931 -17.8867,-3.3538 -40.245,-29.0659 -40.245,-43.5988 0,-14.533 -41.363,-10.0613 -41.363,-10.0613 z"
       id="path4562"
       inkscape:connector-curvature="0"
       sodipodi:nodetypes="cssscssssc" />
    <path
       style="color:#000000;display:inline;overflow:visible;visibility:visible;fill:#ffffff;fill-opacity:1;fill-rule:nonzero;stroke:none;stroke-width:1px;marker:none;enable-background:accumulate"
       d="m 629.44972,1457.2356 c 5.31864,112.846 187.39235,142.8215 217.19246,120.0477 -67.73192,45.7834 -243.1513,-13.454 -259.18624,-91.6691 -22.55675,-34.7368 41.99378,-28.3786 41.99378,-28.3786 z"
       id="path4480"
       inkscape:connector-curvature="0"
       sodipodi:nodetypes="cccc" />
    <path
       style="color:#000000;display:inline;overflow:visible;visibility:visible;fill:#ffffff;fill-opacity:1;fill-rule:nonzero;stroke:none;stroke-width:0.86340547px;marker:none;enable-background:accumulate"
       d="m 1697.5371,1517.4852 c 7.0289,-47.4416 65.9836,-80.5244 214.3808,-67.0728 79.4895,7.2055 169.8646,13.0874 160.4927,82.6142 -9.3719,69.5266 -139.4059,63.8009 -166.35,64.6189 -26.9442,0.818 -166.4914,-10.7214 -189.7798,-35.1724 -14.5781,-15.3056 -19.9153,-30.2645 -18.7437,-44.9879 z"
       id="path4546-6"
       inkscape:connector-curvature="0"
       sodipodi:nodetypes="cssssc" />
    <path
       style="fill:#ffffff;fill-opacity:1;stroke:none;stroke-width:1.18544173"
       d="m 1822.1923,1642.7664 c -3.153,-33.1575 17.7599,-49.6518 36.8013,-57.4653 24.1321,-9.9025 198.2186,-20.9391 219.2259,6.8159 19.3471,25.5615 33.0929,72.5563 -24.6775,95.7706 -57.7702,23.2142 -154.1848,10.4987 -170.5969,6.278 -16.412,-4.2208 -57.4705,-15.5227 -60.7528,-51.3992 z"
       id="path3659-8"
       inkscape:connector-curvature="0"
       sodipodi:nodetypes="cssssc" />
    <path
       style="fill:#ffffff;fill-opacity:1;fill-rule:evenodd;stroke:none;stroke-width:0.57074118px;stroke-linecap:butt;stroke-linejoin:miter;stroke-opacity:1"
       d="m 2045.2157,1752.4365 c 2.8478,6.2781 -2.7067,12.8754 -6.6854,14.9282 -4.7257,4.1933 -9.9339,3.4238 -14.756,2.3824 -4.7156,-1.6167 -8.9124,2.4725 -12.725,6.7734 -5.8446,5.4542 -13.3739,6.5511 -18.6228,1.2394 -3.9397,-3.6716 -8.4641,-8.1406 -13.7451,-5.3035 -6.2088,2.7499 -13.9137,4.8375 -18.6038,-1.7964 -2.9664,-7.3562 -9.8827,-5.3756 -15.0565,-3.3626 -6.6035,2.2865 -13.6152,3.2535 -19.5505,-0.695 -3.9688,-2.3804 -9.0795,-3.9874 -10.2159,-11.0177 -1.4774,-7.7322 -2.9448,-16.9207 -8.5192,-19.9579 -3.8972,-2.4942 -9.7267,-4.4919 -9.6976,-12.3212 1.0837,-6.8382 4.2374,-13.2886 7.0808,-18.978 7.0153,-6.9042 15.2764,0.321 23.1079,-0.7647 5.1177,-0.6887 10.1757,-3.071 14.8599,-6.8213 7.3585,-4.1094 14.4416,1.0655 21.8212,-1.2502 8.5897,-1.9266 17.2829,-0.2509 25.7891,-4.696 9.5237,-3.9035 19.6465,-0.7854 26.2121,8.5566 2.7393,4.5693 6.7227,6.697 11.0541,6.5043 5.6774,0.514 8.7552,-0.3982 11.9308,7.2374 2.6334,5.4974 1.9582,3.7813 3.3976,9.6865 1.5504,5.8484 6.7819,7.8078 7.4887,14.5687 0.4858,5.574 -4.44,9.3467 -4.5644,15.0876 z"
       id="path4367-3-5"
       inkscape:connector-curvature="0"
       sodipodi:nodetypes="ccccccccccccccccccccccc" />
    <path
       style="opacity:1;fill:#ffffff;fill-rule:evenodd;stroke:none;stroke-width:1.3443836px;stroke-linecap:butt;stroke-linejoin:miter;stroke-opacity:1"
       d="m 1542.1535,1496.6176 c 57.2733,-8.6915 60.9764,19.7045 77.6569,27.317 17.2205,7.8588 50.5803,-25.7702 66.8815,-19.2081 16.3015,6.562 20.9961,40.3754 46.6514,50.2361 25.6551,9.861 44.0985,-16.5088 14.0519,-27.3374 -30.0465,-10.8286 -24.8419,-34.9697 -49.8325,-40.9228 -41.6779,-9.928 -54.8951,20.1792 -69.9481,24.4763 -9.9661,2.8447 -19.8986,-16.3184 -38.035,-21.5527 -18.1365,-5.2344 -47.4261,6.9916 -47.4261,6.9916 z"
       id="path4272"
       inkscape:connector-curvature="0"
       sodipodi:nodetypes="csssssssc" />
    <path
       style="color:#000000;display:inline;overflow:visible;visibility:visible;fill:#ffffff;fill-opacity:1;fill-rule:nonzero;stroke:none;stroke-width:0.82009757px;marker:none;enable-background:accumulate"
       d="m 1142.4856,2864.1872 c -11.6468,-10.5306 -29.7748,-23.9453 23.708,-26.9445 -66.889,-25.4199 -53.5528,-66.5215 -17.3827,-77.5114 -55.1347,-2.4623 -60.018,-5.9422 13.2506,-86.1248 -85.2431,76.5575 -92.9723,77.6987 -97.8123,39.8671 -14.6476,22.2479 -42.9096,20.2317 -38.0902,-13.2081 -16.7142,26.9328 -61.15462,44.4068 -63.03601,3.5626 -20.87583,32.1468 -40.64507,30.134 -61.18688,23.193 4.26855,24.5984 3.06513,52.2255 2.20375,90.2578 -1.06945,22.4558 1.16284,27.1694 5.45989,42.6743 -3.48967,24.576 2.60062,25.021 5.3607,43.2742 36.13143,-21.8896 36.15537,-19.3678 36.78079,8.5148 66.05216,-49.2416 53.10916,-10.5176 68.00046,-3.5241 24.7362,-37.6615 49.5345,-14.6169 75.1973,-9.0224 11.4565,-43.0546 27.8498,-39.8265 47.5466,-35.0085 z"
       id="path3549-3-78"
       inkscape:connector-curvature="0"
       sodipodi:nodetypes="ccccccccccccccc" />
    <path
       style="fill:#ffffff;fill-rule:evenodd;stroke:none;stroke-width:1.28541136px;stroke-linecap:butt;stroke-linejoin:miter;stroke-opacity:1"
       d="m 1101.8602,2820.7442 c -32.3042,64.4466 -69.5031,73.037 -112.73649,12.7597 -11.50466,20.5113 -1.07402,78.9512 -73.79192,-6.3799 7.80614,38.8611 -3.42095,50.0786 -22.83179,49.4092 v 227.5148 c 18.8913,-5.4308 33.40273,-1.0211 39.23,22.9131 40.87868,-26.3064 69.0275,-28.0823 71.7433,19.1394 38.4982,-54.1361 54.443,-32.2305 71.7411,-14.8861 58.1621,-52.2604 82.2262,-12.5483 114.785,4.2531 -5.9484,-29.2886 3.8393,-44.585 73.7918,-6.3797 -13.1815,-18.5822 -32.9676,-38.3062 49.1946,-40.4029 -35.0909,-15.1416 -52.1467,-36.4491 -26.6482,-72.3016 -47.9975,-24.611 -23.7158,-44.8116 20.4978,-63.7954 -63.6493,-12.3708 -53.0402,-33.8047 -24.5975,-57.4153 -64.3765,22.4367 -128.2947,16.6598 -94.575,-25.6148 -39.562,23.3073 -67.5407,44.1474 -85.8027,-48.8136 z"
       id="path4582"
       inkscape:connector-curvature="0"
       sodipodi:nodetypes="cccccccccccccccc" />
    <path
       style="fill:#ffffff;fill-rule:evenodd;stroke:none;stroke-width:0.97864747px;stroke-linecap:butt;stroke-linejoin:miter;stroke-opacity:1"
       d="m 887.95326,3128.5128 c 26.68633,2.7051 65.76398,-10.089 44.18918,-50.8159 41.87691,28.8558 76.21166,23.8184 144.33086,-21.4911 -5.6607,63.1309 24.7852,57.2326 52.2327,45.1123 -26.342,21.244 20.9429,33.4174 46.3779,34.6108 -53.8053,45.9493 -25.5515,60.5625 -4.3504,77.8691 -52.8779,-12.8043 -40.0892,13.1396 -46.4049,27.8104 -45.3613,-33.2402 -78.3497,-25.3512 -104.4112,5.5621 -13.6306,-16.8115 -17.9091,-51.558 -68.15732,1.854 18.47745,-46.1099 -5.74243,-41.27 -44.95483,-18.5402 6.14546,-15.7057 42.67059,-39.5884 -18.85199,-37.0806 38.42816,-14.9306 46.48674,-35.1561 0,-64.8909 z"
       id="path4584"
       inkscape:connector-curvature="0"
       sodipodi:nodetypes="cccccccccccc" />
    <path
       style="fill:#ffffff;fill-opacity:1;fill-rule:evenodd;stroke:none;stroke-width:1.24678433px;stroke-linecap:butt;stroke-linejoin:miter;stroke-opacity:1"
       d="m 1950.5121,2097.7492 c -20.881,-1.4415 -32.5204,17.0905 -49.142,23.974 -17.0332,3.2193 -36.0628,-8.7238 -51.4967,2.3694 -13.9657,6.3803 -29.1108,18.3191 -24.2333,34.1608 1.3854,14.3805 -16.0881,22.9844 -13.8536,37.165 0.6286,14.849 20.1491,22.7352 17.0154,38.3097 -5.4235,14.2997 -17.4883,30.9967 -3.9813,45.3085 14.0431,16.3109 40.581,7.2358 57.3127,18.1436 13.4026,16.293 29.2515,35.0277 53.5857,36.0281 22.7487,1.4035 39.731,-13.6315 62.6517,-11.2552 16.9647,-0.2718 37.3358,12.9328 54.1102,16.9105 14.0699,-0.9656 29.9548,2.804 42.3306,-5.2446 11.9941,-10.8412 28.4211,-9.8592 36.2711,4.2514 13.1805,10.7292 32.7867,3.2382 46.5004,-2.9478 16.7397,-11.1067 31.9098,5.6807 46.3684,11.6144 19.6269,8.4378 39.7347,-19.5912 50.5724,-33.8579 10.4043,-15.6318 31.6043,-8.0185 47.5861,-11.0169 14.6537,-5.2626 29.3354,-16.5573 33.6639,-30.9455 -2.5152,-13.0512 -3.6679,-27.4496 5.3368,-39.186 5.324,-14.4579 -8.1174,-26.2225 -18.3321,-35.1776 -12.5956,-14.1874 5.5132,-29.536 0.2614,-44.6775 -4.2892,-19.8975 -29.3269,-22.6554 -47.5101,-20.2946 -16.6502,3.5557 -26.6624,-8.5608 -37.6217,-17.356 -16.5358,-14.2947 -41.9963,-18.3012 -62.5761,-9.0452 -18.2143,9.2845 -34.4546,2.1633 -54.9095,4.8098 -14.8508,3.5874 -29.9249,14.1086 -45.4743,11.9954 -12.9935,-2.3751 -28.3331,14.4163 -41.9791,-1.1911 -10.9364,-12.39 -28.7739,-4.208 -43.1493,-0.3293 -19.0855,8.5097 -30.993,-11.5974 -45.1961,-19.0126 -4.2768,-2.2223 -9.159,-3.6246 -14.1116,-3.5028 z"
       id="path4367"
       inkscape:connector-curvature="0"
       sodipodi:nodetypes="cccccccccccccccccccccccccccccc" />
    <path
       style="color:#000000;display:inline;overflow:visible;visibility:visible;fill:#ffffff;fill-opacity:1;fill-rule:nonzero;stroke:none;stroke-width:1.3837055px;marker:none;enable-background:accumulate"
       d="m 2170.3615,2309.0962 c -0.3713,38.0127 6.7641,58.9988 10.8638,63.5533 4.0997,4.5543 14.1043,16.9116 18.197,24.3263 3.3617,6.1716 9.6066,12.58 5.6022,19.0563 -4.0042,6.4764 -34.1758,30.3537 -35.5389,56.2139 -1.3632,25.8606 5.3064,30.7584 16.8647,34.3062 11.5583,3.5478 26.5828,8.5604 26.6542,27.601 0.071,19.0406 -9.8738,34.7396 -15.8025,39.9571 -5.9287,5.2176 -38.3186,24.4352 -54.9686,48.0709 -8.8964,12.629 -3.6957,116.332 -77.1531,147.1353 96.1421,-38.7249 86.06,-126.0636 93.2119,-138.7724 6.2517,-11.109 19.0349,-23.9504 28.6904,-28.7662 12.35,-6.1599 23.5652,-12.3444 30.546,-25.4347 6.9807,-13.0901 15.9013,-23.3083 13.774,-42.6236 -2.1271,-19.3153 -5.4443,-39.4224 -23.4332,-41.8264 -11.5582,-3.5478 -18.351,-12.9635 -18.0761,-18.9365 0.2753,-5.9731 12.8845,-27.1311 24.7298,-33.5613 11.8453,-6.4303 16.5638,-17.6507 16.086,-29.7343 -0.4779,-12.0835 -10.5747,-31.5425 -12.3436,-41.7953 -1.7687,-10.2527 -15.6194,-65.4734 -15.6194,-65.4734 z"
       id="path5058"
       inkscape:connector-curvature="0"
       sodipodi:nodetypes="cscsssssscssssccscccc" />
  </g>
  <g
     inkscape:groupmode="layer"
     id="layer1"
     inkscape:label="txt">
    <text
       xml:space="preserve"
       style="color:#000000;font-style:normal;font-variant:normal;font-weight:normal;font-stretch:normal;font-size:14.56374168px;line-height:0.01%;font-family:Arial;-inkscape-font-specification:Arial;letter-spacing:1.17453516px;word-spacing:0px;display:inline;overflow:visible;visibility:visible;fill:#e69d76;fill-opacity:1;fill-rule:nonzero;stroke:#e99f77;stroke-width:2;stroke-miterlimit:4;stroke-dasharray:none;stroke-opacity:1;marker:none;enable-background:accumulate"
       x="-844.19104"
       y="124.39133"
       id="text1711-2"
       transform="matrix(-0.05075958,-0.85891373,1.1934833,0.49447225,0,0)"><tspan
         sodipodi:role="line"
         x="-844.19104"
         y="124.39133"
         id="tspan1709-8"
         style="font-style:normal;font-variant:normal;font-weight:bold;font-stretch:normal;font-size:80px;font-family:'Ruslan Display';-inkscape-font-specification:'Ruslan Display Bold';letter-spacing:3.15169597px;word-spacing:0px;fill:#ffffff;fill-opacity:1;stroke:#ffffff;stroke-width:2;stroke-miterlimit:4;stroke-dasharray:none;stroke-opacity:1">Шкяб!</tspan></text>
    <text
       xml:space="preserve"
       style="color:#000000;font-style:normal;font-variant:normal;font-weight:normal;font-stretch:normal;font-size:10.93896103px;line-height:0.01%;font-family:Arial;-inkscape-font-specification:Arial;letter-spacing:0.88220423px;word-spacing:0px;display:inline;overflow:visible;visibility:visible;fill:#e69d76;fill-opacity:1;fill-rule:nonzero;stroke:#e99f77;stroke-width:2;stroke-miterlimit:4;stroke-dasharray:none;stroke-opacity:1;marker:none;enable-background:accumulate"
       x="204.55611"
       y="1546.2828"
       id="text1711-2-3"
       transform="matrix(-0.02665862,-0.84533118,1.1912388,0.26225273,0,0)"><tspan
         sodipodi:role="line"
         x="205.73975"
         y="1546.2828"
         id="tspan1709-8-6"
         style="font-style:normal;font-variant:normal;font-weight:bold;font-stretch:normal;font-family:Lavi;-inkscape-font-specification:'Lavi Bold';letter-spacing:2.36726809px;word-spacing:0px;fill:#ffffff;fill-opacity:1;stroke:#ffffff;stroke-width:2;stroke-miterlimit:4;stroke-dasharray:none;stroke-opacity:1"><tspan
           x="204.55611"
           y="1546.2828"
           style="color:#000000;font-style:normal;font-variant:normal;font-weight:bold;font-stretch:normal;font-size:58.34113693px;line-height:1.25;font-family:Lavi;-inkscape-font-specification:'Lavi Bold';text-align:center;letter-spacing:2.36726809px;word-spacing:0px;text-anchor:middle;display:inline;overflow:visible;visibility:visible;fill:#ffffff;fill-opacity:1;fill-rule:nonzero;stroke:#ffffff;stroke-width:2;stroke-miterlimit:4;stroke-dasharray:none;stroke-opacity:1;marker:none;enable-background:accumulate"
           id="tspan1707-9-7">Шлёп!</tspan></tspan></text>
    <path
       style="fill:#ffffff;fill-opacity:1;fill-rule:evenodd;stroke:none;stroke-width:0.9326129px;stroke-linecap:butt;stroke-linejoin:miter;stroke-opacity:1"
       d="m 337.8574,1202.3778 c -6.6742,-8.5996 1.61188,-19.3901 8.21833,-23.2096 7.40645,-7.1039 16.92229,-7.0471 25.81571,-6.5131 8.84698,1.3971 15.33255,-5.4459 21.07721,-12.5198 9.0924,-9.1782 22.29458,-12.3279 33.02412,-5.6348 7.97424,4.5624 17.1955,10.1714 25.93609,4.9375 10.4235,-5.2969 23.69134,-9.9318 33.75259,-1.1899 7.15722,10.1523 19.04019,5.8356 27.796,1.8292 11.24623,-4.6999 23.55466,-7.5533 35.17073,-2.9954 7.70197,2.6678 17.25376,3.9699 21.05348,14.0209 4.58625,11.0078 9.52022,24.1481 20.26112,27.4471 7.60272,2.8488 18.5393,4.575 20.45326,16.0339 -0.22279,10.2257 -4.24825,20.309 -7.90926,29.2151 -10.82405,11.5394 -27.42592,2.6654 -41.172,5.8607 -8.98795,2.0576 -17.44373,6.5807 -24.88679,13.028 -12.14017,7.5216 -26.11864,1.4049 -38.74673,6.3068 -14.89227,4.5811 -30.87408,3.9138 -44.98427,12.162 -16.0674,7.6646 -34.97082,5.1806 -49.06923,-7.1381 -6.05085,-6.1221 -13.71569,-8.4171 -21.4206,-7.2464 -10.29187,0.4132 -15.57209,2.3794 -23.17406,-8.1387 -6.09402,-7.5017 -4.4547,-5.1298 -8.514,-13.4728 -4.24387,-8.2372 -14.10059,-10.0299 -17.06344,-19.7751 -2.26948,-8.0541 5.60073,-14.584 4.38174,-23.0075 z"
       id="path4367-3"
       inkscape:connector-curvature="0"
       sodipodi:nodetypes="ccccccccccccccccccccccc" />
    <path
       style="color:#000000;display:inline;overflow:visible;visibility:visible;fill:#ffffff;fill-opacity:1;fill-rule:nonzero;stroke:none;stroke-width:1.30749774px;marker:none;enable-background:accumulate"
       d="m 381.7757,1282.9378 c 55.63158,-38.7655 302.33339,-80.662 405.52694,-5.1413 103.1935,75.5207 66.66111,180.9783 7.45161,209.8134 -59.20936,28.8352 -242.17885,39.3072 -325.99402,27.2248 -142.05466,-20.4777 -153.39309,-65.5663 -157.43617,-141.2153 -1.65014,-30.8754 14.82008,-51.9161 70.45164,-90.6816 z"
       id="path4040-3"
       inkscape:connector-curvature="0"
       sodipodi:nodetypes="zssssz" />
    <text
       xml:space="preserve"
       style="color:#000000;font-style:normal;font-variant:normal;font-weight:normal;font-stretch:normal;font-size:13.68011093px;line-height:0.01%;font-family:Arial;-inkscape-font-specification:Arial;letter-spacing:1.1032722px;word-spacing:0px;display:inline;overflow:visible;visibility:visible;fill:#e69d76;fill-opacity:1;fill-rule:nonzero;stroke:#e99f77;stroke-width:0;stroke-miterlimit:4;stroke-dasharray:none;stroke-opacity:1;marker:none;enable-background:accumulate"
       x="2813.7102"
       y="434.09442"
       id="text1711-2-3-9"
       transform="matrix(0.8793411,0.03700556,-0.36761453,1.1217447,0,0)"><tspan
         sodipodi:role="line"
         x="2815.1904"
         y="434.09442"
         id="tspan1709-8-6-2"
         style="font-style:normal;font-variant:normal;font-weight:bold;font-stretch:normal;font-family:Lavi;-inkscape-font-specification:'Lavi Bold';letter-spacing:2.96047211px;word-spacing:0px;fill:#ffffff;fill-opacity:1;stroke:#ffffff;stroke-width:0;stroke-miterlimit:4;stroke-dasharray:none;stroke-opacity:1"><tspan
           x="2813.7102"
           y="434.09442"
           style="color:#000000;font-style:normal;font-variant:normal;font-weight:bold;font-stretch:normal;font-size:72.96060944px;line-height:1.25;font-family:Lavi;-inkscape-font-specification:'Lavi Bold';text-align:center;letter-spacing:2.96047211px;word-spacing:0px;text-anchor:middle;display:inline;overflow:visible;visibility:visible;fill:#ffffff;fill-opacity:1;fill-rule:nonzero;stroke:#ffffff;stroke-width:0;stroke-miterlimit:4;stroke-dasharray:none;stroke-opacity:1;marker:none;enable-background:accumulate"
           id="tspan1707-9-7-2">?!</tspan></tspan></text>
    <text
       xml:space="preserve"
       style="color:#000000;font-style:normal;font-variant:normal;font-weight:normal;font-stretch:normal;font-size:10.93896103px;line-height:0.01%;font-family:Arial;-inkscape-font-specification:Arial;letter-spacing:0.88220423px;word-spacing:0px;display:inline;overflow:visible;visibility:visible;fill:#e69d76;fill-opacity:1;fill-rule:nonzero;stroke:#e99f77;stroke-width:2;stroke-miterlimit:4;stroke-dasharray:none;stroke-opacity:1;marker:none;enable-background:accumulate"
       x="4209.0776"
       y="2050.0776"
       id="text1711-2-3-1"
       transform="matrix(0.79338838,0.2929682,-0.69069394,1.0053697,0,0)"><tspan
         sodipodi:role="line"
         x="4209.0776"
         y="2053.0947"
         id="tspan1709-8-6-29"
         style="font-style:normal;font-variant:normal;font-weight:bold;font-stretch:normal;font-family:Lavi;-inkscape-font-specification:'Lavi Bold';letter-spacing:2.36726809px;word-spacing:0px;fill:#ffffff;fill-opacity:1;stroke:#ffffff;stroke-width:2;stroke-miterlimit:4;stroke-dasharray:none;stroke-opacity:1" /><tspan
         sodipodi:role="line"
         x="4209.0776"
         y="2068.4297"
         style="font-style:normal;font-variant:normal;font-weight:bold;font-stretch:normal;font-size:80px;font-family:Neucha;-inkscape-font-specification:'Neucha Bold';letter-spacing:2.36726809px;word-spacing:0px;fill:#ffffff;fill-opacity:1;stroke:#ffffff;stroke-width:2;stroke-miterlimit:4;stroke-dasharray:none;stroke-opacity:1"
         id="tspan342">Пуф!        </tspan><tspan
         sodipodi:role="line"
         x="4209.0776"
         y="2068.4307"
         style="font-style:normal;font-variant:normal;font-weight:bold;font-stretch:normal;font-size:80px;font-family:Neucha;-inkscape-font-specification:'Neucha Bold';letter-spacing:2.36726809px;word-spacing:0px;fill:#ffffff;fill-opacity:1;stroke:#ffffff;stroke-width:2;stroke-miterlimit:4;stroke-dasharray:none;stroke-opacity:1"
         id="tspan344" /></text>
    <flowRoot
       xml:space="preserve"
       id="flowRoot88"
       style="fill:black;fill-opacity:1;stroke:none;font-family:Neucha;font-style:normal;font-weight:normal;font-size:45px;line-height:1.25;letter-spacing:0px;word-spacing:0px;-inkscape-font-specification:'Neucha, Normal';font-stretch:normal;font-variant:normal;text-anchor:middle;text-align:center;writing-mode:lr;font-variant-ligatures:normal;font-variant-caps:normal;font-variant-numeric:normal;font-feature-settings:normal"><flowRegion
         id="flowRegion90"><rect
           id="rect92"
           width="274.41876"
           height="185.14999"
           x="657.94373"
           y="140.54378" /></flowRegion><flowPara
         id="flowPara94" /></flowRoot>    <flowRoot
       xml:space="preserve"
       id="flowRoot96"
       style="fill:black;fill-opacity:1;stroke:none;font-family:Neucha;font-style:normal;font-weight:normal;font-size:45px;line-height:1.25;letter-spacing:0px;word-spacing:0px;-inkscape-font-specification:'Neucha, Normal';font-stretch:normal;font-variant:normal;text-anchor:middle;text-align:center;writing-mode:lr;font-variant-ligatures:normal;font-variant-caps:normal;font-variant-numeric:normal;font-feature-settings:normal"><flowRegion
         id="flowRegion98"><rect
           id="rect100"
           width="271.11249"
           height="171.925"
           x="659.59686"
           y="137.23753" /></flowRegion><flowPara
         id="flowPara102" /></flowRoot>    <flowRoot
       xml:space="preserve"
       id="flowRoot112"
       style="font-style:normal;font-variant:normal;font-weight:normal;font-stretch:normal;font-size:45px;line-height:1.25;font-family:Neucha;-inkscape-font-specification:'Neucha, Normal';font-variant-ligatures:normal;font-variant-caps:normal;font-variant-numeric:normal;font-feature-settings:normal;text-align:center;letter-spacing:0px;word-spacing:0px;writing-mode:lr-tb;text-anchor:middle;fill:#000000;fill-opacity:1;stroke:none"
       transform="translate(18.702974,9.351487)"><flowRegion
         id="flowRegion114"><rect
           id="rect116"
           width="281.03125"
           height="123.98438"
           x="659.59686"
           y="162.03441" /></flowRegion><flowPara
         id="flowPara118"
         style="font-size:46.66666794px">Аха!</flowPara><flowPara
         id="flowPara120"
         style="font-size:46.66666794px">вот и выход!</flowPara></flowRoot>    <flowRoot
       xml:space="preserve"
       id="flowRoot130"
       style="fill:black;fill-opacity:1;stroke:none;font-family:Neucha;font-style:normal;font-weight:normal;font-size:45px;line-height:1.25;letter-spacing:0px;word-spacing:0px;-inkscape-font-specification:'Neucha, Normal';font-stretch:normal;font-variant:normal;text-anchor:middle;text-align:center;writing-mode:lr;font-variant-ligatures:normal;font-variant-caps:normal;font-variant-numeric:normal;font-feature-settings:normal"><flowRegion
         id="flowRegion132"><rect
           id="rect134"
           width="84.309372"
           height="72.737503"
           x="1848.1937"
           y="24.825035" /></flowRegion><flowPara
         id="flowPara136" /></flowRoot>    <flowRoot
       xml:space="preserve"
       id="flowRoot138"
       style="font-style:normal;font-variant:normal;font-weight:normal;font-stretch:normal;font-size:45px;line-height:1.25;font-family:Neucha;-inkscape-font-specification:'Neucha, Normal';font-variant-ligatures:normal;font-variant-caps:normal;font-variant-numeric:normal;font-feature-settings:normal;text-align:center;letter-spacing:0px;word-spacing:0px;writing-mode:lr-tb;text-anchor:middle;fill:#000000;fill-opacity:1;stroke:none"><flowRegion
         id="flowRegion140"><rect
           id="rect142"
           width="239.70312"
           height="76.043747"
           x="357.07498"
           y="1175.4" /></flowRegion><flowPara
         id="flowPara144"
         style="-inkscape-font-specification:Neucha;font-family:Neucha;font-weight:normal;font-style:normal;font-stretch:normal;font-variant:normal;font-size:60px">Фууу...</flowPara></flowRoot>    <flowRoot
       xml:space="preserve"
       id="flowRoot146"
       style="fill:black;fill-opacity:1;stroke:none;font-family:Neucha;font-style:normal;font-weight:normal;font-size:45px;line-height:1.25;letter-spacing:0px;word-spacing:0px;-inkscape-font-specification:'Neucha, Normal';font-stretch:normal;font-variant:normal;text-anchor:middle;text-align:center;writing-mode:lr;font-variant-ligatures:normal;font-variant-caps:normal;font-variant-numeric:normal;font-feature-settings:normal"><flowRegion
         id="flowRegion148"><rect
           id="rect150"
           width="482.71249"
           height="228.13124"
           x="337.23749"
           y="1274.5875" /></flowRegion><flowPara
         id="flowPara152" /></flowRoot>    <flowRoot
       xml:space="preserve"
       id="flowRoot158"
       style="fill:black;fill-opacity:1;stroke:none;font-family:Neucha;font-style:normal;font-weight:normal;font-size:45px;line-height:1.25;letter-spacing:0px;word-spacing:0px;-inkscape-font-specification:'Neucha, Normal';font-stretch:normal;font-variant:normal;text-anchor:middle;text-align:center;writing-mode:lr;font-variant-ligatures:normal;font-variant-caps:normal;font-variant-numeric:normal;font-feature-settings:normal"><flowRegion
         id="flowRegion160"><rect
           id="rect162"
           width="482.71249"
           height="196.72188"
           x="348.80936"
           y="1301.0375" /></flowRegion><flowPara
         id="flowPara164" /></flowRoot>    <flowRoot
       xml:space="preserve"
       id="flowRoot166"
       style="fill:black;fill-opacity:1;stroke:none;font-family:Neucha;font-style:normal;font-weight:normal;font-size:46.66666667px;line-height:1.25;letter-spacing:0px;word-spacing:0px;-inkscape-font-specification:'Neucha, Normal';font-stretch:normal;font-variant:normal;text-anchor:middle;text-align:center;writing-mode:lr;font-variant-ligatures:normal;font-variant-caps:normal;font-variant-numeric:normal;font-feature-settings:normal"><flowRegion
         id="flowRegion168"><rect
           id="rect170"
           width="452.95624"
           height="216.55937"
           x="358.72812"
           y="1291.1188" /></flowRegion><flowPara
         id="flowPara172" /></flowRoot>    <flowRoot
       xml:space="preserve"
       id="flowRoot176"
       style="font-style:normal;font-variant:normal;font-weight:normal;font-stretch:normal;font-size:46.66666794px;line-height:1.25;font-family:Neucha;-inkscape-font-specification:'Neucha, Normal';font-variant-ligatures:normal;font-variant-caps:normal;font-variant-numeric:normal;font-feature-settings:normal;text-align:center;letter-spacing:0px;word-spacing:0px;writing-mode:lr-tb;text-anchor:middle;fill:#000000;fill-opacity:1;stroke:none"><flowRegion
         id="flowRegion178"><rect
           id="rect180"
           width="472.79376"
           height="254.58125"
           x="348.80936"
           y="1276.2406" /></flowRegion><flowPara
         id="flowPara182">Я уверена, там точно</flowPara><flowPara
         id="flowPara186">есть что-то о том,</flowPara><flowPara
         id="flowPara190">как избавиться от</flowPara><flowPara
         id="flowPara188"> этой &quot;штуки&quot;...</flowPara><flowPara
         id="flowPara184" /></flowRoot>    <flowRoot
       xml:space="preserve"
       id="flowRoot192"
       style="fill:black;fill-opacity:1;stroke:none;font-family:Neucha;font-style:normal;font-weight:normal;font-size:46.66666667px;line-height:1.25;letter-spacing:0px;word-spacing:0px;-inkscape-font-specification:'Neucha, Normal';font-stretch:normal;font-variant:normal;text-anchor:middle;text-align:center;writing-mode:lr;font-variant-ligatures:normal;font-variant-caps:normal;font-variant-numeric:normal;font-feature-settings:normal"><flowRegion
         id="flowRegion194"><rect
           id="rect196"
           width="271.11249"
           height="140.51562"
           x="1714.2906"
           y="1458.0844" /></flowRegion><flowPara
         id="flowPara198" /></flowRoot>    <flowRoot
       xml:space="preserve"
       id="flowRoot200"
       style="font-style:normal;font-variant:normal;font-weight:normal;font-stretch:normal;font-size:46.66666794px;line-height:1.25;font-family:Neucha;-inkscape-font-specification:'Neucha, Normal';font-variant-ligatures:normal;font-variant-caps:normal;font-variant-numeric:normal;font-feature-settings:normal;text-align:center;letter-spacing:0px;word-spacing:0px;writing-mode:lr-tb;text-anchor:middle;fill:#000000;fill-opacity:1;stroke:none"><flowRegion
         id="flowRegion202"><rect
           id="rect204"
           width="261.19376"
           height="123.98438"
           x="1724.2094"
           y="1472.9625" /></flowRegion><flowPara
         id="flowPara206"
         style="font-size:40px;line-height:0" /></flowRoot>    <flowRoot
       xml:space="preserve"
       id="flowRoot208"
       style="font-style:normal;font-variant:normal;font-weight:normal;font-stretch:normal;font-size:46.66666794px;line-height:1.25;font-family:Neucha;-inkscape-font-specification:'Neucha, Normal';font-variant-ligatures:normal;font-variant-caps:normal;font-variant-numeric:normal;font-feature-settings:normal;text-align:center;letter-spacing:0px;word-spacing:0px;writing-mode:lr-tb;text-anchor:middle;fill:#000000;fill-opacity:1;stroke:none"
       transform="translate(4.6757435)"><flowRegion
         id="flowRegion210"><rect
           id="rect212"
           width="341.41486"
           height="142.00255"
           x="1704.3718"
           y="1453.125"
           ry="18.702974" /></flowRegion><flowPara
         style="font-size:46.66666794px"
         id="flowPara216">Морквик... ты</flowPara><flowPara
         style="font-size:46.66666794px"
         id="flowPara220">можешь прочесть?</flowPara></flowRoot>    <flowRoot
       xml:space="preserve"
       id="flowRoot222"
       style="fill:black;fill-opacity:1;stroke:none;font-family:Neucha;font-style:normal;font-weight:normal;font-size:46.66666667px;line-height:1.25;letter-spacing:0px;word-spacing:0px;-inkscape-font-specification:'Neucha, Normal';font-stretch:normal;font-variant:normal;text-anchor:middle;text-align:center;writing-mode:lr;font-variant-ligatures:normal;font-variant-caps:normal;font-variant-numeric:normal;font-feature-settings:normal"><flowRegion
         id="flowRegion224"><rect
           id="rect226"
           width="284.33749"
           height="119.025"
           x="1826.7031"
           y="1585.375" /></flowRegion><flowPara
         id="flowPara228" /></flowRoot>    <text
       xml:space="preserve"
       style="font-style:normal;font-variant:normal;font-weight:normal;font-stretch:normal;font-size:46.66666794px;line-height:1.25;font-family:Neucha;-inkscape-font-specification:'Neucha, Normal';font-variant-ligatures:normal;font-variant-caps:normal;font-variant-numeric:normal;font-feature-settings:normal;text-align:center;letter-spacing:0px;word-spacing:0px;writing-mode:lr-tb;text-anchor:middle;fill:#000000;fill-opacity:1;stroke:none"
       x="1996.975"
       y="1661.4188"
       id="text232"><tspan
         sodipodi:role="line"
         x="1996.975"
         y="1701.2898"
         style="font-size:37.33333206px"
         id="tspan234" /></text>
    <flowRoot
       xml:space="preserve"
       id="flowRoot238"
       style="font-style:normal;font-variant:normal;font-weight:normal;font-stretch:normal;font-size:46.66666794px;line-height:1.25;font-family:Neucha;-inkscape-font-specification:'Neucha, Normal';font-variant-ligatures:normal;font-variant-caps:normal;font-variant-numeric:normal;font-feature-settings:normal;text-align:center;letter-spacing:0px;word-spacing:0px;writing-mode:lr-tb;text-anchor:middle;fill:#000000;fill-opacity:1;stroke:none"
       transform="translate(2.3378718,-4.6757435)"><flowRegion
         id="flowRegion240"
         style="font-size:40px"><rect
           id="rect242"
           width="267.80621"
           height="115.71873"
           x="1823.3969"
           y="1587.0282"
           style="font-size:40px" /></flowRegion><flowPara
         id="flowPara244">М... конечно</flowPara><flowPara
         id="flowPara246"> же нет...</flowPara></flowRoot>    <flowRoot
       xml:space="preserve"
       id="flowRoot248"
       style="font-style:normal;font-variant:normal;font-weight:normal;font-stretch:normal;font-size:46.66666794px;line-height:1.25;font-family:Neucha;-inkscape-font-specification:'Neucha, Normal';font-variant-ligatures:normal;font-variant-caps:normal;font-variant-numeric:normal;font-feature-settings:normal;text-align:center;letter-spacing:0px;word-spacing:0px;writing-mode:lr-tb;text-anchor:middle;fill:#000000;fill-opacity:1;stroke:none"
       transform="translate(-7.0136153,2.3378718)"><flowRegion
         id="flowRegion250"><rect
           id="rect252"
           width="148.78125"
           height="72.737503"
           x="1904.4"
           y="1702.7469" /></flowRegion><flowPara
         id="flowPara254"
         style="font-size:46.66666794px">Тьфу</flowPara></flowRoot>    <flowRoot
       xml:space="preserve"
       id="flowRoot256"
       style="fill:black;fill-opacity:1;stroke:none;font-family:Neucha;font-style:normal;font-weight:normal;font-size:46.66666667px;line-height:1.25;letter-spacing:0px;word-spacing:0px;-inkscape-font-specification:'Neucha, Normal';font-stretch:normal;font-variant:normal;text-anchor:middle;text-align:center;writing-mode:lr;font-variant-ligatures:normal;font-variant-caps:normal;font-variant-numeric:normal;font-feature-settings:normal"><flowRegion
         id="flowRegion258"><rect
           id="rect260"
           width="178.53749"
           height="180.19063"
           x="927.40314"
           y="2726.0312" /></flowRegion><flowPara
         id="flowPara262" /></flowRoot>    <text
       xml:space="preserve"
       style="font-style:normal;font-variant:normal;font-weight:normal;font-stretch:normal;font-size:46.66666794px;line-height:1.25;font-family:Neucha;-inkscape-font-specification:'Neucha, Normal';font-variant-ligatures:normal;font-variant-caps:normal;font-variant-numeric:normal;font-feature-settings:normal;text-align:center;letter-spacing:0px;word-spacing:0px;writing-mode:lr-tb;text-anchor:middle;fill:#000000;fill-opacity:1;stroke:none"
       x="1024.9375"
       y="2873.1594"
       id="text266"><tspan
         sodipodi:role="line"
         id="tspan264"
         x="1024.9375"
         y="2913.0305" /></text>
    <flowRoot
       xml:space="preserve"
       id="flowRoot268"
       style="font-style:normal;font-variant:normal;font-weight:normal;font-stretch:normal;font-size:46.66666794px;line-height:1.25;font-family:Neucha;-inkscape-font-specification:'Neucha, Normal';font-variant-ligatures:normal;font-variant-caps:normal;font-variant-numeric:normal;font-feature-settings:normal;text-align:center;letter-spacing:0px;word-spacing:0px;writing-mode:lr-tb;text-anchor:middle;fill:#000000;fill-opacity:1;stroke:none"
       transform="matrix(0.92167319,0,0,0.9053613,73.456167,266.17117)"><flowRegion
         id="flowRegion270"><rect
           id="rect272"
           width="171.925"
           height="155.39375"
           x="930.70935"
           y="2737.603" /></flowRegion><flowPara
         id="flowPara274"
         style="font-size:60px">Так и знала!!!</flowPara></flowRoot>    <flowRoot
       xml:space="preserve"
       id="flowRoot276"
       style="fill:black;fill-opacity:1;stroke:none;font-family:Neucha;font-style:normal;font-weight:normal;font-size:46.66666667px;line-height:1.25;letter-spacing:0px;word-spacing:0px;-inkscape-font-specification:'Neucha, Normal';font-stretch:normal;font-variant:normal;text-anchor:middle;text-align:center;writing-mode:lr;font-variant-ligatures:normal;font-variant-caps:normal;font-variant-numeric:normal;font-feature-settings:normal"><flowRegion
         id="flowRegion278"><rect
           id="rect280"
           width="267.80624"
           height="163.65938"
           x="940.62811"
           y="2924.4062" /></flowRegion><flowPara
         id="flowPara282" /></flowRoot>    <text
       xml:space="preserve"
       style="font-style:normal;font-variant:normal;font-weight:normal;font-stretch:normal;font-size:46.66666794px;line-height:1.25;font-family:Neucha;-inkscape-font-specification:'Neucha, Normal';font-variant-ligatures:normal;font-variant-caps:normal;font-variant-numeric:normal;font-feature-settings:normal;text-align:center;letter-spacing:0px;word-spacing:0px;writing-mode:lr-tb;text-anchor:middle;fill:#000000;fill-opacity:1;stroke:none"
       x="1112.5531"
       y="3012.022"
       id="text286"><tspan
         sodipodi:role="line"
         id="tspan284"
         x="1112.5531"
         y="3051.8931" /></text>
    <flowRoot
       xml:space="preserve"
       id="flowRoot288"
       style="font-style:normal;font-variant:normal;font-weight:normal;font-stretch:normal;font-size:46.66666794px;line-height:1.25;font-family:Neucha;-inkscape-font-specification:'Neucha, Normal';font-variant-ligatures:normal;font-variant-caps:normal;font-variant-numeric:normal;font-feature-settings:normal;text-align:center;letter-spacing:0px;word-spacing:0px;writing-mode:lr-tb;text-anchor:middle;fill:#000000;fill-opacity:1;stroke:none"
       transform="matrix(0.95876239,0,0,0.96127076,47.024294,117.65851)"><flowRegion
         id="flowRegion290"><rect
           id="rect292"
           width="320.37381"
           height="299.16678"
           x="915.83124"
           y="2894.6499" /></flowRegion><flowPara
         id="flowPara294"
         style="font-size:46.66666794px;line-height:46.66666794px;word-spacing:0px">Всё  получалось слишком складно, чтобы полагаться</flowPara><flowPara
         style="font-size:46.66666794px;line-height:46.66666794px;word-spacing:0px"
         id="flowPara296"> на это.         </flowPara></flowRoot>    <flowRoot
       xml:space="preserve"
       id="flowRoot298"
       style="fill:black;fill-opacity:1;stroke:none;font-family:Neucha;font-style:normal;font-weight:normal;font-size:46.66666667px;line-height:1.25;letter-spacing:0px;word-spacing:0px;-inkscape-font-specification:'Neucha, Normal';font-stretch:normal;font-variant:normal;text-anchor:middle;text-align:center;writing-mode:lr;font-variant-ligatures:normal;font-variant-caps:normal;font-variant-numeric:normal;font-feature-settings:normal"><flowRegion
         id="flowRegion300"><rect
           id="rect302"
           width="233.09062"
           height="84.309372"
           x="935.66876"
           y="3122.7812" /></flowRegion><flowPara
         id="flowPara304" /></flowRoot>    <text
       xml:space="preserve"
       style="font-style:normal;font-variant:normal;font-weight:normal;font-stretch:normal;font-size:46.66666794px;line-height:1.25;font-family:Neucha;-inkscape-font-specification:'Neucha, Normal';font-variant-ligatures:normal;font-variant-caps:normal;font-variant-numeric:normal;font-feature-settings:normal;text-align:center;letter-spacing:0px;word-spacing:0px;writing-mode:lr-tb;text-anchor:middle;fill:#000000;fill-opacity:1;stroke:none"
       x="1096.0219"
       y="3170.7219"
       id="text308"><tspan
         sodipodi:role="line"
         id="tspan306"
         x="1096.0219"
         y="3210.593" /></text>
    <flowRoot
       xml:space="preserve"
       id="flowRoot310"
       style="font-style:normal;font-variant:normal;font-weight:normal;font-stretch:normal;font-size:46.66666794px;line-height:1.25;font-family:Neucha;-inkscape-font-specification:'Neucha, Normal';font-variant-ligatures:normal;font-variant-caps:normal;font-variant-numeric:normal;font-feature-settings:normal;text-align:center;letter-spacing:0px;word-spacing:0px;writing-mode:lr-tb;text-anchor:middle;fill:#000000;fill-opacity:1;stroke:none"
       transform="translate(2.1373141,4.7932272)"><flowRegion
         id="flowRegion312"><rect
           id="rect314"
           width="201.68124"
           height="114.06562"
           x="930.70935"
           y="3122.7812" /></flowRegion><flowPara
         id="flowPara316"
         style="font-size:73.33333588px">Гррр!!!</flowPara></flowRoot>    <flowRoot
       xml:space="preserve"
       id="flowRoot318"
       style="fill:black;fill-opacity:1;stroke:none;font-family:Neucha;font-style:normal;font-weight:normal;font-size:46.66666667px;line-height:1.25;letter-spacing:0px;word-spacing:0px;-inkscape-font-specification:'Neucha, Normal';font-stretch:normal;font-variant:normal;text-anchor:middle;text-align:center;writing-mode:lr;font-variant-ligatures:normal;font-variant-caps:normal;font-variant-numeric:normal;font-feature-settings:normal"><flowRegion
         id="flowRegion320"><rect
           id="rect322"
           width="472.79373"
           height="228.13124"
           x="1871.3375"
           y="2116.0281" /></flowRegion><flowPara
         id="flowPara324" /></flowRoot>    <flowRoot
       xml:space="preserve"
       id="flowRoot326"
       style="font-style:normal;font-variant:normal;font-weight:normal;font-stretch:normal;font-size:46.66666794px;line-height:1.25;font-family:Neucha;-inkscape-font-specification:'Neucha, Normal';font-variant-ligatures:normal;font-variant-caps:normal;font-variant-numeric:normal;font-feature-settings:normal;text-align:center;letter-spacing:0px;word-spacing:0px;writing-mode:lr-tb;text-anchor:middle;fill:#000000;fill-opacity:1;stroke:none"
       transform="translate(-9.7526024,3.30625)"><flowRegion
         id="flowRegion328"><rect
           id="rect330"
           width="512.20532"
           height="205.105"
           x="1838.4897"
           y="2133.2441" /></flowRegion><flowPara
         id="flowPara332"
         style="font-size:46.66666794px">В результате, похоже, книги не помогут справиться с любой ситуацией...</flowPara></flowRoot>    <flowRoot
       xml:space="preserve"
       id="flowRoot334"
       style="fill:black;fill-opacity:1;stroke:none;font-family:Neucha;font-style:normal;font-weight:normal;font-size:46.66666667px;line-height:1.25;letter-spacing:0px;word-spacing:0px;-inkscape-font-specification:'Neucha, Normal';font-stretch:normal;font-variant:normal;text-anchor:middle;text-align:center;writing-mode:lr;font-variant-ligatures:normal;font-variant-caps:normal;font-variant-numeric:normal;font-feature-settings:normal"><flowRegion
         id="flowRegion336"><rect
           id="rect338"
           width="39.674999"
           height="62.818748"
           x="1993.6687"
           y="3293.0532" /></flowRegion><flowPara
         id="flowPara340" /></flowRoot>    <flowRoot
       xml:space="preserve"
       id="flowRoot346"
       style="fill:black;fill-opacity:1;stroke:none;font-family:Neucha;font-style:normal;font-weight:normal;font-size:46.66666667px;line-height:1.25;letter-spacing:0px;word-spacing:0px;-inkscape-font-specification:'Neucha, Normal';font-stretch:normal;font-variant:normal;text-anchor:middle;text-align:center;writing-mode:lr;font-variant-ligatures:normal;font-variant-caps:normal;font-variant-numeric:normal;font-feature-settings:normal"><flowRegion
         id="flowRegion348"><rect
           id="rect350"
           width="47.940624"
           height="85.962502"
           x="1906.0531"
           y="3207.0906" /></flowRegion><flowPara
         id="flowPara352" /></flowRoot>  </g>
</svg>
