<?xml version="1.0" encoding="UTF-8" standalone="no"?>
<!-- Created with Inkscape (http://www.inkscape.org/) -->

<svg
   xmlns:dc="http://purl.org/dc/elements/1.1/"
   xmlns:cc="http://creativecommons.org/ns#"
   xmlns:rdf="http://www.w3.org/1999/02/22-rdf-syntax-ns#"
   xmlns:svg="http://www.w3.org/2000/svg"
   xmlns="http://www.w3.org/2000/svg"
   xmlns:xlink="http://www.w3.org/1999/xlink"
   xmlns:sodipodi="http://sodipodi.sourceforge.net/DTD/sodipodi-0.dtd"
   xmlns:inkscape="http://www.inkscape.org/namespaces/inkscape"
   id="svg2"
   version="1.1"
   inkscape:version="0.91 r13725"
   width="2481"
   height="3503"
   sodipodi:docname="E02P05.svg">
  <metadata
     id="metadata8">
    <rdf:RDF>
      <cc:Work
         rdf:about="">
        <dc:format>image/svg+xml</dc:format>
        <dc:type
           rdf:resource="http://purl.org/dc/dcmitype/StillImage" />
        <dc:title />
      </cc:Work>
    </rdf:RDF>
  </metadata>
  <defs
     id="defs6" />
  <sodipodi:namedview
     pagecolor="#ffffff"
     bordercolor="#666666"
     borderopacity="1"
     objecttolerance="10"
     gridtolerance="10"
     guidetolerance="10"
     inkscape:pageopacity="0"
     inkscape:pageshadow="2"
     inkscape:window-width="1920"
     inkscape:window-height="1017"
     id="namedview4"
     showgrid="false"
     inkscape:zoom="0.77781746"
     inkscape:cx="1131.7121"
     inkscape:cy="2200.4927"
     inkscape:window-x="0"
     inkscape:window-y="30"
     inkscape:window-maximized="1"
     inkscape:current-layer="layer1" />
  <g
     inkscape:groupmode="layer"
     id="layer2"
     inkscape:label="artwork"
     sodipodi:insensitive="true">
    <image
       sodipodi:absref="/home/nightlock/peppercarrot/webcomics/ep02_Rainbow-potions/lang/kr/../gfx_Pepper-and-Carrot_by-David-Revoy_E02P05.png"
       xlink:href="../gfx_Pepper-and-Carrot_by-David-Revoy_E02P05.png"
       y="0"
       x="-1.6728083e-06"
       id="image10"
       height="3503"
       width="2481" />
  </g>
  <g
     inkscape:groupmode="layer"
     id="layer1"
     inkscape:label="text"
     style="opacity:1">
    <flowRoot
       xml:space="preserve"
       id="flowRoot4052-0-1-3-3-0-5"
       style="color:#000000;font-style:normal;font-variant:normal;font-weight:normal;font-stretch:normal;font-size:72px;line-height:125%;font-family:Arial;-inkscape-font-specification:Arial;letter-spacing:0px;word-spacing:0px;display:inline;overflow:visible;visibility:visible;fill:#ff0145;fill-opacity:1;fill-rule:nonzero;stroke:#ff0145;stroke-width:2.06473064;stroke-miterlimit:4;stroke-dasharray:none;stroke-opacity:1;marker:none;enable-background:accumulate"
       transform="matrix(1.2892785,-0.15934085,0.39943039,1.0914013,816.22873,666.33596)"><flowRegion
         id="flowRegion4054-7-0-2-2-5-5"
         style="stroke-width:4.93332052"><rect
           id="rect4056-8-2-5-7-9-8"
           width="130.98526"
           height="72.916138"
           x="92.642677"
           y="425.30325"
           style="color:#000000;font-size:72px;display:inline;overflow:visible;visibility:visible;fill:#ff0145;fill-opacity:1;fill-rule:nonzero;stroke:#ff0145;stroke-width:2.06473064;stroke-miterlimit:4;stroke-dasharray:none;stroke-opacity:1;marker:none;enable-background:accumulate" /></flowRegion><flowPara
         style="color:#000000;font-style:normal;font-variant:normal;font-weight:normal;font-stretch:normal;font-size:64px;font-family:Lavi;-inkscape-font-specification:Lavi;text-align:center;text-anchor:middle;display:inline;overflow:visible;visibility:visible;fill:#ff0145;fill-opacity:1;fill-rule:nonzero;stroke:#ff0145;stroke-width:2.06473064;stroke-miterlimit:4;stroke-dasharray:none;stroke-opacity:1;marker:none;enable-background:accumulate"
         id="flowPara3387" /></flowRoot>    <flowRoot
       xml:space="preserve"
       id="flowRoot4052-0-1-3-3-0-5-1"
       style="color:#000000;font-style:normal;font-variant:normal;font-weight:normal;font-stretch:normal;font-size:72px;line-height:125%;font-family:Arial;-inkscape-font-specification:Arial;letter-spacing:0px;word-spacing:0px;display:inline;overflow:visible;visibility:visible;fill:#ff0145;fill-opacity:1;fill-rule:nonzero;stroke:#ff0145;stroke-width:1.61907113;stroke-miterlimit:4;stroke-dasharray:none;stroke-opacity:1;marker:none;enable-background:accumulate"
       transform="matrix(1.1709904,-0.20080511,0.36278363,1.3754097,889.61965,536.97379)"><flowRegion
         id="flowRegion4054-7-0-2-2-5-5-9"
         style="stroke-width:7.05787563"><rect
           id="rect4056-8-2-5-7-9-8-9"
           width="173.6499"
           height="83.490906"
           x="92.642677"
           y="425.30325"
           style="color:#000000;font-size:72px;display:inline;overflow:visible;visibility:visible;fill:#ff0145;fill-opacity:1;fill-rule:nonzero;stroke:#ff0145;stroke-width:1.61907113;stroke-miterlimit:4;stroke-dasharray:none;stroke-opacity:1;marker:none;enable-background:accumulate" /></flowRegion><flowPara
         style="color:#000000;font-style:normal;font-variant:normal;font-weight:normal;font-stretch:normal;font-size:64px;font-family:'Nanum Pen Script OTF';-inkscape-font-specification:'Nanum Pen Script OTF';text-align:center;text-anchor:middle;display:inline;overflow:visible;visibility:visible;fill:#ff0145;fill-opacity:1;fill-rule:nonzero;stroke:#ff0145;stroke-width:1.61907113;stroke-miterlimit:4;stroke-dasharray:none;stroke-opacity:1;marker:none;enable-background:accumulate"
         id="flowPara4058-8-1-3-0-6-1-3">뽀글</flowPara></flowRoot>    <flowRoot
       xml:space="preserve"
       id="flowRoot4052-0-1-3-3-0-5-5"
       style="color:#000000;font-style:normal;font-variant:normal;font-weight:normal;font-stretch:normal;font-size:72px;line-height:125%;font-family:Arial;-inkscape-font-specification:Arial;letter-spacing:0px;word-spacing:0px;display:inline;overflow:visible;visibility:visible;fill:#ff3c70;fill-opacity:1;fill-rule:nonzero;stroke:#ff3c70;stroke-width:2.06473064;stroke-miterlimit:4;stroke-dasharray:none;stroke-opacity:1;marker:none;enable-background:accumulate"
       transform="matrix(1.2892785,-0.15934085,0.39943039,1.0914013,863.7375,745.89496)"><flowRegion
         id="flowRegion4054-7-0-2-2-5-5-2"
         style="stroke-width:4.93332052"><rect
           id="rect4056-8-2-5-7-9-8-92"
           width="130.98526"
           height="72.916138"
           x="92.642677"
           y="425.30325"
           style="color:#000000;font-size:72px;display:inline;overflow:visible;visibility:visible;fill:#ff3c70;fill-opacity:1;fill-rule:nonzero;stroke:#ff3c70;stroke-width:2.06473064;stroke-miterlimit:4;stroke-dasharray:none;stroke-opacity:1;marker:none;enable-background:accumulate" /></flowRegion><flowPara
         style="color:#000000;font-style:normal;font-variant:normal;font-weight:normal;font-stretch:normal;font-size:64px;font-family:Lavi;-inkscape-font-specification:Lavi;text-align:center;text-anchor:middle;display:inline;overflow:visible;visibility:visible;fill:#ff3c70;fill-opacity:1;fill-rule:nonzero;stroke:#ff3c70;stroke-width:2.06473064;stroke-miterlimit:4;stroke-dasharray:none;stroke-opacity:1;marker:none;enable-background:accumulate"
         id="flowPara4058-8-1-3-0-6-1-0" /></flowRoot>    <flowRoot
       xml:space="preserve"
       id="flowRoot4052-0-1-3-3-0-5-1-5"
       style="color:#000000;font-style:normal;font-variant:normal;font-weight:normal;font-stretch:normal;font-size:72px;line-height:125%;font-family:Arial;-inkscape-font-specification:Arial;letter-spacing:0px;word-spacing:0px;display:inline;overflow:visible;visibility:visible;fill:#ff3c70;fill-opacity:1;fill-rule:nonzero;stroke:#ff3c70;stroke-width:1.89042509;stroke-miterlimit:4;stroke-dasharray:none;stroke-opacity:1;marker:none;enable-background:accumulate"
       transform="matrix(1.002905,-0.1719813,0.31070923,1.1779818,1002.2469,703.02013)"><flowRegion
         id="flowRegion4054-7-0-2-2-5-5-9-7"
         style="stroke-width:7.05787563"><rect
           id="rect4056-8-2-5-7-9-8-9-1"
           width="130.98526"
           height="72.916138"
           x="92.642677"
           y="425.30325"
           style="color:#000000;font-size:72px;display:inline;overflow:visible;visibility:visible;fill:#ff3c70;fill-opacity:1;fill-rule:nonzero;stroke:#ff3c70;stroke-width:1.89042509;stroke-miterlimit:4;stroke-dasharray:none;stroke-opacity:1;marker:none;enable-background:accumulate" /></flowRegion><flowPara
         style="color:#000000;font-style:normal;font-variant:normal;font-weight:normal;font-stretch:normal;font-size:64px;font-family:'Nanum Pen Script OTF';-inkscape-font-specification:'Nanum Pen Script OTF';text-align:center;text-anchor:middle;display:inline;overflow:visible;visibility:visible;fill:#ff3c70;fill-opacity:1;fill-rule:nonzero;stroke:#ff3c70;stroke-width:1.89042509;stroke-miterlimit:4;stroke-dasharray:none;stroke-opacity:1;marker:none;enable-background:accumulate"
         id="flowPara4058-8-1-3-0-6-1-3-0">뽀글</flowPara></flowRoot>    <flowRoot
       xml:space="preserve"
       id="flowRoot4052-0-1-3-3-0-5-1-5-3"
       style="color:#000000;font-style:normal;font-variant:normal;font-weight:normal;font-stretch:normal;font-size:72px;line-height:125%;font-family:Arial;-inkscape-font-specification:Arial;letter-spacing:0px;word-spacing:0px;display:inline;overflow:visible;visibility:visible;fill:#fe801c;fill-opacity:1;fill-rule:nonzero;stroke:#fe801c;stroke-width:2.39221978;stroke-miterlimit:4;stroke-dasharray:none;stroke-opacity:1;marker:none;enable-background:accumulate"
       transform="matrix(1.0388137,0.32419941,-0.06882034,1.1859699,1078.2856,2386.0157)"><flowRegion
         id="flowRegion4054-7-0-2-2-5-5-9-7-0"
         style="stroke-width:5.71580029"><rect
           id="rect4056-8-2-5-7-9-8-9-1-9"
           width="130.98526"
           height="72.916138"
           x="92.642677"
           y="425.30325"
           style="color:#000000;font-size:72px;display:inline;overflow:visible;visibility:visible;fill:#fe801c;fill-opacity:1;fill-rule:nonzero;stroke:#fe801c;stroke-width:2.39221978;stroke-miterlimit:4;stroke-dasharray:none;stroke-opacity:1;marker:none;enable-background:accumulate" /></flowRegion><flowPara
         style="color:#000000;font-style:normal;font-variant:normal;font-weight:normal;font-stretch:normal;font-size:64px;font-family:'Nanum Pen Script OTF';-inkscape-font-specification:'Nanum Pen Script OTF';text-align:center;text-anchor:middle;display:inline;overflow:visible;visibility:visible;fill:#fe801c;fill-opacity:1;fill-rule:nonzero;stroke:#fe801c;stroke-width:2.39221978;stroke-miterlimit:4;stroke-dasharray:none;stroke-opacity:1;marker:none;enable-background:accumulate"
         id="flowPara4058-8-1-3-0-6-1-3-0-3">퍽</flowPara><flowPara
         style="color:#000000;font-style:normal;font-variant:normal;font-weight:normal;font-stretch:normal;font-size:64px;font-family:Lavi;-inkscape-font-specification:Lavi;text-align:center;text-anchor:middle;display:inline;overflow:visible;visibility:visible;fill:#fe801c;fill-opacity:1;fill-rule:nonzero;stroke:#fe801c;stroke-width:2.39221978;stroke-miterlimit:4;stroke-dasharray:none;stroke-opacity:1;marker:none;enable-background:accumulate"
         id="flowPara3388" /></flowRoot>    <flowRoot
       xml:space="preserve"
       id="flowRoot4052-0-1-3-3-0-5-1-5-3-2"
       style="color:#000000;font-style:normal;font-variant:normal;font-weight:normal;font-stretch:normal;font-size:72px;line-height:125%;font-family:Arial;-inkscape-font-specification:Arial;letter-spacing:0px;word-spacing:0px;display:inline;overflow:visible;visibility:visible;fill:#fe801c;fill-opacity:1;fill-rule:nonzero;stroke:#fe801c;stroke-width:2.39221978;stroke-miterlimit:4;stroke-dasharray:none;stroke-opacity:1;marker:none;enable-background:accumulate"
       transform="matrix(1.0054476,-0.22171616,-0.06660987,1.1833537,1030.0267,2475.7759)"><flowRegion
         id="flowRegion4054-7-0-2-2-5-5-9-7-0-7"
         style="stroke-width:5.71580029"><rect
           id="rect4056-8-2-5-7-9-8-9-1-9-0"
           width="130.98526"
           height="72.916138"
           x="92.642677"
           y="425.30325"
           style="color:#000000;font-size:72px;display:inline;overflow:visible;visibility:visible;fill:#fe801c;fill-opacity:1;fill-rule:nonzero;stroke:#fe801c;stroke-width:2.39221978;stroke-miterlimit:4;stroke-dasharray:none;stroke-opacity:1;marker:none;enable-background:accumulate" /></flowRegion><flowPara
         style="color:#000000;font-style:normal;font-variant:normal;font-weight:normal;font-stretch:normal;font-size:64px;font-family:'Nanum Pen Script OTF';-inkscape-font-specification:'Nanum Pen Script OTF';text-align:center;text-anchor:middle;display:inline;overflow:visible;visibility:visible;fill:#fe801c;fill-opacity:1;fill-rule:nonzero;stroke:#fe801c;stroke-width:2.39221978;stroke-miterlimit:4;stroke-dasharray:none;stroke-opacity:1;marker:none;enable-background:accumulate"
         id="flowPara4058-8-1-3-0-6-1-3-0-3-3">철</flowPara></flowRoot>    <flowRoot
       xml:space="preserve"
       id="flowRoot4052-0-1-3-3-0-5-1-5-3-2-4"
       style="color:#000000;font-style:normal;font-variant:normal;font-weight:normal;font-stretch:normal;font-size:72px;line-height:125%;font-family:Arial;-inkscape-font-specification:Arial;letter-spacing:0px;word-spacing:0px;display:inline;overflow:visible;visibility:visible;fill:#fe801c;fill-opacity:1;fill-rule:nonzero;stroke:#fe801c;stroke-width:2.39221978;stroke-miterlimit:4;stroke-dasharray:none;stroke-opacity:1;marker:none;enable-background:accumulate"
       transform="matrix(0.97088706,-0.72315017,-0.06432027,1.1764023,997.74406,2552.248)"
       inkscape:transform-center-x="27.472998"
       inkscape:transform-center-y="5.9336035"><flowRegion
         id="flowRegion4054-7-0-2-2-5-5-9-7-0-7-9"
         style="stroke-width:5.71580029"><rect
           id="rect4056-8-2-5-7-9-8-9-1-9-0-0"
           width="130.98526"
           height="72.916138"
           x="92.642677"
           y="425.30325"
           style="color:#000000;font-size:72px;display:inline;overflow:visible;visibility:visible;fill:#fe801c;fill-opacity:1;fill-rule:nonzero;stroke:#fe801c;stroke-width:2.39221978;stroke-miterlimit:4;stroke-dasharray:none;stroke-opacity:1;marker:none;enable-background:accumulate" /></flowRegion><flowPara
         style="color:#000000;font-style:normal;font-variant:normal;font-weight:normal;font-stretch:normal;font-size:64px;font-family:Lavi;-inkscape-font-specification:Lavi;text-align:center;text-anchor:middle;display:inline;overflow:visible;visibility:visible;fill:#fe801c;fill-opacity:1;fill-rule:nonzero;stroke:#fe801c;stroke-width:2.39221978;stroke-miterlimit:4;stroke-dasharray:none;stroke-opacity:1;marker:none;enable-background:accumulate"
         id="flowPara4058-8-1-3-0-6-1-3-0-3-3-1" /></flowRoot>    <flowRoot
       xml:space="preserve"
       id="flowRoot4052-0-1-3-3-0-5-1-5-3-7"
       style="color:#000000;font-style:normal;font-variant:normal;font-weight:normal;font-stretch:normal;font-size:72px;line-height:125%;font-family:Arial;-inkscape-font-specification:Arial;letter-spacing:0px;word-spacing:0px;display:inline;overflow:visible;visibility:visible;fill:#ec6870;fill-opacity:1;fill-rule:nonzero;stroke:#ec6870;stroke-width:2.39221978;stroke-miterlimit:4;stroke-dasharray:none;stroke-opacity:1;marker:none;enable-background:accumulate"
       transform="matrix(1.0323158,-0.33591146,-0.06838986,1.3481196,1304.5549,2460.0009)"><flowRegion
         id="flowRegion4054-7-0-2-2-5-5-9-7-0-3"
         style="stroke-width:5.71580029"><rect
           id="rect4056-8-2-5-7-9-8-9-1-9-4"
           width="130.98526"
           height="72.916138"
           x="92.642677"
           y="425.30325"
           style="color:#000000;font-size:72px;display:inline;overflow:visible;visibility:visible;fill:#ec6870;fill-opacity:1;fill-rule:nonzero;stroke:#ec6870;stroke-width:2.39221978;stroke-miterlimit:4;stroke-dasharray:none;stroke-opacity:1;marker:none;enable-background:accumulate" /></flowRegion><flowPara
         style="color:#000000;font-style:normal;font-variant:normal;font-weight:normal;font-stretch:normal;font-size:64px;font-family:'Nanum Pen Script OTF';-inkscape-font-specification:'Nanum Pen Script OTF';text-align:center;text-anchor:middle;display:inline;overflow:visible;visibility:visible;fill:#ec6870;fill-opacity:1;fill-rule:nonzero;stroke:#ec6870;stroke-width:2.39221978;stroke-miterlimit:4;stroke-dasharray:none;stroke-opacity:1;marker:none;enable-background:accumulate"
         id="flowPara4058-8-1-3-0-6-1-3-0-3-6">퍽</flowPara></flowRoot>    <flowRoot
       xml:space="preserve"
       id="flowRoot4052-0-1-3-3-0-5-1-5-3-2-2"
       style="color:#000000;font-style:normal;font-variant:normal;font-weight:normal;font-stretch:normal;font-size:72px;line-height:125%;font-family:Arial;-inkscape-font-specification:Arial;letter-spacing:0px;word-spacing:0px;display:inline;overflow:visible;visibility:visible;fill:#ec6870;fill-opacity:1;fill-rule:nonzero;stroke:#ec6870;stroke-width:2.39221978;stroke-miterlimit:4;stroke-dasharray:none;stroke-opacity:1;marker:none;enable-background:accumulate"
       transform="matrix(0.97088707,0.49678229,-0.06432027,1.0955831,1261.0119,2442.3147)"><flowRegion
         id="flowRegion4054-7-0-2-2-5-5-9-7-0-7-7"
         style="stroke-width:5.71580029"><rect
           id="rect4056-8-2-5-7-9-8-9-1-9-0-3"
           width="130.98526"
           height="72.916138"
           x="92.642677"
           y="425.30325"
           style="color:#000000;font-size:72px;display:inline;overflow:visible;visibility:visible;fill:#ec6870;fill-opacity:1;fill-rule:nonzero;stroke:#ec6870;stroke-width:2.39221978;stroke-miterlimit:4;stroke-dasharray:none;stroke-opacity:1;marker:none;enable-background:accumulate" /></flowRegion><flowPara
         style="color:#000000;font-style:normal;font-variant:normal;font-weight:normal;font-stretch:normal;font-size:64px;font-family:'Nanum Pen Script OTF';-inkscape-font-specification:'Nanum Pen Script OTF';text-align:center;text-anchor:middle;display:inline;overflow:visible;visibility:visible;fill:#ec6870;fill-opacity:1;fill-rule:nonzero;stroke:#ec6870;stroke-width:2.39221978;stroke-miterlimit:4;stroke-dasharray:none;stroke-opacity:1;marker:none;enable-background:accumulate"
         id="flowPara4058-8-1-3-0-6-1-3-0-3-3-6">철</flowPara><flowPara
         style="color:#000000;font-style:normal;font-variant:normal;font-weight:normal;font-stretch:normal;font-size:64px;font-family:'Nanum Pen Script OTF';-inkscape-font-specification:'Nanum Pen Script OTF';text-align:center;text-anchor:middle;display:inline;overflow:visible;visibility:visible;fill:#ec6870;fill-opacity:1;fill-rule:nonzero;stroke:#ec6870;stroke-width:2.39221978;stroke-miterlimit:4;stroke-dasharray:none;stroke-opacity:1;marker:none;enable-background:accumulate"
         id="flowPara3390" /></flowRoot>    <flowRoot
       xml:space="preserve"
       id="flowRoot4052-0-1-3-3-0-5-1-5-3-2-4-8"
       style="color:#000000;font-style:normal;font-variant:normal;font-weight:normal;font-stretch:normal;font-size:72px;line-height:125%;font-family:Arial;-inkscape-font-specification:Arial;letter-spacing:0px;word-spacing:0px;display:inline;overflow:visible;visibility:visible;fill:#ec6870;fill-opacity:1;fill-rule:nonzero;stroke:#ec6870;stroke-width:2.39221978;stroke-miterlimit:4;stroke-dasharray:none;stroke-opacity:1;marker:none;enable-background:accumulate"
       transform="matrix(0.97088706,0.52402113,-0.06432027,1.0937785,1222.0624,2435.854)"
       inkscape:transform-center-x="27.472966"
       inkscape:transform-center-y="-29.357052"><flowRegion
         id="flowRegion4054-7-0-2-2-5-5-9-7-0-7-9-5"
         style="stroke-width:5.71580029"><rect
           id="rect4056-8-2-5-7-9-8-9-1-9-0-0-9"
           width="130.98526"
           height="72.916138"
           x="92.642677"
           y="425.30325"
           style="color:#000000;font-size:72px;display:inline;overflow:visible;visibility:visible;fill:#ec6870;fill-opacity:1;fill-rule:nonzero;stroke:#ec6870;stroke-width:2.39221978;stroke-miterlimit:4;stroke-dasharray:none;stroke-opacity:1;marker:none;enable-background:accumulate" /></flowRegion><flowPara
         style="color:#000000;font-style:normal;font-variant:normal;font-weight:normal;font-stretch:normal;font-size:64px;font-family:Lavi;-inkscape-font-specification:Lavi;text-align:center;text-anchor:middle;display:inline;overflow:visible;visibility:visible;fill:#ec6870;fill-opacity:1;fill-rule:nonzero;stroke:#ec6870;stroke-width:2.39221978;stroke-miterlimit:4;stroke-dasharray:none;stroke-opacity:1;marker:none;enable-background:accumulate"
         id="flowPara4058-8-1-3-0-6-1-3-0-3-3-1-6" /></flowRoot>    <flowRoot
       xml:space="preserve"
       id="flowRoot4052-0-1-3-3-0-5-1-5-3-4"
       style="color:#000000;font-style:normal;font-variant:normal;font-weight:normal;font-stretch:normal;font-size:72px;line-height:125%;font-family:Arial;-inkscape-font-specification:Arial;letter-spacing:0px;word-spacing:0px;display:inline;overflow:visible;visibility:visible;fill:#4ca4f5;fill-opacity:1;fill-rule:nonzero;stroke:#4ca4f5;stroke-width:3.00470686;stroke-miterlimit:4;stroke-dasharray:none;stroke-opacity:1;marker:none;enable-background:accumulate"
       transform="matrix(1.17434,0.20669638,-0.07779881,1.1026668,1493.2608,2436.5765)"><flowRegion
         id="flowRegion4054-7-0-2-2-5-5-9-7-0-2"
         style="stroke-width:7.17923307"><rect
           id="rect4056-8-2-5-7-9-8-9-1-9-8"
           width="130.98526"
           height="72.916138"
           x="92.642677"
           y="425.30325"
           style="color:#000000;font-size:72px;display:inline;overflow:visible;visibility:visible;fill:#4ca4f5;fill-opacity:1;fill-rule:nonzero;stroke:#4ca4f5;stroke-width:3.00470686;stroke-miterlimit:4;stroke-dasharray:none;stroke-opacity:1;marker:none;enable-background:accumulate" /></flowRegion><flowPara
         style="color:#000000;font-style:normal;font-variant:normal;font-weight:normal;font-stretch:normal;font-size:64px;font-family:'Nanum Pen Script OTF';-inkscape-font-specification:'Nanum Pen Script OTF';text-align:center;text-anchor:middle;display:inline;overflow:visible;visibility:visible;fill:#4ca4f5;fill-opacity:1;fill-rule:nonzero;stroke:#4ca4f5;stroke-width:3.00470686;stroke-miterlimit:4;stroke-dasharray:none;stroke-opacity:1;marker:none;enable-background:accumulate"
         id="flowPara4058-8-1-3-0-6-1-3-0-3-0">퍽</flowPara></flowRoot>    <flowRoot
       xml:space="preserve"
       id="flowRoot4052-0-1-3-3-0-5-1-5-3-2-3"
       style="color:#000000;font-style:normal;font-variant:normal;font-weight:normal;font-stretch:normal;font-size:72px;line-height:125%;font-family:Arial;-inkscape-font-specification:Arial;letter-spacing:0px;word-spacing:0px;display:inline;overflow:visible;visibility:visible;fill:#4ca4f5;fill-opacity:1;fill-rule:nonzero;stroke:#4ca4f5;stroke-width:3.00470686;stroke-miterlimit:4;stroke-dasharray:none;stroke-opacity:1;marker:none;enable-background:accumulate"
       transform="matrix(1.089348,-0.39060082,-0.07216818,1.0614414,1453.5568,2553.5037)"><flowRegion
         id="flowRegion4054-7-0-2-2-5-5-9-7-0-7-75"
         style="stroke-width:7.17923307"><rect
           id="rect4056-8-2-5-7-9-8-9-1-9-0-6"
           width="130.98526"
           height="72.916138"
           x="92.642677"
           y="425.30325"
           style="color:#000000;font-size:72px;display:inline;overflow:visible;visibility:visible;fill:#4ca4f5;fill-opacity:1;fill-rule:nonzero;stroke:#4ca4f5;stroke-width:3.00470686;stroke-miterlimit:4;stroke-dasharray:none;stroke-opacity:1;marker:none;enable-background:accumulate" /></flowRegion><flowPara
         style="color:#000000;font-style:normal;font-variant:normal;font-weight:normal;font-stretch:normal;font-size:64px;font-family:'Nanum Pen Script OTF';-inkscape-font-specification:'Nanum Pen Script OTF';text-align:center;text-anchor:middle;display:inline;overflow:visible;visibility:visible;fill:#4ca4f5;fill-opacity:1;fill-rule:nonzero;stroke:#4ca4f5;stroke-width:3.00470686;stroke-miterlimit:4;stroke-dasharray:none;stroke-opacity:1;marker:none;enable-background:accumulate"
         id="flowPara4058-8-1-3-0-6-1-3-0-3-3-0">철</flowPara></flowRoot>    <flowRoot
       xml:space="preserve"
       id="flowRoot4052-0-1-3-3-0-5-1-5-3-2-4-5"
       style="color:#000000;font-style:normal;font-variant:normal;font-weight:normal;font-stretch:normal;font-size:72px;line-height:125%;font-family:Arial;-inkscape-font-specification:Arial;letter-spacing:0px;word-spacing:0px;display:inline;overflow:visible;visibility:visible;fill:#4ca4f5;fill-opacity:1;fill-rule:nonzero;stroke:#4ca4f5;stroke-width:3.00470686;stroke-miterlimit:4;stroke-dasharray:none;stroke-opacity:1;marker:none;enable-background:accumulate"
       transform="matrix(0.8547277,-0.5206758,-0.05662483,0.84702217,1448.529,2686.602)"
       inkscape:transform-center-x="24.18608"
       inkscape:transform-center-y="4.2721227"><flowRegion
         id="flowRegion4054-7-0-2-2-5-5-9-7-0-7-9-2"
         style="stroke-width:7.17923307"><rect
           id="rect4056-8-2-5-7-9-8-9-1-9-0-0-2"
           width="130.98526"
           height="72.916138"
           x="92.642677"
           y="425.30325"
           style="color:#000000;font-size:72px;display:inline;overflow:visible;visibility:visible;fill:#4ca4f5;fill-opacity:1;fill-rule:nonzero;stroke:#4ca4f5;stroke-width:3.00470686;stroke-miterlimit:4;stroke-dasharray:none;stroke-opacity:1;marker:none;enable-background:accumulate" /></flowRegion><flowPara
         style="color:#000000;font-style:normal;font-variant:normal;font-weight:normal;font-stretch:normal;font-size:64px;font-family:Lavi;-inkscape-font-specification:Lavi;text-align:center;text-anchor:middle;display:inline;overflow:visible;visibility:visible;fill:#4ca4f5;fill-opacity:1;fill-rule:nonzero;stroke:#4ca4f5;stroke-width:3.00470686;stroke-miterlimit:4;stroke-dasharray:none;stroke-opacity:1;marker:none;enable-background:accumulate"
         id="flowPara4058-8-1-3-0-6-1-3-0-3-3-1-4" /></flowRoot>  </g>
</svg>
