<?xml version="1.0" encoding="UTF-8" standalone="no"?>
<!-- Created with Inkscape (http://www.inkscape.org/) -->

<svg
   xmlns:dc="http://purl.org/dc/elements/1.1/"
   xmlns:cc="http://creativecommons.org/ns#"
   xmlns:rdf="http://www.w3.org/1999/02/22-rdf-syntax-ns#"
   xmlns:svg="http://www.w3.org/2000/svg"
   xmlns="http://www.w3.org/2000/svg"
   xmlns:xlink="http://www.w3.org/1999/xlink"
   xmlns:sodipodi="http://sodipodi.sourceforge.net/DTD/sodipodi-0.dtd"
   xmlns:inkscape="http://www.inkscape.org/namespaces/inkscape"
   id="svg2"
   version="1.1"
   inkscape:version="0.48.5 r10040"
   width="2481"
   height="5350"
   sodipodi:docname="E26P07.svg">
  <metadata
     id="metadata8">
    <rdf:RDF>
      <cc:Work
         rdf:about="">
        <dc:format>image/svg+xml</dc:format>
        <dc:type
           rdf:resource="http://purl.org/dc/dcmitype/StillImage" />
        <dc:title />
      </cc:Work>
    </rdf:RDF>
  </metadata>
  <defs
     id="defs6">
    <filter
       inkscape:label="Drop Shadow"
       id="filter5546"
       style="color-interpolation-filters:sRGB">
      <feFlood
         flood-opacity="1"
         flood-color="rgb(0,0,0)"
         result="flood"
         id="feFlood5548" />
      <feComposite
         in="flood"
         in2="SourceGraphic"
         operator="in"
         result="composite1"
         id="feComposite5550" />
      <feGaussianBlur
         in="composite1"
         stdDeviation="1"
         result="blur"
         id="feGaussianBlur5552" />
      <feOffset
         dx="2.5"
         dy="2.5"
         result="offset"
         id="feOffset5554" />
      <feComposite
         in="SourceGraphic"
         in2="offset"
         operator="over"
         result="composite2"
         id="feComposite5556" />
    </filter>
  </defs>
  <sodipodi:namedview
     pagecolor="#ffffff"
     bordercolor="#666666"
     borderopacity="1"
     objecttolerance="10"
     gridtolerance="10"
     guidetolerance="10"
     inkscape:pageopacity="0"
     inkscape:pageshadow="2"
     inkscape:window-width="1292"
     inkscape:window-height="745"
     id="namedview4"
     showgrid="false"
     inkscape:zoom="0.50528693"
     inkscape:cx="1482.0144"
     inkscape:cy="4749.4561"
     inkscape:window-x="66"
     inkscape:window-y="-8"
     inkscape:window-maximized="1"
     inkscape:current-layer="layer2"
     inkscape:object-nodes="true"
     showguides="true"
     inkscape:guide-bbox="true">
    <sodipodi:guide
       position="1610.3091,5273.3859"
       orientation="0,1"
       id="guide4214"
       inkscape:locked="false" />
  </sodipodi:namedview>
  <g
     inkscape:groupmode="layer"
     id="layer1"
     inkscape:label="artwork"
     style="display:inline"
     transform="translate(0,1374)"
     sodipodi:insensitive="true">
    <image
       sodipodi:absref="C:\Users\Gwen\Documents\Academie_du_Gallo\Traduction_BD\peppercarrot_ep26_Books-Are-Great_lang-pack\lang\go\../gfx_Pepper-and-Carrot_by-David-Revoy_E26P07.png"
       xlink:href="../gfx_Pepper-and-Carrot_by-David-Revoy_E26P07.png"
       width="2481"
       height="5350"
       preserveAspectRatio="none"
       style="image-rendering:optimizeQuality"
       id="image4223"
       x="0.54707891"
       y="-1373.3771" />
  </g>
  <g
     inkscape:groupmode="layer"
     id="layer3"
     inkscape:label="speechbubbles"
     style="display:inline"
     transform="translate(0,1374)" />
  <g
     inkscape:groupmode="layer"
     id="layer2"
     inkscape:label="text"
     style="display:inline;opacity:0.85500004"
     transform="translate(0,1374)">
    <text
       xml:space="preserve"
       style="font-style:normal;font-variant:normal;font-weight:normal;font-stretch:normal;text-align:center;line-height:0%;letter-spacing:0px;word-spacing:0px;text-anchor:middle;opacity:0.85500004;fill:#483e37;fill-opacity:1;stroke:none;display:inline;filter:url(#filter4155);font-family:Arial;-inkscape-font-specification:Arial"
       x="1240.1191"
       y="3842.3586"
       id="text4221-3"
       sodipodi:linespacing="0%"><tspan
         sodipodi:role="line"
         id="tspan4223-6"
         x="1240.1191"
         y="3842.3586"
         style="font-size:40px;font-style:normal;font-variant:normal;font-weight:normal;font-stretch:normal;line-height:1.25;fill:#483e37;font-family:Lavi;-inkscape-font-specification:Lavi">Vouz etou, devenez donouz de Pepper&amp;Carote : www.patreon.com/davidrevoy</tspan></text>
    <text
       xml:space="preserve"
       style="font-style:normal;font-variant:normal;font-weight:normal;font-stretch:normal;text-align:center;line-height:0%;letter-spacing:0px;word-spacing:0px;text-anchor:middle;opacity:0.85500004;fill:#483e37;fill-opacity:1;stroke:none;display:inline;filter:url(#filter4155);font-family:Arial;-inkscape-font-specification:Arial"
       x="1243.3711"
       y="-375.95468"
       id="text4162-7"
       sodipodi:linespacing="0%"><tspan
         sodipodi:role="line"
         x="1250.4023"
         y="-375.95468"
         style="font-size:40px;font-style:normal;font-variant:normal;font-weight:normal;font-stretch:normal;line-height:1.25;fill:#483e37;font-family:Lavi;-inkscape-font-specification:Lavi"
         id="tspan40">Pepper &amp; Carote ét pour ren de cheu en cheu, </tspan><tspan
         sodipodi:role="line"
         x="1250.4023"
         y="-325.95468"
         style="font-size:40px;font-style:normal;font-variant:normal;font-weight:normal;font-stretch:normal;line-height:1.25;fill:#483e37;font-family:Lavi;-inkscape-font-specification:Lavi"
         id="tspan6703">open-source, e eïdae od lez donaezons dez leizous. </tspan><tspan
         sodipodi:role="line"
         x="1243.3711"
         y="-275.95468"
         style="font-size:40px;font-style:normal;font-variant:normal;font-weight:normal;font-stretch:normal;line-height:1.25;fill:#483e37;font-family:Lavi;-inkscape-font-specification:Lavi"
         id="tspan6705">Pour l'éqerouey-ci, je remerciom lez 1098 donouz :</tspan></text>
    <text
       id="text4151-3"
       y="-1299.7914"
       x="1250.876"
       style="font-size:11.85031414px;font-style:normal;font-variant:normal;font-weight:normal;font-stretch:normal;text-indent:0;text-align:center;text-decoration:none;line-height:0%;letter-spacing:0px;word-spacing:0px;text-transform:none;direction:ltr;writing-mode:lr-tb;text-anchor:middle;baseline-shift:baseline;opacity:0.85500004;color:#000000;fill:#060404;fill-opacity:1;fill-rule:nonzero;stroke:none;visibility:visible;display:inline;overflow:visible;enable-background:accumulate;font-family:Lavi;-inkscape-font-specification:Lavi"
       xml:space="preserve"
       sodipodi:linespacing="0%"><tspan
         y="-1299.7914"
         x="1250.876"
         style="font-size:34.1513176px;font-style:normal;font-variant:normal;font-weight:normal;font-stretch:normal;text-indent:0;text-align:center;text-decoration:none;line-height:125%;letter-spacing:0px;word-spacing:0px;text-transform:none;direction:ltr;writing-mode:lr-tb;text-anchor:middle;baseline-shift:baseline;color:#000000;fill:#060404;fill-opacity:1;fill-rule:nonzero;stroke:none;visibility:visible;display:inline;overflow:visible;enable-background:accumulate;font-family:Lavi;-inkscape-font-specification:Lavi"
         sodipodi:role="line"
         id="tspan1042" /><tspan
         y="-1257.1023"
         x="1250.876"
         style="font-size:34.1513176px;font-style:normal;font-variant:normal;font-weight:normal;font-stretch:normal;text-indent:0;text-align:center;text-decoration:none;line-height:125%;letter-spacing:0px;word-spacing:0px;text-transform:none;direction:ltr;writing-mode:lr-tb;text-anchor:middle;baseline-shift:baseline;color:#000000;fill:#060404;fill-opacity:1;fill-rule:nonzero;stroke:none;visibility:visible;display:inline;overflow:visible;enable-background:accumulate;font-family:Lavi;-inkscape-font-specification:Lavi"
         sodipodi:role="line"
         id="tspan1046"><tspan
   style="font-size:34.1513176px;font-style:normal;font-variant:normal;font-weight:bold;font-stretch:normal;fill:#060404;fill-opacity:1;font-family:Lavi;-inkscape-font-specification:Lavi Bold"
   id="tspan1048">Licence : </tspan>Creative Commons Attribution 4.0.</tspan><tspan
         y="-1214.4131"
         x="1250.876"
         style="font-size:34.1513176px;font-style:normal;font-variant:normal;font-weight:normal;font-stretch:normal;text-indent:0;text-align:center;text-decoration:none;line-height:125%;letter-spacing:0px;word-spacing:0px;text-transform:none;direction:ltr;writing-mode:lr-tb;text-anchor:middle;baseline-shift:baseline;color:#000000;fill:#060404;fill-opacity:1;fill-rule:nonzero;stroke:none;visibility:visible;display:inline;overflow:visible;enable-background:accumulate;font-family:Lavi;-inkscape-font-specification:Lavi"
         sodipodi:role="line"
         id="tspan888"><tspan
   style="font-weight:bold"
   id="tspan890">Logiciels : </tspan>Krita 4.1, Inkscape 0.92.3 sur Kubuntu 17.10.</tspan><tspan
         y="-1171.724"
         x="1256.8792"
         style="font-size:34.1513176px;font-style:normal;font-variant:normal;font-weight:normal;font-stretch:normal;text-indent:0;text-align:center;text-decoration:none;line-height:125%;letter-spacing:0px;word-spacing:0px;text-transform:none;direction:ltr;writing-mode:lr-tb;text-anchor:middle;baseline-shift:baseline;color:#000000;fill:#060404;fill-opacity:1;fill-rule:nonzero;stroke:none;visibility:visible;display:inline;overflow:visible;enable-background:accumulate;font-family:Lavi;-inkscape-font-specification:Lavi"
         sodipodi:role="line"
         id="tspan1036"> </tspan><tspan
         y="-1129.0348"
         x="1250.876"
         style="font-size:34.1513176px;font-style:normal;font-variant:normal;font-weight:normal;font-stretch:normal;text-indent:0;text-align:center;text-decoration:none;line-height:125%;letter-spacing:0px;word-spacing:0px;text-transform:none;direction:ltr;writing-mode:lr-tb;text-anchor:middle;baseline-shift:baseline;color:#000000;fill:#060404;fill-opacity:1;fill-rule:nonzero;stroke:none;visibility:visible;display:inline;overflow:visible;enable-background:accumulate;font-family:Lavi;-inkscape-font-specification:Lavi"
         sodipodi:role="line"
         id="tspan933"><tspan
   style="font-size:34.1513176px;font-style:normal;font-variant:normal;font-weight:bold;font-stretch:normal;fill:#060404;fill-opacity:1;font-family:Lavi;-inkscape-font-specification:Lavi Bold"
   id="tspan918">Dessin &amp; Scénario : </tspan>David Revoy.</tspan><tspan
         y="-1086.3457"
         x="1250.876"
         style="font-size:34.1513176px;font-style:normal;font-variant:normal;font-weight:normal;font-stretch:normal;text-indent:0;text-align:center;text-decoration:none;line-height:125%;letter-spacing:0px;word-spacing:0px;text-transform:none;direction:ltr;writing-mode:lr-tb;text-anchor:middle;baseline-shift:baseline;color:#000000;fill:#060404;fill-opacity:1;fill-rule:nonzero;stroke:none;visibility:visible;display:inline;overflow:visible;enable-background:accumulate;font-family:Lavi;-inkscape-font-specification:Lavi"
         sodipodi:role="line"
         id="tspan943"><tspan
   style="font-size:34.1513176px;font-style:normal;font-variant:normal;font-weight:bold;font-stretch:normal;fill:#060404;fill-opacity:1;font-family:Lavi;-inkscape-font-specification:Lavi Bold"
   id="tspan945">Script doctor :</tspan> Craig Maloney.</tspan><tspan
         y="-1043.6565"
         x="1250.876"
         style="font-size:34.1513176px;font-style:normal;font-variant:normal;font-weight:normal;font-stretch:normal;text-indent:0;text-align:center;text-decoration:none;line-height:125%;letter-spacing:0px;word-spacing:0px;text-transform:none;direction:ltr;writing-mode:lr-tb;text-anchor:middle;baseline-shift:baseline;color:#000000;fill:#060404;fill-opacity:1;fill-rule:nonzero;stroke:none;visibility:visible;display:inline;overflow:visible;enable-background:accumulate;font-family:Lavi;-inkscape-font-specification:Lavi"
         sodipodi:role="line"
         id="tspan947"><tspan
   style="font-size:34.1513176px;font-style:normal;font-variant:normal;font-weight:bold;font-stretch:normal;fill:#060404;fill-opacity:1;font-family:Lavi;-inkscape-font-specification:Lavi Bold"
   id="tspan949">Correcteurs :</tspan> Craig Maloney, CalimeroTeknik.</tspan><tspan
         y="-1000.9673"
         x="1250.876"
         style="font-size:34.1513176px;font-style:normal;font-variant:normal;font-weight:bold;font-stretch:normal;text-indent:0;text-align:center;text-decoration:none;line-height:125%;letter-spacing:0px;word-spacing:0px;text-transform:none;direction:ltr;writing-mode:lr-tb;text-anchor:middle;baseline-shift:baseline;color:#000000;fill:#060404;fill-opacity:1;fill-rule:nonzero;stroke:none;visibility:visible;display:inline;overflow:visible;enable-background:accumulate;font-family:Lavi;-inkscape-font-specification:Lavi Bold"
         sodipodi:role="line"
         id="tspan895">Bêta-lecteurs :<tspan
   id="tspan1015"
   style="font-size:34.1513176px;font-style:normal;font-variant:normal;font-weight:normal;font-stretch:normal;text-indent:0;text-align:center;text-decoration:none;line-height:125%;letter-spacing:0px;word-spacing:0px;text-transform:none;direction:ltr;writing-mode:lr-tb;text-anchor:middle;baseline-shift:baseline;color:#000000;fill:#060404;fill-opacity:1;fill-rule:nonzero;stroke:none;visibility:visible;display:inline;overflow:visible;enable-background:accumulate;font-family:Lavi;-inkscape-font-specification:Lavi"> Ambernite, Craig Maloney, CalimeroTeknik, Jookia, Midgard, Nartance, Popolon, Quiralta, Valvin, xHire, Zeograd.</tspan></tspan><tspan
         y="-971.84387"
         x="1254.3143"
         style="font-size:19.56040382px;font-style:normal;font-variant:normal;font-weight:bold;font-stretch:normal;text-indent:0;text-align:center;text-decoration:none;line-height:125%;letter-spacing:0px;word-spacing:0px;text-transform:none;direction:ltr;writing-mode:lr-tb;text-anchor:middle;baseline-shift:baseline;color:#000000;fill:#060404;fill-opacity:1;fill-rule:nonzero;stroke:none;visibility:visible;display:inline;overflow:visible;enable-background:accumulate;font-family:Lavi;-inkscape-font-specification:Lavi Bold"
         sodipodi:role="line"
         id="tspan905"> </tspan><tspan
         y="-933.8277"
         x="1250.876"
         style="font-size:34.1513176px;font-style:normal;font-variant:normal;font-weight:bold;font-stretch:normal;text-indent:0;text-align:center;text-decoration:none;line-height:125%;letter-spacing:0px;word-spacing:0px;text-transform:none;direction:ltr;writing-mode:lr-tb;text-anchor:middle;baseline-shift:baseline;color:#000000;fill:#060404;fill-opacity:1;fill-rule:nonzero;stroke:none;visibility:visible;display:inline;overflow:visible;enable-background:accumulate;font-family:Lavi;-inkscape-font-specification:Lavi Bold"
         sodipodi:role="line"
         id="tspan907">Version gallo</tspan><tspan
         y="-891.13855"
         x="1250.876"
         style="font-size:34.1513176px;font-style:normal;font-variant:normal;font-weight:bold;font-stretch:normal;text-indent:0;text-align:center;text-decoration:none;line-height:125%;letter-spacing:0px;word-spacing:0px;text-transform:none;direction:ltr;writing-mode:lr-tb;text-anchor:middle;baseline-shift:baseline;color:#000000;fill:#060404;fill-opacity:1;fill-rule:nonzero;stroke:none;visibility:visible;display:inline;overflow:visible;enable-background:accumulate;font-family:Lavi;-inkscape-font-specification:Lavi Bold"
         sodipodi:role="line"
         id="tspan899">Traducteurs : Patrik Deriano, Gwenaëlle Lefeuvre.</tspan><tspan
         y="-848.4494"
         x="1256.8792"
         style="font-size:34.1513176px;font-style:normal;font-variant:normal;font-weight:bold;font-stretch:normal;text-indent:0;text-align:center;text-decoration:none;line-height:125%;letter-spacing:0px;word-spacing:0px;text-transform:none;direction:ltr;writing-mode:lr-tb;text-anchor:middle;baseline-shift:baseline;color:#000000;fill:#060404;fill-opacity:1;fill-rule:nonzero;stroke:none;visibility:visible;display:inline;overflow:visible;enable-background:accumulate;font-family:Lavi;-inkscape-font-specification:Lavi Bold"
         sodipodi:role="line"
         id="tspan1026"> </tspan><tspan
         y="-805.76025"
         x="1256.8792"
         style="font-size:34.1513176px;font-style:normal;font-variant:normal;font-weight:bold;font-stretch:normal;text-indent:0;text-align:center;text-decoration:none;line-height:125%;letter-spacing:0px;word-spacing:0px;text-transform:none;direction:ltr;writing-mode:lr-tb;text-anchor:middle;baseline-shift:baseline;color:#000000;fill:#060404;fill-opacity:1;fill-rule:nonzero;stroke:none;visibility:visible;display:inline;overflow:visible;enable-background:accumulate;font-family:Lavi;-inkscape-font-specification:Lavi Bold"
         sodipodi:role="line"
         id="tspan1028">Basé sur l'univers d'Hereva </tspan><tspan
         y="-763.07111"
         x="1256.8792"
         style="font-size:34.1513176px;font-style:normal;font-variant:normal;font-weight:normal;font-stretch:normal;text-indent:0;text-align:center;text-decoration:none;line-height:125%;letter-spacing:0px;word-spacing:0px;text-transform:none;direction:ltr;writing-mode:lr-tb;text-anchor:middle;baseline-shift:baseline;color:#000000;fill:#060404;fill-opacity:1;fill-rule:nonzero;stroke:none;visibility:visible;display:inline;overflow:visible;enable-background:accumulate;font-family:Lavi;-inkscape-font-specification:Lavi"
         sodipodi:role="line"
         id="tspan979"><tspan
   style="font-size:34.1513176px;font-weight:bold"
   id="tspan987">Creation :</tspan> David Revoy. </tspan><tspan
         y="-720.38196"
         x="1250.876"
         style="font-size:34.1513176px;font-style:normal;font-variant:normal;font-weight:normal;font-stretch:normal;text-indent:0;text-align:center;text-decoration:none;line-height:125%;letter-spacing:0px;word-spacing:0px;text-transform:none;direction:ltr;writing-mode:lr-tb;text-anchor:middle;baseline-shift:baseline;color:#000000;fill:#060404;fill-opacity:1;fill-rule:nonzero;stroke:none;visibility:visible;display:inline;overflow:visible;enable-background:accumulate;font-family:Lavi;-inkscape-font-specification:Lavi"
         sodipodi:role="line"
         id="tspan981"><tspan
   style="font-size:34.1513176px;font-weight:bold"
   id="tspan989">Mainteneur :</tspan> Craig Maloney.</tspan><tspan
         y="-677.69281"
         x="1256.8792"
         style="font-size:34.1513176px;font-style:normal;font-variant:normal;font-weight:normal;font-stretch:normal;text-indent:0;text-align:center;text-decoration:none;line-height:125%;letter-spacing:0px;word-spacing:0px;text-transform:none;direction:ltr;writing-mode:lr-tb;text-anchor:middle;baseline-shift:baseline;color:#000000;fill:#060404;fill-opacity:1;fill-rule:nonzero;stroke:none;visibility:visible;display:inline;overflow:visible;enable-background:accumulate;font-family:Lavi;-inkscape-font-specification:Lavi"
         sodipodi:role="line"
         id="tspan983"><tspan
   style="font-size:34.1513176px;font-weight:bold"
   id="tspan991">Éditeurs :</tspan> Craig Maloney, Nartance, Scribblemaniac, Valvin.  </tspan><tspan
         y="-635.00366"
         x="1250.876"
         style="font-size:34.1513176px;font-style:normal;font-variant:normal;font-weight:normal;font-stretch:normal;text-indent:0;text-align:center;text-decoration:none;line-height:125%;letter-spacing:0px;word-spacing:0px;text-transform:none;direction:ltr;writing-mode:lr-tb;text-anchor:middle;baseline-shift:baseline;color:#000000;fill:#060404;fill-opacity:1;fill-rule:nonzero;stroke:none;visibility:visible;display:inline;overflow:visible;enable-background:accumulate;font-family:Lavi;-inkscape-font-specification:Lavi"
         sodipodi:role="line"
         id="tspan985"><tspan
   style="font-size:34.1513176px;font-weight:bold"
   id="tspan993">Correcteurs :</tspan> Willem Sonke, Moini, Hali, CGand, Alex Gryson.</tspan><tspan
         y="-605.88019"
         x="1254.3143"
         style="font-size:19.56040382px;font-style:normal;font-variant:normal;font-weight:normal;font-stretch:normal;text-indent:0;text-align:center;text-decoration:none;line-height:125%;letter-spacing:0px;word-spacing:0px;text-transform:none;direction:ltr;writing-mode:lr-tb;text-anchor:middle;baseline-shift:baseline;color:#000000;fill:#060404;fill-opacity:1;fill-rule:nonzero;stroke:none;visibility:visible;display:inline;overflow:visible;enable-background:accumulate;font-family:Lavi;-inkscape-font-specification:Lavi"
         sodipodi:role="line"
         id="tspan1052"> </tspan><tspan
         y="-567.86401"
         x="1250.876"
         style="font-size:34.1513176px;font-style:normal;font-variant:normal;font-weight:bold;font-stretch:normal;text-indent:0;text-align:center;text-decoration:none;line-height:125%;letter-spacing:0px;word-spacing:0px;text-transform:none;direction:ltr;writing-mode:lr-tb;text-anchor:middle;baseline-shift:baseline;color:#000000;fill:#060404;fill-opacity:1;fill-rule:nonzero;stroke:none;visibility:visible;display:inline;overflow:visible;enable-background:accumulate;font-family:Lavi;-inkscape-font-specification:Lavi Bold"
         sodipodi:role="line"
         id="tspan995">28 juillet 2018</tspan><tspan
         y="-525.17487"
         x="1250.876"
         style="font-size:34.1513176px;font-style:normal;font-variant:normal;font-weight:bold;font-stretch:normal;text-indent:0;text-align:center;text-decoration:none;line-height:125%;letter-spacing:0px;word-spacing:0px;text-transform:none;direction:ltr;writing-mode:lr-tb;text-anchor:middle;baseline-shift:baseline;color:#000000;fill:#060404;fill-opacity:1;fill-rule:nonzero;stroke:none;visibility:visible;display:inline;overflow:visible;enable-background:accumulate;font-family:Lavi;-inkscape-font-specification:Lavi Bold"
         sodipodi:role="line"
         id="tspan842">www.peppercarrot.com</tspan></text>
  </g>
  <g
     inkscape:groupmode="layer"
     id="layer4"
     inkscape:label="note">
    <path
       style="color:#000000;clip-rule:nonzero;display:inline;overflow:visible;visibility:visible;opacity:0.481;isolation:auto;mix-blend-mode:normal;color-interpolation:sRGB;color-interpolation-filters:linearRGB;solid-color:#000000;solid-opacity:1;fill:#ffe680;fill-opacity:1;fill-rule:nonzero;stroke:#565656;stroke-width:1.20000005;stroke-linecap:butt;stroke-linejoin:miter;stroke-miterlimit:4;stroke-dasharray:none;stroke-dashoffset:0;stroke-opacity:1;marker:none;color-rendering:auto;image-rendering:auto;shape-rendering:auto;text-rendering:auto;enable-background:accumulate"
       d="M -1036.4092,347.5921 V 643.14859 H -48.42415 V 455.0751 h 10 v 15.6308 L -7.4416,443.7235 -38.42415,416.7431 v 16.6171 h -10 v -85.7681 z"
       id="rect4191-6"
       inkscape:connector-curvature="0"
       sodipodi:nodetypes="cccccccccccc" />
    <flowRoot
       xml:space="preserve"
       id="flowRoot4212-7"
       style="font-style:normal;font-variant:normal;font-weight:normal;font-stretch:normal;line-height:0.01%;font-family:Lavi;-inkscape-font-specification:'Lavi, Normal';text-align:center;letter-spacing:0px;word-spacing:0px;writing-mode:lr-tb;text-anchor:middle;display:inline;opacity:0.68900003;fill:#000000;fill-opacity:1;stroke:none;stroke-width:0.79958946px;stroke-linecap:butt;stroke-linejoin:miter;stroke-opacity:1"
       transform="matrix(1.2506418,0,0,1.2506418,-671.18097,-956.9049)"><flowRegion
         id="flowRegion4214-5"
         style="stroke-width:0.79958946px"><rect
           id="rect4216-3"
           width="756.58167"
           height="267.66235"
           x="-275.14545"
           y="1061.6674"
           style="stroke-width:0.79958946px" /></flowRegion><flowPara
         style="font-size:25.3241539px;line-height:1.25;stroke-width:0.79958946px"
         id="flowPara920">Remove the names of the people who helped to create the current version and create this section for your language. You can credit translators, proofreaders, whatever categories you want.</flowPara><flowPara
         style="font-size:10.66119289px;line-height:1.25;stroke-width:0.79958946px"
         id="flowPara915" /><flowPara
         style="font-size:25.3241539px;line-height:1.25;stroke-width:0.79958946px"
         id="flowPara913">N.B.: In Inkscape, if you press Enter to create a new line, it will not push down text below it until the line has text. So to create a whiteline, type a space on its own line.</flowPara></flowRoot>  </g>
</svg>
