<?xml version="1.0" encoding="UTF-8" standalone="no"?>
<!-- Created with Inkscape (http://www.inkscape.org/) -->

<svg
   xmlns:dc="http://purl.org/dc/elements/1.1/"
   xmlns:cc="http://creativecommons.org/ns#"
   xmlns:rdf="http://www.w3.org/1999/02/22-rdf-syntax-ns#"
   xmlns:svg="http://www.w3.org/2000/svg"
   xmlns="http://www.w3.org/2000/svg"
   xmlns:xlink="http://www.w3.org/1999/xlink"
   xmlns:sodipodi="http://sodipodi.sourceforge.net/DTD/sodipodi-0.dtd"
   xmlns:inkscape="http://www.inkscape.org/namespaces/inkscape"
   id="svg2"
   version="1.1"
   inkscape:version="0.92.3 (unknown)"
   width="2481"
   height="3503"
   sodipodi:docname="E02P01_092.svg">
  <sodipodi:namedview pagecolor="#ffffff" bordercolor="#666666" inkscape:pageopacity="0" inkscape:pageshadow="2" inkscape:window-width="1813" inkscape:window-height="955" id="namedview70" showgrid="false" inkscape:zoom="0.4" inkscape:cx="1284.4231" inkscape:cy="2618.6204" inkscape:current-layer="layer1" /><metadata
     id="metadata8">
    <rdf:RDF>
      <cc:Work
         rdf:about="">
        <dc:format>image/svg+xml</dc:format>
        <dc:type
           rdf:resource="http://purl.org/dc/dcmitype/StillImage" />
        <dc:title />
      </cc:Work>
    </rdf:RDF>
  </metadata>
  <defs
     id="defs6">
    <filter
       inkscape:collect="always"
       style="color-interpolation-filters:sRGB"
       id="filter4398"
       x="-0.0032890983"
       width="1.0065782"
       y="-0.013935394"
       height="1.0278708">
      <feGaussianBlur
         inkscape:collect="always"
         stdDeviation="0.11702162"
         id="feGaussianBlur4400" />
    </filter>
    <filter
       inkscape:collect="always"
       style="color-interpolation-filters:sRGB"
       id="filter4402"
       x="-0.0034005821"
       width="1.0068012"
       y="-0.013677411"
       height="1.0273548">
      <feGaussianBlur
         inkscape:collect="always"
         stdDeviation="0.082595546"
         id="feGaussianBlur4404" />
    </filter>
    <filter
       inkscape:collect="always"
       style="color-interpolation-filters:sRGB"
       id="filter4406"
       x="-0.0032217881"
       width="1.0064436"
       y="-0.014776948"
       height="1.0295539">
      <feGaussianBlur
         inkscape:collect="always"
         stdDeviation="0.13376918"
         id="feGaussianBlur4408" />
    </filter>
  </defs>
  <sodipodi:namedview
     pagecolor="#ffffff"
     bordercolor="#666666"
     borderopacity="1"
     objecttolerance="10"
     gridtolerance="10"
     guidetolerance="10"
     inkscape:pageopacity="0"
     inkscape:pageshadow="2"
     inkscape:window-width="1920"
     inkscape:window-height="1025"
     id="namedview4"
     showgrid="false"
     inkscape:zoom="0.25606623"
     inkscape:cx="1240.5"
     inkscape:cy="1751.5"
     inkscape:window-x="1920"
     inkscape:window-y="26"
     inkscape:window-maximized="1"
     inkscape:current-layer="layer1" />
  <g
     inkscape:groupmode="layer"
     id="layer2"
     inkscape:label="artwork"
     sodipodi:insensitive="true">
    <image
       sodipodi:absref="/home/deevad/peppercarrot/webcomics/ep02_Rainbow-potions/lang/en/../gfx_Pepper-and-Carrot_by-David-Revoy_E02P01.png"
       xlink:href="../gfx_Pepper-and-Carrot_by-David-Revoy_E02P01.png"
       width="2481"
       height="3503"
       id="image10"
       x="-1.6728083e-06"
       y="0" />
  </g>
  <g
     inkscape:groupmode="layer"
     id="layer1"
     inkscape:label="text"
     style="opacity:1">
    <flowRoot
       xml:space="preserve"
       id="flowRoot3063-8"
       style="color:#000000;font-style:normal;font-variant:normal;font-weight:normal;font-stretch:normal;line-height:0.01%;font-family:Arial;-inkscape-font-specification:Arial;letter-spacing:0px;word-spacing:0px;display:inline;overflow:visible;visibility:visible;fill:#e69d76;fill-opacity:1;fill-rule:nonzero;stroke:#e99f77;stroke-width:4.3819828;stroke-opacity:1;marker:none;enable-background:accumulate"
       transform="matrix(1.2520739,0,0,1.4888503,428.67723,2289.3202)"><flowRegion
         id="flowRegion3065-8"
         style="stroke-width:4.3819828"><rect
           id="rect3067-6"
           width="153.02928"
           height="91.750099"
           x="92.642677"
           y="425.30325"
           style="color:#000000;font-size:72px;display:inline;overflow:visible;visibility:visible;fill:#e69d76;fill-opacity:1;fill-rule:nonzero;stroke:#e99f77;stroke-width:4.3819828;stroke-opacity:1;marker:none;enable-background:accumulate" /></flowRegion><flowPara
         style="color:#000000;font-style:normal;font-variant:normal;font-weight:normal;font-stretch:normal;font-size:64px;line-height:1.25;font-family:Lavi;-inkscape-font-specification:Lavi;text-align:center;text-anchor:middle;display:inline;overflow:visible;visibility:visible;fill:#e69d76;fill-opacity:1;fill-rule:nonzero;stroke:#e99f77;stroke-width:3.45422935;stroke-miterlimit:4;stroke-dasharray:none;stroke-opacity:1;marker:none;enable-background:accumulate"
         id="flowPara3188">Glup</flowPara></flowRoot>    <flowRoot
       xml:space="preserve"
       id="flowRoot3063-8-9"
       style="color:#000000;font-style:normal;font-variant:normal;font-weight:normal;font-stretch:normal;line-height:0.01%;font-family:Arial;-inkscape-font-specification:Arial;letter-spacing:0px;word-spacing:0px;display:inline;overflow:visible;visibility:visible;fill:#e69d76;fill-opacity:1;fill-rule:nonzero;stroke:#e99f77;stroke-width:5.32205772;stroke-opacity:1;marker:none;enable-background:accumulate"
       transform="matrix(0.98088993,0,0,1.2883768,485.17347,2473.8791)"><flowRegion
         id="flowRegion3065-8-8"
         style="stroke-width:5.32205772"><rect
           id="rect3067-6-6"
           width="153.02928"
           height="91.750099"
           x="92.642677"
           y="425.30325"
           style="color:#000000;font-size:72px;display:inline;overflow:visible;visibility:visible;fill:#e69d76;fill-opacity:1;fill-rule:nonzero;stroke:#e99f77;stroke-width:5.32205772;stroke-opacity:1;marker:none;enable-background:accumulate" /></flowRegion><flowPara
         style="color:#000000;font-style:normal;font-variant:normal;font-weight:normal;font-stretch:normal;font-size:64px;line-height:1.25;font-family:Lavi;-inkscape-font-specification:Lavi;text-align:center;text-anchor:middle;display:inline;overflow:visible;visibility:visible;fill:#e69d76;fill-opacity:1;fill-rule:nonzero;stroke:#e99f77;stroke-width:4.19527149;stroke-miterlimit:4;stroke-dasharray:none;stroke-opacity:1;marker:none;enable-background:accumulate"
         id="flowPara3188-0">Glup</flowPara></flowRoot>    <flowRoot
       xml:space="preserve"
       id="flowRoot3063-8-9-4"
       style="color:#000000;font-style:normal;font-variant:normal;font-weight:normal;font-stretch:normal;line-height:0.01%;font-family:Arial;-inkscape-font-specification:Arial;letter-spacing:0px;word-spacing:0px;display:inline;overflow:visible;visibility:visible;fill:#e69d76;fill-opacity:1;fill-rule:nonzero;stroke:#e99f77;stroke-width:6.7811141;stroke-opacity:1;marker:none;enable-background:accumulate"
       transform="matrix(0.79802617,-0.15255664,0.15501413,0.94581203,486.16776,2739.8997)"><flowRegion
         id="flowRegion3065-8-8-2"
         style="stroke-width:6.7811141"><rect
           id="rect3067-6-6-0"
           width="153.02928"
           height="91.750099"
           x="92.642677"
           y="425.30325"
           style="color:#000000;font-size:72px;display:inline;overflow:visible;visibility:visible;fill:#e69d76;fill-opacity:1;fill-rule:nonzero;stroke:#e99f77;stroke-width:6.7811141;stroke-opacity:1;marker:none;enable-background:accumulate" /></flowRegion><flowPara
         style="color:#000000;font-style:normal;font-variant:normal;font-weight:normal;font-stretch:normal;font-size:64px;line-height:1.25;font-family:Lavi;-inkscape-font-specification:Lavi;text-align:center;text-anchor:middle;display:inline;overflow:visible;visibility:visible;fill:#e69d76;fill-opacity:1;fill-rule:nonzero;stroke:#e99f77;stroke-width:5.34541655;stroke-miterlimit:4;stroke-dasharray:none;stroke-opacity:1;marker:none;enable-background:accumulate"
         id="flowPara3188-0-7">Glup</flowPara></flowRoot>    <flowRoot
       xml:space="preserve"
       id="flowRoot4325"
       style="font-style:normal;font-variant:normal;font-weight:normal;font-stretch:normal;line-height:0.01%;font-family:Arial;-inkscape-font-specification:Arial;letter-spacing:0px;word-spacing:0px;opacity:0.90100002;fill:#2d1a1c;fill-opacity:1;stroke:#000000;stroke-width:0.28673479;stroke-linecap:butt;stroke-linejoin:miter;stroke-miterlimit:4;stroke-dasharray:none;stroke-opacity:1;filter:url(#filter4398)"
       transform="matrix(2.4962261,-0.35316532,0.53901745,3.8520573,-2487.5116,-4936.6516)"><flowRegion
         id="flowRegion4327"><rect
           id="rect4329"
           width="131.93344"
           height="14.722872"
           x="841.07574"
           y="1755.9342"
           style="fill:#2d1a1c;fill-opacity:1;stroke:#000000;stroke-width:0.28673479;stroke-miterlimit:4;stroke-dasharray:none;stroke-opacity:1" /></flowRegion><flowPara
         id="flowPara4335"
         style="font-style:normal;font-variant:normal;font-weight:normal;font-stretch:normal;font-size:12px;line-height:1.25;font-family:Fondamento;-inkscape-font-specification:Fondamento;text-align:center;text-anchor:middle;fill:#2d1a1c;fill-opacity:1;stroke:#000000;stroke-width:0.28673479;stroke-miterlimit:4;stroke-dasharray:none;stroke-opacity:1">WARNING</flowPara></flowRoot>    <flowRoot
       xml:space="preserve"
       id="flowRoot4325-5"
       style="font-style:normal;font-variant:normal;font-weight:normal;font-stretch:normal;line-height:0.01%;font-family:Arial;-inkscape-font-specification:Arial;letter-spacing:0px;word-spacing:0px;opacity:0.878;fill:#221415;fill-opacity:1;stroke:#000000;stroke-width:0.3171955;stroke-linecap:butt;stroke-linejoin:miter;stroke-miterlimit:4;stroke-dasharray:none;stroke-opacity:1;filter:url(#filter4406)"
       transform="matrix(2.4640584,-0.20425769,0.32588862,2.9519982,-2047.8272,-3399.5507)"><flowRegion
         id="flowRegion4327-2"><rect
           id="rect4329-1"
           width="110.97581"
           height="15.861448"
           x="841.07574"
           y="1755.9342"
           style="fill:#221415;fill-opacity:1;stroke:#000000;stroke-width:0.3171955;stroke-miterlimit:4;stroke-dasharray:none;stroke-opacity:1" /></flowRegion><flowPara
         id="flowPara4335-3"
         style="font-style:normal;font-variant:normal;font-weight:normal;font-stretch:normal;font-size:12px;line-height:1.25;font-family:Fondamento;-inkscape-font-specification:Fondamento;text-align:center;text-anchor:middle;fill:#221415;fill-opacity:1;stroke:#000000;stroke-width:0.3171955;stroke-miterlimit:4;stroke-dasharray:none;stroke-opacity:1">PROPERTY</flowPara></flowRoot>    <flowRoot
       xml:space="preserve"
       id="flowRoot4325-9"
       style="font-style:normal;font-variant:normal;font-weight:normal;font-stretch:normal;line-height:0.01%;font-family:Arial;-inkscape-font-specification:Arial;letter-spacing:0px;word-spacing:0px;opacity:0.92000002;fill:#241516;fill-opacity:1;stroke:#000000;stroke-width:0.23315693;stroke-linecap:butt;stroke-linejoin:miter;stroke-miterlimit:4;stroke-dasharray:none;stroke-opacity:1;filter:url(#filter4402)"
       transform="matrix(3.2617383,-0.33723333,0.62114022,4.1539475,-3323.4644,-5437.6298)"><flowRegion
         id="flowRegion4327-0"><rect
           id="rect4329-16"
           width="131.93344"
           height="14.722872"
           x="841.07574"
           y="1755.9342"
           style="fill:#241516;fill-opacity:1;stroke:#000000;stroke-width:0.23315693;stroke-miterlimit:4;stroke-dasharray:none;stroke-opacity:1" /></flowRegion><flowPara
         id="flowPara4335-0"
         style="font-style:normal;font-variant:normal;font-weight:normal;font-stretch:normal;font-size:12px;line-height:1.25;font-family:Fondamento;-inkscape-font-specification:Fondamento;text-align:center;text-anchor:middle;fill:#241516;fill-opacity:1;stroke:#000000;stroke-width:0.23315693;stroke-miterlimit:4;stroke-dasharray:none;stroke-opacity:1">WITCH</flowPara></flowRoot>  </g>
</svg>
