<?xml version="1.0" encoding="UTF-8" standalone="no"?>
<!-- Created with Inkscape (http://www.inkscape.org/) -->

<svg
   xmlns:dc="http://purl.org/dc/elements/1.1/"
   xmlns:cc="http://creativecommons.org/ns#"
   xmlns:rdf="http://www.w3.org/1999/02/22-rdf-syntax-ns#"
   xmlns:svg="http://www.w3.org/2000/svg"
   xmlns="http://www.w3.org/2000/svg"
   xmlns:xlink="http://www.w3.org/1999/xlink"
   xmlns:sodipodi="http://sodipodi.sourceforge.net/DTD/sodipodi-0.dtd"
   xmlns:inkscape="http://www.inkscape.org/namespaces/inkscape"
   id="svg2"
   version="1.1"
   inkscape:version="0.92.4 5da689c313, 2019-01-14"
   width="2481"
   height="3503"
   sodipodi:docname="E29P04.svg">
  <metadata
     id="metadata8">
    <rdf:RDF>
      <cc:Work
         rdf:about="">
        <dc:format>image/svg+xml</dc:format>
        <dc:type
           rdf:resource="http://purl.org/dc/dcmitype/StillImage" />
        <dc:title />
      </cc:Work>
    </rdf:RDF>
  </metadata>
  <defs
     id="defs6">
    <filter
       style="color-interpolation-filters:sRGB"
       id="filter4375-4-1-1-1-9"
       inkscape:label="deevad outline effect">
      <feFlood
         id="feFlood4377-7-9-0-8-1"
         flood-opacity="1"
         flood-color="rgb(0,0,0)"
         result="flood" />
      <feComposite
         id="feComposite4379-3-8-8-2-77"
         in2="SourceGraphic"
         in="flood"
         operator="in"
         result="composite1" />
      <feMorphology
         id="feMorphology4393-1-0-49-8-9"
         operator="dilate"
         radius="3.5"
         result="result3" />
      <feComposite
         id="feComposite4385-9-5-7-0-8"
         in2="result3"
         in="SourceGraphic"
         operator="over"
         result="composite2" />
    </filter>
  </defs>
  <sodipodi:namedview
     pagecolor="#ffffff"
     bordercolor="#666666"
     borderopacity="1"
     objecttolerance="10"
     gridtolerance="10"
     guidetolerance="10"
     inkscape:pageopacity="0"
     inkscape:pageshadow="2"
     inkscape:window-width="1920"
     inkscape:window-height="1019"
     id="namedview4"
     showgrid="false"
     inkscape:zoom="0.33895692"
     inkscape:cx="1167.1475"
     inkscape:cy="690.20431"
     inkscape:window-x="0"
     inkscape:window-y="27"
     inkscape:window-maximized="1"
     inkscape:current-layer="layer3"
     inkscape:snap-global="false" />
  <g
     inkscape:groupmode="layer"
     id="layer2"
     inkscape:label="artwork"
     sodipodi:insensitive="true">
    <image
       sodipodi:absref="/home/midgard/git/peppercarrot/comics/ep29_Destroyer-of-Worlds/lang/de/../gfx_Pepper-and-Carrot_by-David-Revoy_E29P04.png"
       xlink:href="../gfx_Pepper-and-Carrot_by-David-Revoy_E29P04.png"
       y="0"
       x="0"
       id="image10"
       height="3503"
       width="2481" />
  </g>
  <g
     inkscape:groupmode="layer"
     id="layer3"
     inkscape:label="speechbubbles">
    <path
       style="color:#000000;display:inline;overflow:visible;visibility:visible;fill:#ffffff;fill-opacity:1;fill-rule:nonzero;stroke:none;stroke-width:0.99999994px;marker:none;enable-background:accumulate"
       d="m 1747.0092,129.9164 c 33.7996,-18.8721 474.1459,-30.509914 535.2312,10.2865 38.7625,25.88785 23.5955,123.78943 -25.8983,142.54889 -58.249,22.0779 -383.8083,16.09462 -465.6866,3.78839 -77.8988,-11.70814 -80.7765,-51.8108 -84.7052,-90.76835 -1.6034,-15.90016 7.2592,-46.98327 41.0589,-65.85543 z"
       id="path4040-4-0"
       inkscape:connector-curvature="0"
       sodipodi:nodetypes="zssssz" />
    <path
       style="fill:#ffffff;stroke:none"
       d="m 2131.7915,445.1527 c 52.0797,-62.97217 40.5599,-106.89763 -10.3849,-161.57773 -30.8676,-33.13074 -53.0957,-49.56362 -53.0957,-49.56362 l 44.4365,-11.17106 49.9606,31.26438 c 0,0 89.2487,110.10775 -30.9165,191.04803 z"
       id="path3063"
       inkscape:connector-curvature="0"
       sodipodi:nodetypes="cscccc" />
    <path
       style="color:#000000;display:inline;overflow:visible;visibility:visible;fill:#ffffff;fill-opacity:1;fill-rule:nonzero;stroke:none;stroke-width:1px;marker:none;enable-background:accumulate"
       d="m 1652.25,970.18403 c 1.5608,-28.03525 -4.2978,-61.11181 37.2797,-104.65775 29.6012,-31.00266 63.4981,-31.09877 187.9702,-33.22158 114.834,-4.42675 214.5898,55.05462 182.3091,156.37916 -3.5417,82.08904 -146.5433,74.32644 -176.4264,77.69654 -29.8831,3.3702 -173.1697,2.3888 -201.4881,-24.0982 -17.7267,-16.58 -29.4902,-37.8236 -29.6445,-72.09817 z"
       id="path4546-6"
       inkscape:connector-curvature="0"
       sodipodi:nodetypes="csccssc" />
    <path
       style="color:#000000;display:inline;overflow:visible;visibility:visible;fill:#ffffff;fill-opacity:1;fill-rule:nonzero;stroke:none;stroke-width:1px;marker:none;enable-background:accumulate"
       d="m 2058.949,780.54364 c 9.1284,42.15323 9.9229,57.84514 -32.0252,91.28724 -41.9482,33.44204 -30.1382,47.46229 -30.1382,47.46229 l 35.2785,-4.99268 c 0,0 84.878,-77.03313 26.8849,-133.75685 z"
       id="path3072"
       inkscape:connector-curvature="0" />
    <path
       style="color:#000000;display:inline;overflow:visible;visibility:visible;fill:#ffffff;fill-opacity:1;fill-rule:nonzero;stroke:none;stroke-width:0.97763973px;marker:none;enable-background:accumulate"
       d="m 740.40042,180.77898 c 23.04773,-35.34082 217.59699,-73.70115 285.97408,-0.87112 68.3771,72.83004 26.9024,160.22615 -12.3304,188.03391 -39.23269,27.80788 -154.68902,58.26407 -207.37291,34.42878 -52.684,-23.83529 -93.72146,-59.46442 -96.40046,-132.41826 -1.09339,-29.77538 7.08185,-53.83237 30.12969,-89.17331 z"
       id="path4040"
       inkscape:connector-curvature="0"
       sodipodi:nodetypes="zssssz" />
    <path
       style="color:#000000;display:inline;overflow:visible;visibility:visible;fill:#ffffff;fill-opacity:1;fill-rule:nonzero;stroke:none;stroke-width:1px;marker:none;enable-background:accumulate"
       d="m 927.43282,520.21555 c 19.56717,-37.91334 24.33095,-91.92051 -16.62461,-116.94423 -32.00795,-36.20829 -9.67863,-17.32971 -9.67863,-17.32971 l 32.39871,9.54307 c 0,0 63.63839,61.67926 -6.09547,124.73087 z"
       id="path3072-1"
       inkscape:connector-curvature="0"
       sodipodi:nodetypes="ccccc" />
    <path
       style="fill:#ffffff;fill-opacity:1;fill-rule:evenodd;stroke:none;stroke-width:0.92914307px;stroke-linecap:butt;stroke-linejoin:miter;stroke-opacity:1"
       d="m 486.03269,386.67636 c -11.78237,2.98587 -26.01828,-0.64661 -34.57607,-7.03822 -7.08075,-5.77312 -17.01074,-11.52437 -17.7254,-18.98246 -0.78596,-8.56355 5.94499,-17.93323 -3.71288,-25.92285 -13.46238,-7.36774 -21.51604,-12.01638 -21.93366,-23.69696 -0.49458,-9.95533 5.57886,-19.57475 13.3064,-26.68916 6.46417,-4.9152 3.23184,-11.88162 -2.09911,-17.20181 -5.60383,-8.51791 -9.69639,-19.74264 0.75239,-26.49301 6.77543,-3.21612 14.18016,-4.32823 14.81032,-11.06054 1.74931,-9.36914 -6.17753,-17.9431 -7.49577,-27.22157 -6.3628,-9.25471 -2.8158,-34.37496 3.97176,-41.91296 5.04743,-5.23202 9.4892,-11.90174 21.16176,-12.03439 19.78178,-3.67799 47.13873,-1.9286 58.0381,-12.55841 7.12631,-6.04042 11.66176,-14.70059 25.03867,-16.27634 15.57743,-2.13965 30.87547,8.99882 45.07772,13.11088 13.85078,-8.94428 38.82264,-7.60713 46.36526,1.36362 4.18125,5.06182 23.50859,27.26397 24.60387,32.89967 4.07654,11.23986 -8.46305,30.36846 3.00617,40.13927 12.21903,7.07755 7.02444,24.10179 4.47032,33.18594 -3.66397,7.2005 2.16895,14.68807 3.53145,22.14223 2.3945,7.94679 -5.21523,16.57713 -3.36057,24.5205 5.23226,11.90309 11.10413,22.58861 6.10877,34.90366 -1.94079,10.75823 -3.38695,15.17126 -16.19914,21.07539 -4.18961,2.64322 -6.5178,7.6106 -7.63289,11.69668 -3.89219,10.03655 -7.1651,14.95059 -17.10219,23.57169 -8.57523,6.38712 -24.28097,7.86317 -37.41406,4.53317 -10.18808,-1.57319 -21.37158,-6.99372 -31.26965,-4.9005 -12.7847,4.55427 -16.21615,19.42203 -32.82987,18.08288 -8.87349,-0.74765 -15.42343,-5.51269 -24.05201,-6.88162 -4.21484,-0.96672 -8.51324,-1.73428 -12.83953,-2.35443 z"
       id="path4367"
       inkscape:connector-curvature="0"
       sodipodi:nodetypes="ccccccccccccccccccccccccccccccc" />
    <path
       style="fill:#ffffff;stroke:none;stroke-width:1.09880865"
       d="m 481.33413,569.27983 c -26.16799,-14.33157 -29.23382,-47.80109 -20.73941,-58.92043 8.49436,-11.11937 12.7305,-23.10286 12.40759,-33.31804 -0.32293,-10.21517 -5.50646,-20.78415 -10.12026,-29.23407 -4.61385,-8.44999 0.88784,-20.18502 5.41776,-29.20657 4.52995,-9.02164 25.74725,-55.79508 25.74725,-55.79508 0,0 -33.81232,14.66288 -40.8764,25.19383 -7.0641,10.53095 -8.88284,19.44881 -10.78771,24.66725 -1.90487,5.21858 -5.43175,24.4964 -2.44001,34.70294 2.99167,10.20656 10.76629,18.26194 14.36709,25.33913 3.60084,7.07707 2.03948,14.84673 -2.9751,25.07913 -5.01458,10.23245 -9.53561,35.87934 2.24235,54.0333 6.98238,10.7623 16.67122,16.61825 27.75685,17.45861 z"
       id="path3023"
       inkscape:connector-curvature="0"
       sodipodi:nodetypes="csssscssssssc"
       inkscape:transform-center-x="-13.368944"
       inkscape:transform-center-y="123.60586" />
    <path
       style="fill:#ffffff;fill-opacity:1;fill-rule:evenodd;stroke:none;stroke-width:1px;stroke-linecap:butt;stroke-linejoin:miter;stroke-opacity:1"
       d="m 150.66487,254.89791 c -5.79206,-8.3218 1.39884,-18.7638 7.13211,-22.4599 6.42753,-6.8744 14.68565,-6.8194 22.40363,-6.3027 7.67766,1.352 13.30603,-5.27 18.29141,-12.1154 7.89065,-8.8817 19.3479,-11.9296 28.65929,-5.4527 6.92028,4.415 14.92276,9.8428 22.50809,4.778 9.04582,-5.1258 20.56004,-9.611 29.29148,-1.1515 6.21125,9.8244 16.52363,5.6471 24.12218,1.7701 9.75981,-4.5481 20.44142,-7.3093 30.52218,-2.8986 6.68399,2.5816 14.9733,3.8416 18.27081,13.568 3.98009,10.6522 8.26193,23.368 17.58319,26.5604 6.59787,2.7568 16.08895,4.4272 17.74994,15.516 -0.19334,9.8954 -3.68675,19.6529 -6.86389,28.2714 -9.39343,11.1665 -23.80101,2.5793 -35.73026,5.6713 -7.8,1.9912 -14.19832,13.88684 -27.23653,15.42663 -18.05433,2.57938 -21.72666,-7.09909 -32.68569,-2.35549 -12.92394,4.4331 -16.45515,-0.91191 -28.70038,7.06989 -13.94377,7.417 -30.3487,5.0132 -42.5837,-6.9075 -5.25111,-5.9244 -17.54194,2.19307 -24.22848,3.32597 -8.93158,0.3998 -13.51391,2.3025 -20.11112,-7.8758 -5.28858,-7.2593 -3.86593,-4.964 -7.3887,-13.0375 -3.68296,-7.9711 -12.23691,-9.7059 -14.80815,-19.1363 -1.96953,-7.794 4.86047,-14.1129 3.80259,-22.2643 z"
       id="path4367-3"
       inkscape:connector-curvature="0"
       sodipodi:nodetypes="ccccccccccccccccccccccc" />
    <path
       style="opacity:1;fill:#ffffff;fill-rule:evenodd;stroke:none;stroke-width:0.99999994px;stroke-linecap:butt;stroke-linejoin:miter;stroke-opacity:1"
       d="m 309.34922,457.71798 c -15.64979,-24.8542 8.77501,-47.91607 8.58626,-62.92677 -0.19481,-15.49635 -40.69805,-21.31418 -41.62679,-35.6781 -0.92874,-14.36402 24.25197,-42.90833 22.3945,-65.352 -1.85748,-22.44378 -33.11728,-22.62637 -30.33094,3.4084 2.78634,26.03475 -20.58525,41.20496 -15.67743,61.79602 8.18516,34.34048 37.35935,31.20382 47.00302,40.86297 6.38476,6.395 -4.2802,22.87728 -1.49386,38.139 2.78634,15.26172 11.14524,19.75048 11.14524,19.75048 z"
       id="path4272"
       inkscape:connector-curvature="0"
       sodipodi:nodetypes="csssssssc" />
    <path
       style="color:#000000;display:inline;overflow:visible;visibility:visible;fill:#ffffff;fill-opacity:1;fill-rule:nonzero;stroke:none;stroke-width:1.09947145px;marker:none;enable-background:accumulate"
       d="m 2035.1564,976.92632 c -1.1672,-24.73089 16.6147,-61.85257 50.2071,-77.22508 49.8989,-22.8346 74.6672,-13.56392 116.8754,-12.51338 39.2085,0.97588 101.9598,8.77471 134.9028,36.28284 25.4856,21.28103 41.1629,54.54784 35.3263,80.5277 -5.8363,25.9797 -22.0937,60.9378 -65.7662,68.1046 -46.8391,7.6864 -124.9252,1.1782 -169.5721,2.5716 -39.9311,1.2462 -64.201,-7.6412 -85.2121,-25.9799 -21.3011,-18.5917 -15.5938,-47.0376 -16.7612,-71.76838 z"
       id="path3373"
       inkscape:connector-curvature="0"
       sodipodi:nodetypes="zsssssssz" />
    <path
       style="fill:#ffffff;fill-rule:evenodd;stroke:none;stroke-width:0.99999994px;stroke-linecap:butt;stroke-linejoin:miter;stroke-opacity:1"
       d="m 899.94866,1223.5898 c 35.45272,3.4907 87.36719,-13.0192 58.70518,-65.5744 56.55256,26.313 102.88426,45.8066 191.74326,-27.7326 -7.5202,81.4659 32.927,73.8546 69.391,58.2141 -34.9953,27.4139 27.8226,43.1229 61.613,44.6628 -71.4804,59.2943 -32.9699,67.3435 -0.9035,76.7065 -64.3968,-3.5532 -58.1345,32.0871 -45.0701,52.0996 -60.2623,-42.8941 -145.0466,-17.5824 -135.7844,12.5816 -26.8851,-17.3709 -48.1726,-64.3702 -114.92732,4.554 24.54742,-59.5014 -7.62876,-53.2559 -59.72234,-23.9247 8.16419,-20.2671 56.68773,-51.086 -25.04478,-47.8499 51.0516,-19.2669 61.75739,-45.3663 0,-83.737 z"
       id="path4584"
       inkscape:connector-curvature="0"
       sodipodi:nodetypes="cccccccccccc" />
    <path
       style="color:#000000;display:inline;overflow:visible;visibility:visible;fill:#ffffff;fill-opacity:1;fill-rule:nonzero;stroke:none;stroke-width:1px;marker:none;enable-background:accumulate"
       d="m 1284.4552,1484.7539 c -74.0623,-16.7815 -162.4554,-85.4407 -173.3256,-102.2336 5.7646,-4.0191 72.5018,-4.3109 72.5018,-4.3109 -25.8476,-20.7242 -129.727,-70.2911 -122.0213,-64.8466 -4.5243,-14.4638 68.3453,-13.6441 68.3453,-13.6441 0,0 96.3576,81.9196 112.2383,92.2829 -16.3671,10.5299 -65.2194,8.0221 -73.0419,9.9521 2.0894,11.1694 89.3696,76.2156 115.3034,82.8002 z"
       id="path4456"
       inkscape:connector-curvature="0"
       sodipodi:nodetypes="cccccccc" />
  </g>
  <g
     inkscape:groupmode="layer"
     id="layer1"
     inkscape:label="txt">
    <text
       xml:space="preserve"
       style="font-style:normal;font-variant:normal;font-weight:normal;font-stretch:normal;line-height:0%;font-family:Lavi;-inkscape-font-specification:Lavi;text-align:center;letter-spacing:0px;word-spacing:0px;text-anchor:middle;fill:#000000;fill-opacity:1;stroke:none"
       x="263.90179"
       y="278.97723"
       id="text4246"><tspan
         sodipodi:role="line"
         style="font-size:37.33333206px;line-height:1.20000005"
         x="263.90179"
         y="278.97723"
         id="tspan4252">Ekelhaft!</tspan></text>
    <text
       xml:space="preserve"
       style="font-style:normal;font-variant:normal;font-weight:normal;font-stretch:normal;line-height:0%;font-family:Lavi;-inkscape-font-specification:Lavi;text-align:center;letter-spacing:0px;word-spacing:0px;text-anchor:middle;fill:#000000;fill-opacity:1;stroke:none"
       x="542.30475"
       y="203.26083"
       id="text4246-3"><tspan
         sodipodi:role="line"
         style="font-size:37.33333206px;line-height:1.20000005"
         x="542.30475"
         y="203.26083"
         id="tspan847">Igitt!</tspan><tspan
         sodipodi:role="line"
         style="font-size:37.33333206px;line-height:1.20000005"
         x="542.30475"
         y="248.06084"
         id="tspan886">Jemand</tspan><tspan
         sodipodi:role="line"
         style="font-size:37.33333206px;line-height:1.20000005"
         x="542.30475"
         y="292.86084"
         id="tspan108">hatte den</tspan><tspan
         sodipodi:role="line"
         style="font-size:37.33333206px;line-height:1.20000005"
         x="542.30475"
         y="337.66083"
         id="tspan110">im Mund!</tspan></text>
    <text
       xml:space="preserve"
       style="font-style:normal;font-variant:normal;font-weight:normal;font-stretch:normal;line-height:0%;font-family:Lavi;-inkscape-font-specification:Lavi;text-align:center;letter-spacing:0px;word-spacing:0px;text-anchor:middle;fill:#000000;fill-opacity:1;stroke:none"
       x="886.47461"
       y="202.70126"
       id="text4246-9"><tspan
         sodipodi:role="line"
         style="font-size:45px;line-height:1.20000005"
         x="886.47461"
         y="202.70126"
         id="tspan891">Haha!</tspan><tspan
         sodipodi:role="line"
         style="font-size:45px;line-height:1.20000005"
         x="886.47461"
         y="256.70126"
         id="tspan922">Beeindruckend</tspan><tspan
         sodipodi:role="line"
         style="font-size:45px;line-height:1.20000005"
         x="886.47461"
         y="310.70126"
         id="tspan117">wie immer,</tspan><tspan
         sodipodi:role="line"
         style="font-size:45px;line-height:1.20000005"
         x="886.47461"
         y="364.70126"
         id="tspan119">Pepper!</tspan></text>
    <text
       xml:space="preserve"
       style="font-style:normal;font-variant:normal;font-weight:normal;font-stretch:normal;line-height:0%;font-family:Lavi;-inkscape-font-specification:Lavi;text-align:center;letter-spacing:0px;word-spacing:0px;text-anchor:middle;fill:#000000;fill-opacity:1;stroke:none"
       x="2004.7734"
       y="191.92598"
       id="text4246-9-2"><tspan
         sodipodi:role="line"
         style="font-size:45px;line-height:1.20000005"
         x="2004.7734"
         y="191.92598"
         id="tspan926">Nun Pepper, danke für</tspan><tspan
         sodipodi:role="line"
         style="font-size:45px;line-height:1.20000005"
         x="2004.7734"
         y="245.92598"
         id="tspan123">diese &quot;Erklärung&quot;.</tspan></text>
    <text
       xml:space="preserve"
       style="font-style:normal;font-variant:normal;font-weight:normal;font-stretch:normal;line-height:0%;font-family:Lavi;-inkscape-font-specification:Lavi;text-align:center;letter-spacing:0px;word-spacing:0px;text-anchor:middle;fill:#000000;fill-opacity:1;stroke:none"
       x="1860.3481"
       y="910.52747"
       id="text4246-9-2-6"><tspan
         sodipodi:role="line"
         style="font-size:45px;line-height:1.20000005"
         x="1860.3481"
         y="910.52747"
         id="tspan913">Es ist wohl</tspan><tspan
         sodipodi:role="line"
         style="font-size:45px;line-height:1.20000005"
         x="1860.3481"
         y="964.52747"
         id="tspan130">Zeit, ins Bett zu</tspan><tspan
         sodipodi:role="line"
         style="font-size:45px;line-height:1.20000005"
         x="1860.3481"
         y="1018.5275"
         id="tspan132">gehen, nicht?</tspan></text>
    <text
       xml:space="preserve"
       style="font-style:normal;font-variant:normal;font-weight:normal;font-stretch:normal;font-size:10.59237862px;line-height:0%;font-family:Lavi;-inkscape-font-specification:Lavi;text-align:center;letter-spacing:0px;word-spacing:0px;text-anchor:middle;fill:#000000;fill-opacity:1;stroke:none;stroke-width:0.99999994"
       x="2200.416"
       y="947.43225"
       id="text4246-3-2"><tspan
         sodipodi:role="line"
         style="font-size:37.33333206px;line-height:1.20000005;stroke-width:0.99999994"
         x="2200.416"
         y="947.43225"
         id="tspan149">Und sich die</tspan><tspan
         sodipodi:role="line"
         style="font-size:37.33333206px;line-height:1.20000005;stroke-width:0.99999994"
         x="2200.416"
         y="992.23224"
         id="tspan156">Hände zu waschen,</tspan><tspan
         sodipodi:role="line"
         style="font-size:37.33333206px;line-height:1.20000005;stroke-width:0.99999994"
         x="2200.416"
         y="1037.0322"
         id="tspan158">für jemanden.</tspan></text>
    <text
       xml:space="preserve"
       style="font-style:normal;font-variant:normal;font-weight:normal;font-stretch:normal;line-height:0%;font-family:Lavi;-inkscape-font-specification:Lavi;text-align:center;letter-spacing:0px;word-spacing:0px;text-anchor:middle;fill:#000000;fill-opacity:1;stroke:none"
       x="1084.2517"
       y="1249.4321"
       id="text4246-9-2-6-2"><tspan
         sodipodi:role="line"
         style="font-size:45px;line-height:1.20000005"
         x="1084.2517"
         y="1249.4321"
         id="tspan1035">Hey!</tspan><tspan
         sodipodi:role="line"
         style="font-size:45px;line-height:1.20000005"
         x="1084.2517"
         y="1303.4321"
         id="tspan957">Wartet!</tspan></text>
    <text
       xml:space="preserve"
       style="font-style:normal;font-variant:normal;font-weight:normal;font-stretch:normal;font-size:14.62346077px;line-height:0%;font-family:Lavi;-inkscape-font-specification:Lavi;text-align:center;letter-spacing:0px;word-spacing:0px;text-anchor:middle;fill:#ffffff;fill-opacity:0.78431373;stroke:none;stroke-width:0.99999994"
       x="1465.1406"
       y="2177.4724"
       id="text4246-7"
       transform="matrix(0.79017753,-0.5292546,0.38466968,1.0078897,0,0)"><tspan
         sodipodi:role="line"
         style="font-style:normal;font-variant:normal;font-weight:bold;font-stretch:normal;font-size:58.49384308px;line-height:1.20000005;font-family:Lavi;-inkscape-font-specification:'Lavi Bold';fill:#ffffff;fill-opacity:0.78431373;stroke-width:0.82059908"
         x="1465.1406"
         y="2177.4724"
         id="tspan4252-5">Schnipps!</tspan></text>
    <text
       xml:space="preserve"
       style="font-style:normal;font-variant:normal;font-weight:normal;font-stretch:normal;font-size:11.79470253px;line-height:0%;font-family:Lavi;-inkscape-font-specification:Lavi;text-align:center;letter-spacing:0px;word-spacing:0px;text-anchor:middle;fill:#ffffff;fill-opacity:0.78431373;stroke:none;stroke-width:0.99999994"
       x="-536.53265"
       y="2434.625"
       id="text4246-7-9"
       transform="matrix(0.80236382,-0.52121629,0.39060214,0.99258189,0,0)"><tspan
         sodipodi:role="line"
         style="font-style:normal;font-variant:normal;font-weight:bold;font-stretch:normal;font-size:47.17881012px;line-height:1.20000005;font-family:Lavi;-inkscape-font-specification:'Lavi Bold';fill:#ffffff;fill-opacity:0.78431373;stroke-width:0.82059908"
         x="-536.53265"
         y="2434.625"
         id="tspan4252-5-2">Tock!</tspan></text>
    <text
       xml:space="preserve"
       style="font-style:normal;font-variant:normal;font-weight:normal;font-stretch:normal;font-size:11.79470253px;line-height:0%;font-family:Lavi;-inkscape-font-specification:Lavi;text-align:center;letter-spacing:0px;word-spacing:0px;text-anchor:middle;fill:#ffffff;fill-opacity:0.78431373;stroke:none;stroke-width:0.99999994"
       x="-363.09036"
       y="2526.7615"
       id="text4246-7-9-2"
       transform="matrix(0.80236382,-0.52121629,0.39060214,0.99258189,0,0)"><tspan
         sodipodi:role="line"
         style="font-style:normal;font-variant:normal;font-weight:bold;font-stretch:normal;font-size:47.17881012px;line-height:1.20000005;font-family:Lavi;-inkscape-font-specification:'Lavi Bold';fill:#ffffff;fill-opacity:0.78431373;stroke-width:0.82059908"
         x="-363.09036"
         y="2526.7615"
         id="tspan4252-5-2-8">Tock!</tspan></text>
    <text
       xml:space="preserve"
       style="font-style:normal;font-variant:normal;font-weight:normal;font-stretch:normal;line-height:0%;font-family:Lavi;-inkscape-font-specification:Lavi;letter-spacing:0px;word-spacing:0px;fill:#000000;fill-opacity:1;stroke:none;stroke-width:0;stroke-miterlimit:4;stroke-dasharray:none;stroke-opacity:1;filter:url(#filter4375-4-1-1-1-9)"
       x="787.65729"
       y="1584.5073"
       id="text4580"
       transform="matrix(1.0562812,-1.0457132,0.34852463,1.662996,-176.82337,824.6776)"><tspan
         sodipodi:role="line"
         id="tspan4582"
         x="787.65729"
         y="1584.5073"
         style="font-size:70px;line-height:1.25;fill:#ffffff;stroke:none;stroke-width:0;stroke-miterlimit:4;stroke-dasharray:none"><tspan
           style="font-size:80.40014648px;stroke:none;stroke-width:0;stroke-miterlimit:4;stroke-dasharray:none"
           id="tspan4617">BÄM!</tspan></tspan></text>
    <text
       xml:space="preserve"
       style="font-style:normal;font-variant:normal;font-weight:normal;font-stretch:normal;font-size:15.75232887px;line-height:0%;font-family:Lavi;-inkscape-font-specification:Lavi;text-align:center;letter-spacing:0px;word-spacing:0px;text-anchor:middle;opacity:1;fill:#ffffff;fill-opacity:0.84180789;stroke:none;stroke-width:0.99999994"
       x="1881.7031"
       y="2489.1436"
       id="text4246-7-9-2-3"
       transform="matrix(0.98943475,-0.09116349,0.01957156,1.0088748,0,0)"><tspan
         sodipodi:role="line"
         style="font-style:normal;font-variant:normal;font-weight:bold;font-stretch:normal;font-size:63.00931549px;line-height:1.20000005;font-family:Lavi;-inkscape-font-specification:'Lavi Bold';fill:#ffffff;fill-opacity:0.84180789;stroke-width:0.82059902"
         x="1881.7031"
         y="2489.1436"
         id="tspan4252-5-2-8-6">?</tspan></text>
  </g>
</svg>
