<?xml version="1.0" encoding="UTF-8" standalone="no"?>
<!-- Created with Inkscape (http://www.inkscape.org/) -->

<svg
   xmlns:dc="http://purl.org/dc/elements/1.1/"
   xmlns:cc="http://creativecommons.org/ns#"
   xmlns:rdf="http://www.w3.org/1999/02/22-rdf-syntax-ns#"
   xmlns:svg="http://www.w3.org/2000/svg"
   xmlns="http://www.w3.org/2000/svg"
   xmlns:xlink="http://www.w3.org/1999/xlink"
   xmlns:sodipodi="http://sodipodi.sourceforge.net/DTD/sodipodi-0.dtd"
   xmlns:inkscape="http://www.inkscape.org/namespaces/inkscape"
   id="svg2"
   version="1.1"
   inkscape:version="0.91 r13725"
   width="1100"
   height="765"
   sodipodi:docname="Pepper-and-Carrot_by-David-Revoy_E02.svg">
  <metadata
     id="metadata8">
    <rdf:RDF>
      <cc:Work
         rdf:about="">
        <dc:format>image/svg+xml</dc:format>
        <dc:type
           rdf:resource="http://purl.org/dc/dcmitype/StillImage" />
        <dc:title />
      </cc:Work>
    </rdf:RDF>
  </metadata>
  <defs
     id="defs6">
    <linearGradient
       inkscape:collect="always"
       id="linearGradient3854">
      <stop
         style="stop-color:#000000;stop-opacity:1;"
         offset="0"
         id="stop3856" />
      <stop
         style="stop-color:#000000;stop-opacity:0;"
         offset="1"
         id="stop3858" />
    </linearGradient>
    <filter
       id="filter3797"
       style="color-interpolation-filters:sRGB;"
       inkscape:label="Drop Shadow">
      <feFlood
         id="feFlood3799"
         flood-opacity="0.8"
         flood-color="rgb(0,0,0)"
         result="flood" />
      <feComposite
         id="feComposite3801"
         in2="SourceGraphic"
         in="flood"
         operator="in"
         result="composite1" />
      <feGaussianBlur
         id="feGaussianBlur3803"
         in="composite"
         stdDeviation="10"
         result="blur" />
      <feOffset
         id="feOffset3805"
         dx="8"
         dy="10"
         result="offset" />
      <feComposite
         id="feComposite3807"
         in2="offset"
         in="SourceGraphic"
         operator="over"
         result="composite2" />
    </filter>
    <filter
       id="filter3836"
       style="color-interpolation-filters:sRGB;"
       inkscape:label="Drop Shadow">
      <feFlood
         id="feFlood3838"
         flood-opacity="0.8"
         flood-color="rgb(0,0,0)"
         result="flood" />
      <feComposite
         id="feComposite3840"
         in2="SourceGraphic"
         in="flood"
         operator="in"
         result="composite1" />
      <feGaussianBlur
         id="feGaussianBlur3842"
         in="composite"
         stdDeviation="5"
         result="blur" />
      <feOffset
         id="feOffset3844"
         dx="8"
         dy="10"
         result="offset" />
      <feComposite
         id="feComposite3846"
         in2="offset"
         in="SourceGraphic"
         operator="over"
         result="composite2" />
    </filter>
    <radialGradient
       inkscape:collect="always"
       xlink:href="#linearGradient3854"
       id="radialGradient3860"
       cx="1449.9914"
       cy="465.90688"
       fx="1449.9914"
       fy="465.90688"
       r="981.93906"
       gradientTransform="matrix(1,0,0,0.05601162,0,439.81068)"
       gradientUnits="userSpaceOnUse" />
    <filter
       inkscape:collect="always"
       id="filter3874"
       x="-0.0061119644"
       width="1.0122239"
       y="-0.10911957"
       height="1.2182391">
      <feGaussianBlur
         inkscape:collect="always"
         stdDeviation="5.0013138"
         id="feGaussianBlur3876" />
    </filter>
    <radialGradient
       inkscape:collect="always"
       xlink:href="#linearGradient3854"
       id="radialGradient3878"
       gradientUnits="userSpaceOnUse"
       gradientTransform="matrix(1,0,0,0.05601162,0,439.81068)"
       cx="1449.9914"
       cy="465.90688"
       fx="1449.9914"
       fy="465.90688"
       r="981.93906" />
    <filter
       inkscape:collect="always"
       style="color-interpolation-filters:sRGB"
       id="filter4406"
       x="-0.0032217882"
       width="1.0064436"
       y="-0.014776948"
       height="1.0295539">
      <feGaussianBlur
         inkscape:collect="always"
         stdDeviation="0.13376918"
         id="feGaussianBlur4408" />
    </filter>
    <filter
       inkscape:collect="always"
       style="color-interpolation-filters:sRGB"
       id="filter4402"
       x="-0.0034005821"
       width="1.0068012"
       y="-0.013677411"
       height="1.0273548">
      <feGaussianBlur
         inkscape:collect="always"
         stdDeviation="0.082595546"
         id="feGaussianBlur4404" />
    </filter>
    <filter
       inkscape:collect="always"
       style="color-interpolation-filters:sRGB"
       id="filter4398"
       x="-0.0032890984"
       width="1.0065782"
       y="-0.013935394"
       height="1.0278708">
      <feGaussianBlur
         inkscape:collect="always"
         stdDeviation="0.11702162"
         id="feGaussianBlur4400" />
    </filter>
  </defs>
  <sodipodi:namedview
     pagecolor="#ffffff"
     bordercolor="#666666"
     borderopacity="1"
     objecttolerance="10"
     gridtolerance="10"
     guidetolerance="10"
     inkscape:pageopacity="0"
     inkscape:pageshadow="2"
     inkscape:window-width="1366"
     inkscape:window-height="705"
     id="namedview4"
     showgrid="false"
     inkscape:zoom="0.73494737"
     inkscape:cx="520.4635"
     inkscape:cy="154.94432"
     inkscape:window-x="-8"
     inkscape:window-y="-8"
     inkscape:window-maximized="1"
     inkscape:current-layer="svg2" />
  <g
     inkscape:groupmode="layer"
     id="layer1"
     inkscape:label="artwork"
     sodipodi:insensitive="true" />
  <image
     sodipodi:absref="G:\Pepper And Carrot\Translation\peppercarrot_ep02_translation-master\el\..\gfx_Pepper-and-Carrot_by-David-Revoy_E02.png"
     xlink:href="../gfx_Pepper-and-Carrot_by-David-Revoy_E02.png"
     y="0"
     x="0"
     id="image10"
     height="765"
     width="1100" />
  <g
     inkscape:groupmode="layer"
     id="layer2"
     inkscape:label="txt" />
  <flowRoot
     xml:space="preserve"
     id="flowRoot3063-1"
     style="font-size:90px;font-style:normal;font-variant:normal;font-weight:normal;font-stretch:normal;text-align:center;line-height:125%;letter-spacing:0px;word-spacing:0px;writing-mode:lr-tb;text-anchor:middle;opacity:0.98000004;fill:#000000;fill-opacity:1;stroke:none;display:inline;filter:url(#filter3874);font-family:Purisa;-inkscape-font-specification:Purisa"
     transform="matrix(0.43534167,0,0,0.43534167,-81.246621,524.85537)"
     inkscape:transform-center-x="39.444471"
     inkscape:transform-center-y="-45.806482"><flowRegion
       id="flowRegion3065-5"
       style="fill:url(#radialGradient3878);fill-opacity:1"><rect
         id="rect3067-6"
         width="2718.8806"
         height="147.16573"
         x="90.567055"
         y="400.24826"
         style="font-size:90px;font-style:normal;font-variant:normal;font-weight:normal;font-stretch:normal;text-align:center;line-height:125%;writing-mode:lr-tb;text-anchor:middle;fill:#000000;fill-opacity:1;font-family:Purisa;-inkscape-font-specification:Purisa" /></flowRegion><flowPara
       id="flowPara3069-0"
       style="font-size:110px;font-style:normal;font-variant:normal;font-weight:normal;font-stretch:expanded;text-align:center;line-height:125%;writing-mode:lr-tb;text-anchor:middle;fill:#000000;fill-opacity:1;font-family:Pecita;-inkscape-font-specification:Pecita Expanded">Επεισόδιο 2: Τα φίλτρα του ουράνιου τόξου</flowPara></flowRoot>  <flowRoot
     xml:space="preserve"
     id="episode-title"
     style="font-size:90px;font-style:normal;font-variant:normal;font-weight:normal;font-stretch:normal;text-align:center;line-height:125%;letter-spacing:0px;word-spacing:0px;writing-mode:lr-tb;text-anchor:middle;opacity:0.98000004;fill:#cbba74;fill-opacity:1;stroke:none;display:inline;font-family:Purisa;-inkscape-font-specification:Purisa"
     transform="matrix(0.43534167,0,0,0.43534167,-81.24168,519.61919)"
     inkscape:transform-center-x="39.444471"
     inkscape:transform-center-y="-45.806482"><flowRegion
       id="flowRegion3065"><rect
         id="rect3067"
         width="2718.8806"
         height="147.16573"
         x="90.567055"
         y="400.24826"
         style="font-size:90px;font-style:normal;font-variant:normal;font-weight:normal;font-stretch:normal;text-align:center;line-height:125%;writing-mode:lr-tb;text-anchor:middle;fill:#cbba74;fill-opacity:1;font-family:Purisa;-inkscape-font-specification:Purisa" /></flowRegion><flowPara
       id="flowPara3069"
       style="font-size:110.25822449px;font-style:normal;font-variant:normal;font-weight:normal;font-stretch:expanded;text-align:center;line-height:125%;writing-mode:lr-tb;text-anchor:middle;fill:#ffffff;fill-opacity:1;font-family:Pecita;-inkscape-font-specification:Pecita Expanded">Επεισόδιο 2: Τα φίλτρα του ουράνιου τόξου</flowPara></flowRoot>  <flowRoot
     xml:space="preserve"
     id="flowRoot4325"
     style="font-style:normal;font-variant:normal;font-weight:normal;font-stretch:normal;font-size:13.9634663px;line-height:125%;font-family:Arial;-inkscape-font-specification:Arial;letter-spacing:0px;word-spacing:0px;opacity:0.90100002;fill:#2d1a1c;fill-opacity:1;stroke:#000000;stroke-width:0.28673479;stroke-linecap:butt;stroke-linejoin:miter;stroke-miterlimit:4;stroke-dasharray:none;stroke-opacity:1;filter:url(#filter4398);"
     transform="matrix(1.2229781,-0.17368146,0.29585047,1.635455,-1351.1901,-2182.2868)"><flowRegion
       id="flowRegion4327"><rect
         id="rect4329"
         width="131.93344"
         height="14.722872"
         x="841.07574"
         y="1755.9342"
         style="fill:#2d1a1c;fill-opacity:1;stroke:#000000;stroke-width:0.28673479;stroke-miterlimit:4;stroke-dasharray:none;stroke-opacity:1;font-size:13.9634663px;" /></flowRegion><flowPara
       id="flowPara4335"
       style="font-style:normal;font-variant:normal;font-weight:normal;font-stretch:expanded;font-family:pecita;-inkscape-font-specification:'pecita Expanded';text-align:center;text-anchor:middle;fill:#2d1a1c;fill-opacity:1;stroke:#000000;stroke-width:0.28673479;stroke-miterlimit:4;stroke-dasharray:none;stroke-opacity:1;font-size:13.9634663px;">ΠΡΟΣΟΧΗ!</flowPara></flowRoot>  <flowRoot
     xml:space="preserve"
     id="flowRoot4325-5"
     style="font-style:normal;font-variant:normal;font-weight:normal;font-stretch:normal;font-size:12px;line-height:125%;font-family:Arial;-inkscape-font-specification:Arial;letter-spacing:0px;word-spacing:0px;opacity:0.878;fill:#221415;fill-opacity:1;stroke:#000000;stroke-width:0.3171955;stroke-linecap:butt;stroke-linejoin:miter;stroke-miterlimit:4;stroke-dasharray:none;stroke-opacity:1;filter:url(#filter4406)"
     transform="matrix(1.2083856,-0.10996597,0.18390925,1.254133,-1122.8412,-1531.7796)"><flowRegion
       id="flowRegion4327-2"><rect
         id="rect4329-1"
         width="110.97581"
         height="15.861448"
         x="841.07574"
         y="1755.9342"
         style="fill:#221415;fill-opacity:1;stroke:#000000;stroke-width:0.3171955;stroke-miterlimit:4;stroke-dasharray:none;stroke-opacity:1" /></flowRegion><flowPara
       id="flowPara4335-3"
       style="font-style:normal;font-variant:normal;font-weight:normal;font-stretch:normal;font-family:Fondamento;-inkscape-font-specification:Fondamento;text-align:center;text-anchor:middle;fill:#221415;fill-opacity:1;stroke:#000000;stroke-width:0.3171955;stroke-miterlimit:4;stroke-dasharray:none;stroke-opacity:1" /></flowRoot>  <flowRoot
     xml:space="preserve"
     id="flowRoot4325-9"
     style="font-style:normal;font-variant:normal;font-weight:normal;font-stretch:normal;font-size:16.20894432px;line-height:125%;font-family:Arial;-inkscape-font-specification:Arial;letter-spacing:0px;word-spacing:0px;opacity:0.92000002;fill:#241516;fill-opacity:1;stroke:#000000;stroke-width:0.23315693;stroke-linecap:butt;stroke-linejoin:miter;stroke-miterlimit:4;stroke-dasharray:none;stroke-opacity:1;filter:url(#filter4402)"
     transform="matrix(1.5990307,-0.17403521,0.33862035,1.7632557,-1767.1179,-2385.1223)"><flowRegion
       id="flowRegion4327-0"><rect
         id="rect4329-16"
         width="134.14693"
         height="20.343027"
         x="841.07574"
         y="1755.9342"
         style="font-size:16.20894432px;fill:#241516;fill-opacity:1;stroke:#000000;stroke-width:0.23315693;stroke-miterlimit:4;stroke-dasharray:none;stroke-opacity:1" /></flowRegion><flowPara
       id="flowPara4335-0"
       style="font-style:normal;font-variant:normal;font-weight:normal;font-stretch:normal;font-size:16.20894432px;font-family:Fondamento;-inkscape-font-specification:Fondamento;text-align:center;text-anchor:middle;fill:#241516;fill-opacity:1;stroke:#000000;stroke-width:0.23315693;stroke-miterlimit:4;stroke-dasharray:none;stroke-opacity:1"><flowSpan
         style="font-style:normal;font-variant:normal;font-weight:normal;font-stretch:expanded;font-size:16.20894432px;font-family:PECITA;-inkscape-font-specification:'PECITA Expanded'"
         id="flowSpan3380">ΜΑΓΙΣΣΑ</flowSpan></flowPara></flowRoot></svg>
