<?xml version="1.0" encoding="UTF-8" standalone="no"?>
<!-- Created with Inkscape (http://www.inkscape.org/) -->

<svg
   xmlns:dc="http://purl.org/dc/elements/1.1/"
   xmlns:cc="http://creativecommons.org/ns#"
   xmlns:rdf="http://www.w3.org/1999/02/22-rdf-syntax-ns#"
   xmlns:svg="http://www.w3.org/2000/svg"
   xmlns="http://www.w3.org/2000/svg"
   xmlns:xlink="http://www.w3.org/1999/xlink"
   xmlns:sodipodi="http://sodipodi.sourceforge.net/DTD/sodipodi-0.dtd"
   xmlns:inkscape="http://www.inkscape.org/namespaces/inkscape"
   id="svg2"
   version="1.1"
   inkscape:version="0.92.3 (2405546, 2018-03-11)"
   width="2481"
   height="3503"
   sodipodi:docname="E03P05.svg">
  <metadata
     id="metadata8">
    <rdf:RDF>
      <cc:Work
         rdf:about="">
        <dc:format>image/svg+xml</dc:format>
        <dc:type
           rdf:resource="http://purl.org/dc/dcmitype/StillImage" />
        <dc:title />
      </cc:Work>
    </rdf:RDF>
  </metadata>
  <defs
     id="defs6" />
  <sodipodi:namedview
     pagecolor="#ffffff"
     bordercolor="#666666"
     borderopacity="1"
     objecttolerance="10"
     gridtolerance="10"
     guidetolerance="10"
     inkscape:pageopacity="0"
     inkscape:pageshadow="2"
     inkscape:window-width="1920"
     inkscape:window-height="1025"
     id="namedview4"
     showgrid="false"
     inkscape:zoom="0.41451838"
     inkscape:cx="776.72026"
     inkscape:cy="1267.9461"
     inkscape:window-x="0"
     inkscape:window-y="26"
     inkscape:window-maximized="1"
     inkscape:current-layer="layer3" />
  <g
     inkscape:groupmode="layer"
     id="layer2"
     inkscape:label="artwork"
     sodipodi:insensitive="true"
     style="display:inline">
    <image
       sodipodi:absref="/home/deevad/peppercarrot/webcomics/ep03_The-secret-ingredients/lang/vi/../gfx_Pepper-and-Carrot_by-David-Revoy_E03P05.png"
       xlink:href="../gfx_Pepper-and-Carrot_by-David-Revoy_E03P05.png"
       width="2481"
       height="3503"
       id="image10"
       x="0"
       y="0" />
  </g>
  <g
     inkscape:groupmode="layer"
     id="layer3"
     inkscape:label="speechbubbles">
    <path
       style="fill:#ffffff;stroke:none;stroke-width:1px;stroke-linecap:butt;stroke-linejoin:miter;stroke-opacity:1"
       d="m 1604.2901,736.47086 c 12.1652,-82.39413 116.123,-98.03858 130.5002,-105.33933 14.3771,-7.30074 100.6399,-10.42963 110.5933,-9.38667 9.9534,1.04297 120.5468,18.77335 132.7121,17.73038 12.1652,-1.04296 111.6992,-9.38667 136.0298,2.08593 24.3305,11.4726 81.839,85.52302 81.839,115.76896 0,30.24595 -27.6483,91.7808 -94.0043,119.94082 -66.356,28.16002 -193.5384,52.14818 -272.0597,46.93336 -78.5212,-5.21481 -137.1358,-18.77334 -160.3603,-40.67558 -23.2246,-21.90223 -76.3094,-106.38229 -65.2501,-147.05787 z"
       id="path3061"
       inkscape:connector-curvature="0" />
    <path
       style="fill:#ffffff;stroke:none;stroke-width:1px;stroke-linecap:butt;stroke-linejoin:miter;stroke-opacity:1"
       d="m 1592.542,944.86394 c 59.4489,18.77335 150.1868,-13.55852 156.4446,-58.40596 6.2577,-44.84744 19.8163,-69.87856 19.8163,-69.87856 l 30.2459,34.4178 -14.6015,49.01929 c 0,0 -66.7497,114.72599 -191.9053,44.84743 z"
       id="path3063"
       inkscape:connector-curvature="0" />
    <path
       style="fill:#ffffff;stroke:none;stroke-width:1px;stroke-linecap:butt;stroke-linejoin:miter;stroke-opacity:1"
       d="m 1078.4244,1887.4493 c 3.1289,-75.0933 43.8045,-130.3704 264.9128,-129.3274 221.1082,1.0429 270.1275,18.7733 281.6001,92.8237 11.4726,74.0504 -26.0741,99.0816 -77.1793,126.1986 -51.1052,27.1171 -170.003,63.6208 -268.0416,44.8474 -98.0386,-18.7733 -207.5498,-62.5778 -201.292,-134.5423 z"
       id="path3065"
       inkscape:connector-curvature="0" />
    <path
       style="fill:#ffffff;stroke:none;stroke-width:1px;stroke-linecap:butt;stroke-linejoin:miter;stroke-opacity:1"
       d="m 1178.5489,2195.1236 c -49.0193,-99.0815 -43.8045,-127.2416 51.1052,-205.4638 94.9097,-78.2223 31.2889,-88.6519 31.2889,-88.6519 0,0 -235.7098,154.3586 -82.3941,294.1157 z"
       id="path3067"
       inkscape:connector-curvature="0" />
  </g>
  <g
     inkscape:groupmode="layer"
     id="layer1"
     inkscape:label="txt">
    <flowRoot
       xml:space="preserve"
       id="flowRoot2987"
       style="font-style:normal;font-variant:normal;font-weight:normal;font-stretch:normal;line-height:0.01%;font-family:Lavi;-inkscape-font-specification:Lavi;letter-spacing:0px;word-spacing:0px;fill:#000000;fill-opacity:1;stroke:none"
       transform="translate(1515.7008,416.4926)"><flowRegion
         id="flowRegion2989"><rect
           id="rect2991"
           width="522.16193"
           height="277.49026"
           x="120.55251"
           y="265.53046"
           style="font-style:normal;font-variant:normal;font-weight:normal;font-stretch:normal;font-family:Lavi;-inkscape-font-specification:Lavi" /></flowRegion><flowPara
         style="font-style:normal;font-variant:normal;font-weight:500;font-stretch:normal;font-size:48px;line-height:1.25;font-family:ComicSpice;-inkscape-font-specification:'ComicSpice Medium';text-align:center;text-anchor:middle"
         id="flowPara3017">Đầu tiên, Chúng ta cần những viên ngọc của sương mù từ những đám mây đen...</flowPara></flowRoot>    <flowRoot
       xml:space="preserve"
       id="flowRoot2987-3"
       style="font-style:normal;font-variant:normal;font-weight:normal;font-stretch:normal;line-height:0.01%;font-family:Lavi;-inkscape-font-specification:Lavi;letter-spacing:0px;word-spacing:0px;fill:#000000;fill-opacity:1;stroke:none"
       transform="translate(997.72514,1534.7699)"><flowRegion
         id="flowRegion2989-7"><rect
           id="rect2991-1"
           width="454.61365"
           height="212.35445"
           x="120.55251"
           y="265.53046"
           style="font-style:normal;font-variant:normal;font-weight:normal;font-stretch:normal;font-family:Lavi;-inkscape-font-specification:Lavi" /></flowRegion><flowPara
         style="font-style:normal;font-variant:normal;font-weight:500;font-stretch:normal;font-size:48px;line-height:1.25;font-family:ComicSpice;-inkscape-font-specification:'ComicSpice Medium';text-align:center;text-anchor:middle"
         id="flowPara3059">... và vài trái</flowPara><flowPara
         style="font-style:normal;font-variant:normal;font-weight:500;font-stretch:normal;font-size:48px;line-height:1.25;font-family:ComicSpice;-inkscape-font-specification:'ComicSpice Medium';text-align:center;text-anchor:middle"
         id="flowPara3363">dâu đỏ trong khu rừng ma ám này</flowPara></flowRoot>  </g>
</svg>
