<?xml version="1.0" encoding="UTF-8" standalone="no"?>
<!-- Created with Inkscape (http://www.inkscape.org/) -->

<svg
   xmlns:dc="http://purl.org/dc/elements/1.1/"
   xmlns:cc="http://creativecommons.org/ns#"
   xmlns:rdf="http://www.w3.org/1999/02/22-rdf-syntax-ns#"
   xmlns:svg="http://www.w3.org/2000/svg"
   xmlns="http://www.w3.org/2000/svg"
   xmlns:xlink="http://www.w3.org/1999/xlink"
   xmlns:sodipodi="http://sodipodi.sourceforge.net/DTD/sodipodi-0.dtd"
   xmlns:inkscape="http://www.inkscape.org/namespaces/inkscape"
   id="svg2"
   version="1.1"
   inkscape:version="0.92.3 (2405546, 2018-03-11)"
   width="2481"
   height="3503"
   sodipodi:docname="E27P05.svg">
  <metadata
     id="metadata8">
    <rdf:RDF>
      <cc:Work
         rdf:about="">
        <dc:format>image/svg+xml</dc:format>
        <dc:type
           rdf:resource="http://purl.org/dc/dcmitype/StillImage" />
        <dc:title />
      </cc:Work>
    </rdf:RDF>
  </metadata>
  <defs
     id="defs6">
    <filter
       style="color-interpolation-filters:sRGB"
       id="filter4375-4-1-1-1-9-7-7-0-3-7"
       inkscape:label="deevad outline effect">
      <feFlood
         id="feFlood4377-7-9-0-8-1-4-8-3-2-4"
         flood-opacity="1"
         flood-color="rgb(0,0,0)"
         result="flood" />
      <feComposite
         id="feComposite4379-3-8-8-2-77-7-8-1-2-6"
         in2="SourceGraphic"
         in="flood"
         operator="in"
         result="composite1" />
      <feMorphology
         id="feMorphology4393-1-0-49-8-9-3-9-0-1-4"
         operator="dilate"
         radius="4"
         result="result3" />
      <feComposite
         id="feComposite4385-9-5-7-0-8-0-0-3-5-9"
         in2="result3"
         in="SourceGraphic"
         operator="over"
         result="composite2" />
    </filter>
    <filter
       style="color-interpolation-filters:sRGB"
       id="filter4375-4-1-1-1-9-7-7-0-1"
       inkscape:label="deevad outline effect">
      <feFlood
         id="feFlood4377-7-9-0-8-1-4-8-3-23"
         flood-opacity="1"
         flood-color="rgb(0,0,0)"
         result="flood" />
      <feComposite
         id="feComposite4379-3-8-8-2-77-7-8-1-1"
         in2="SourceGraphic"
         in="flood"
         operator="in"
         result="composite1" />
      <feMorphology
         id="feMorphology4393-1-0-49-8-9-3-9-0-8"
         operator="dilate"
         radius="4"
         result="result3" />
      <feComposite
         id="feComposite4385-9-5-7-0-8-0-0-3-1"
         in2="result3"
         in="SourceGraphic"
         operator="over"
         result="composite2" />
    </filter>
    <filter
       style="color-interpolation-filters:sRGB"
       id="filter4375-4-1-1-1-9-7-7-3"
       inkscape:label="deevad outline effect">
      <feFlood
         id="feFlood4377-7-9-0-8-1-4-8-8"
         flood-opacity="1"
         flood-color="rgb(0,0,0)"
         result="flood" />
      <feComposite
         id="feComposite4379-3-8-8-2-77-7-8-9"
         in2="SourceGraphic"
         in="flood"
         operator="in"
         result="composite1" />
      <feMorphology
         id="feMorphology4393-1-0-49-8-9-3-9-2"
         operator="dilate"
         radius="4"
         result="result3" />
      <feComposite
         id="feComposite4385-9-5-7-0-8-0-0-4"
         in2="result3"
         in="SourceGraphic"
         operator="over"
         result="composite2" />
    </filter>
    <filter
       style="color-interpolation-filters:sRGB"
       id="filter4375-4-1-1-1-9-7-5"
       inkscape:label="deevad outline effect">
      <feFlood
         id="feFlood4377-7-9-0-8-1-4-1"
         flood-opacity="1"
         flood-color="rgb(0,0,0)"
         result="flood" />
      <feComposite
         id="feComposite4379-3-8-8-2-77-7-0"
         in2="SourceGraphic"
         in="flood"
         operator="in"
         result="composite1" />
      <feMorphology
         id="feMorphology4393-1-0-49-8-9-3-0"
         operator="dilate"
         radius="4"
         result="result3" />
      <feComposite
         id="feComposite4385-9-5-7-0-8-0-1"
         in2="result3"
         in="SourceGraphic"
         operator="over"
         result="composite2" />
    </filter>
    <filter
       style="color-interpolation-filters:sRGB"
       id="filter4375-4-1-1-1-9-3"
       inkscape:label="deevad outline effect">
      <feFlood
         id="feFlood4377-7-9-0-8-1-3"
         flood-opacity="1"
         flood-color="rgb(0,0,0)"
         result="flood" />
      <feComposite
         id="feComposite4379-3-8-8-2-77-0"
         in2="SourceGraphic"
         in="flood"
         operator="in"
         result="composite1" />
      <feMorphology
         id="feMorphology4393-1-0-49-8-9-0"
         operator="dilate"
         radius="3"
         result="result3" />
      <feComposite
         id="feComposite4385-9-5-7-0-8-02"
         in2="result3"
         in="SourceGraphic"
         operator="over"
         result="composite2" />
    </filter>
    <filter
       style="color-interpolation-filters:sRGB"
       id="filter4375-4-1-1-1-9-8"
       inkscape:label="Roughen">
      <feFlood
         id="feFlood4377-7-9-0-8-1-96"
         flood-opacity="1"
         flood-color="rgb(0,0,0)"
         result="flood" />
      <feComposite
         id="feComposite4379-3-8-8-2-77-4"
         in2="SourceGraphic"
         in="flood"
         operator="in"
         result="composite1" />
      <feMorphology
         id="feMorphology4393-1-0-49-8-9-33"
         operator="dilate"
         radius="4"
         result="result3" />
      <feComposite
         id="feComposite4385-9-5-7-0-8-38"
         in2="result3"
         in="SourceGraphic"
         operator="over"
         result="fbSourceGraphic" />
      <feColorMatrix
         result="fbSourceGraphicAlpha"
         in="fbSourceGraphic"
         values="0 0 0 -1 0 0 0 0 -1 0 0 0 0 -1 0 0 0 0 1 0"
         id="feColorMatrix333-6" />
      <feTurbulence
         id="feTurbulence335-0"
         type="fractalNoise"
         numOctaves="5"
         seed="1"
         baseFrequency="0.013 0.013"
         result="turbulence" />
      <feDisplacementMap
         in2="turbulence"
         id="feDisplacementMap337-48"
         in="fbSourceGraphic"
         scale="6.6"
         yChannelSelector="G"
         xChannelSelector="R"
         result="fbSourceGraphic" />
      <feColorMatrix
         result="fbSourceGraphicAlpha"
         in="fbSourceGraphic"
         values="0 0 0 -1 0 0 0 0 -1 0 0 0 0 -1 0 0 0 0 1 0"
         id="feColorMatrix435-8" />
      <feTurbulence
         id="feTurbulence437-8"
         type="fractalNoise"
         numOctaves="5"
         seed="27"
         baseFrequency="0.001 0.4414"
         result="turbulence" />
      <feDisplacementMap
         in2="turbulence"
         id="feDisplacementMap439-9"
         in="fbSourceGraphic"
         scale="4.27461"
         yChannelSelector="G"
         xChannelSelector="R" />
    </filter>
    <filter
       style="color-interpolation-filters:sRGB"
       id="filter4375-4-1-1-1-9-30-7"
       inkscape:label="Roughen">
      <feFlood
         id="feFlood4377-7-9-0-8-1-78-41"
         flood-opacity="1"
         flood-color="rgb(0,0,0)"
         result="flood" />
      <feComposite
         id="feComposite4379-3-8-8-2-77-68-8"
         in2="SourceGraphic"
         in="flood"
         operator="in"
         result="composite1" />
      <feMorphology
         id="feMorphology4393-1-0-49-8-9-8-59"
         operator="dilate"
         radius="4"
         result="result3" />
      <feComposite
         id="feComposite4385-9-5-7-0-8-4-7"
         in2="result3"
         in="SourceGraphic"
         operator="over"
         result="fbSourceGraphic" />
      <feColorMatrix
         result="fbSourceGraphicAlpha"
         in="fbSourceGraphic"
         values="0 0 0 -1 0 0 0 0 -1 0 0 0 0 -1 0 0 0 0 1 0"
         id="feColorMatrix333-3-5" />
      <feTurbulence
         id="feTurbulence335-1-3"
         type="fractalNoise"
         numOctaves="5"
         seed="1"
         baseFrequency="0.013 0.013"
         result="turbulence" />
      <feDisplacementMap
         in2="turbulence"
         id="feDisplacementMap337-4-8"
         in="fbSourceGraphic"
         scale="6.6"
         yChannelSelector="G"
         xChannelSelector="R"
         result="fbSourceGraphic" />
      <feColorMatrix
         result="fbSourceGraphicAlpha"
         in="fbSourceGraphic"
         values="0 0 0 -1 0 0 0 0 -1 0 0 0 0 -1 0 0 0 0 1 0"
         id="feColorMatrix435-92-8" />
      <feTurbulence
         id="feTurbulence437-06-3"
         type="fractalNoise"
         numOctaves="5"
         seed="27"
         baseFrequency="0.001 0.4414"
         result="turbulence" />
      <feDisplacementMap
         in2="turbulence"
         id="feDisplacementMap439-8-1"
         in="fbSourceGraphic"
         scale="4.27461"
         yChannelSelector="G"
         xChannelSelector="R" />
    </filter>
    <filter
       style="color-interpolation-filters:sRGB"
       id="filter4375-4-1-1-1-9-30-2-7-9"
       inkscape:label="Roughen">
      <feFlood
         id="feFlood4377-7-9-0-8-1-78-6-7-8"
         flood-opacity="1"
         flood-color="rgb(0,0,0)"
         result="flood" />
      <feComposite
         id="feComposite4379-3-8-8-2-77-68-1-1-4"
         in2="SourceGraphic"
         in="flood"
         operator="in"
         result="composite1" />
      <feMorphology
         id="feMorphology4393-1-0-49-8-9-8-0-1-8"
         operator="dilate"
         radius="4"
         result="result3" />
      <feComposite
         id="feComposite4385-9-5-7-0-8-4-6-5-1"
         in2="result3"
         in="SourceGraphic"
         operator="over"
         result="fbSourceGraphic" />
      <feColorMatrix
         result="fbSourceGraphicAlpha"
         in="fbSourceGraphic"
         values="0 0 0 -1 0 0 0 0 -1 0 0 0 0 -1 0 0 0 0 1 0"
         id="feColorMatrix333-3-1-9-0" />
      <feTurbulence
         id="feTurbulence335-1-5-7-3"
         type="fractalNoise"
         numOctaves="5"
         seed="1"
         baseFrequency="0.013 0.013"
         result="turbulence" />
      <feDisplacementMap
         in2="turbulence"
         id="feDisplacementMap337-4-9-7-0"
         in="fbSourceGraphic"
         scale="6.6"
         yChannelSelector="G"
         xChannelSelector="R"
         result="fbSourceGraphic" />
      <feColorMatrix
         result="fbSourceGraphicAlpha"
         in="fbSourceGraphic"
         values="0 0 0 -1 0 0 0 0 -1 0 0 0 0 -1 0 0 0 0 1 0"
         id="feColorMatrix435-92-4-6-4" />
      <feTurbulence
         id="feTurbulence437-06-9-7-4"
         type="fractalNoise"
         numOctaves="5"
         seed="27"
         baseFrequency="0.001 0.4414"
         result="turbulence" />
      <feDisplacementMap
         in2="turbulence"
         id="feDisplacementMap439-8-0-3-4"
         in="fbSourceGraphic"
         scale="4.27461"
         yChannelSelector="G"
         xChannelSelector="R" />
    </filter>
    <filter
       style="color-interpolation-filters:sRGB"
       id="filter4375-4-1-1-1-9-30-2-4"
       inkscape:label="Roughen">
      <feFlood
         id="feFlood4377-7-9-0-8-1-78-6-76"
         flood-opacity="1"
         flood-color="rgb(0,0,0)"
         result="flood" />
      <feComposite
         id="feComposite4379-3-8-8-2-77-68-1-3"
         in2="SourceGraphic"
         in="flood"
         operator="in"
         result="composite1" />
      <feMorphology
         id="feMorphology4393-1-0-49-8-9-8-0-17"
         operator="dilate"
         radius="4"
         result="result3" />
      <feComposite
         id="feComposite4385-9-5-7-0-8-4-6-59"
         in2="result3"
         in="SourceGraphic"
         operator="over"
         result="fbSourceGraphic" />
      <feColorMatrix
         result="fbSourceGraphicAlpha"
         in="fbSourceGraphic"
         values="0 0 0 -1 0 0 0 0 -1 0 0 0 0 -1 0 0 0 0 1 0"
         id="feColorMatrix333-3-1-6" />
      <feTurbulence
         id="feTurbulence335-1-5-2"
         type="fractalNoise"
         numOctaves="5"
         seed="1"
         baseFrequency="0.013 0.013"
         result="turbulence" />
      <feDisplacementMap
         in2="turbulence"
         id="feDisplacementMap337-4-9-1"
         in="fbSourceGraphic"
         scale="6.6"
         yChannelSelector="G"
         xChannelSelector="R"
         result="fbSourceGraphic" />
      <feColorMatrix
         result="fbSourceGraphicAlpha"
         in="fbSourceGraphic"
         values="0 0 0 -1 0 0 0 0 -1 0 0 0 0 -1 0 0 0 0 1 0"
         id="feColorMatrix435-92-4-7" />
      <feTurbulence
         id="feTurbulence437-06-9-8"
         type="fractalNoise"
         numOctaves="5"
         seed="27"
         baseFrequency="0.001 0.4414"
         result="turbulence" />
      <feDisplacementMap
         in2="turbulence"
         id="feDisplacementMap439-8-0-5"
         in="fbSourceGraphic"
         scale="4.27461"
         yChannelSelector="G"
         xChannelSelector="R" />
    </filter>
    <filter
       style="color-interpolation-filters:sRGB"
       id="filter4375-4-1-1-1-9-30-2-7-6-5"
       inkscape:label="Roughen">
      <feFlood
         id="feFlood4377-7-9-0-8-1-78-6-7-3-0"
         flood-opacity="1"
         flood-color="rgb(0,0,0)"
         result="flood" />
      <feComposite
         id="feComposite4379-3-8-8-2-77-68-1-1-9-9"
         in2="SourceGraphic"
         in="flood"
         operator="in"
         result="composite1" />
      <feMorphology
         id="feMorphology4393-1-0-49-8-9-8-0-1-4-6"
         operator="dilate"
         radius="4"
         result="result3" />
      <feComposite
         id="feComposite4385-9-5-7-0-8-4-6-5-8-3"
         in2="result3"
         in="SourceGraphic"
         operator="over"
         result="fbSourceGraphic" />
      <feColorMatrix
         result="fbSourceGraphicAlpha"
         in="fbSourceGraphic"
         values="0 0 0 -1 0 0 0 0 -1 0 0 0 0 -1 0 0 0 0 1 0"
         id="feColorMatrix333-3-1-9-1-8" />
      <feTurbulence
         id="feTurbulence335-1-5-7-2-5"
         type="fractalNoise"
         numOctaves="5"
         seed="1"
         baseFrequency="0.013 0.013"
         result="turbulence" />
      <feDisplacementMap
         in2="turbulence"
         id="feDisplacementMap337-4-9-7-9-6"
         in="fbSourceGraphic"
         scale="6.6"
         yChannelSelector="G"
         xChannelSelector="R"
         result="fbSourceGraphic" />
      <feColorMatrix
         result="fbSourceGraphicAlpha"
         in="fbSourceGraphic"
         values="0 0 0 -1 0 0 0 0 -1 0 0 0 0 -1 0 0 0 0 1 0"
         id="feColorMatrix435-92-4-6-3-1" />
      <feTurbulence
         id="feTurbulence437-06-9-7-9-1"
         type="fractalNoise"
         numOctaves="5"
         seed="27"
         baseFrequency="0.001 0.4414"
         result="turbulence" />
      <feDisplacementMap
         in2="turbulence"
         id="feDisplacementMap439-8-0-3-0-5"
         in="fbSourceGraphic"
         scale="4.27461"
         yChannelSelector="G"
         xChannelSelector="R" />
    </filter>
  </defs>
  <sodipodi:namedview
     pagecolor="#ffffff"
     bordercolor="#666666"
     borderopacity="1"
     objecttolerance="10"
     gridtolerance="10"
     guidetolerance="10"
     inkscape:pageopacity="0"
     inkscape:pageshadow="2"
     inkscape:window-width="1920"
     inkscape:window-height="1027"
     id="namedview4"
     showgrid="false"
     inkscape:zoom="0.4"
     inkscape:cx="1317.6804"
     inkscape:cy="3312.7207"
     inkscape:window-x="1920"
     inkscape:window-y="26"
     inkscape:window-maximized="1"
     inkscape:current-layer="layer1" />
  <g
     inkscape:groupmode="layer"
     id="layer2"
     inkscape:label="artwork"
     sodipodi:insensitive="true">
    <image
       sodipodi:absref="/home/deevad/peppercarrot/webcomics/ep27_Coriander-s-Invention/lang/go/../gfx_Pepper-and-Carrot_by-David-Revoy_E27P05.png"
       xlink:href="../gfx_Pepper-and-Carrot_by-David-Revoy_E27P05.png"
       width="2481"
       height="3503"
       id="image10"
       x="0"
       y="0" />
  </g>
  <g
     inkscape:groupmode="layer"
     id="layer3"
     inkscape:label="speechbubbles"
     style="display:inline">
    <path
       style="fill:#ffffff;fill-rule:evenodd;stroke:none"
       d="m 709.21957,262.08781 c 0,-47.68418 22.56625,-73.83356 28.20779,-83.06276 5.64156,-9.2292 94.02592,-49.22238 110.9506,-50.76057 16.92466,-1.5382 103.42852,0 133.51682,7.69099 30.08832,7.691 84.62332,21.5348 103.42862,36.91679 18.805,15.38199 52.6544,44.60777 52.6544,78.44815 0,33.84038 -26.3271,75.37177 -52.6544,92.29196 -26.3274,16.92018 -110.95069,30.76398 -146.68055,29.22578 -35.72985,-1.5382 -116.59214,0 -148.56098,-21.53479 -31.96882,-21.53479 -80.8623,-44.60777 -80.8623,-89.21555 z"
       id="path1076"
       inkscape:connector-curvature="0" />
    <path
       style="fill:#ffffff;fill-rule:evenodd;stroke:none;stroke-width:1px;stroke-linecap:butt;stroke-linejoin:miter;stroke-opacity:1"
       d="m 940.3125,313.50325 c 0,0 -8.64656,34.5862 -16.21229,50.79849 -7.56573,16.21228 -11.88901,24.85883 -5.40409,39.9903 6.48491,15.13146 23.77801,25.93965 23.77801,42.15194 0,16.21228 -12.96982,60.52586 -35.66702,85.3847 17.2931,-33.50539 22.6972,-67.01078 18.37392,-82.14224 -4.32328,-15.13147 -33.50539,-33.50539 -33.50539,-48.63686 0,-15.13146 28.1013,-89.70797 28.1013,-89.70797 z"
       id="path1078"
       inkscape:connector-curvature="0" />
    <path
       style="fill:#ffffff;fill-rule:evenodd;stroke:none;stroke-width:1.13540876px;stroke-linecap:butt;stroke-linejoin:miter;stroke-opacity:1"
       d="m 1104.8282,285.11694 c 6.4997,-60.24121 38.998,-88.04485 62.3967,-92.67878 23.3987,-4.63395 105.2331,-13.31014 129.9318,-9.83469 24.6987,3.47546 106.6554,7.51771 130.0542,50.38165 23.3988,42.86393 23.3373,75.67109 2.5386,110.42562 -20.7988,34.75455 -73.4081,66.13226 -133.2049,66.13226 -59.797,0 -103.3211,-3.94364 -137.1194,-31.74728 -33.7982,-27.80363 -57.197,-49.81484 -54.597,-92.67878 z"
       id="path1080"
       inkscape:connector-curvature="0"
       sodipodi:nodetypes="csscsssc" />
    <path
       style="fill:#ffffff;fill-rule:evenodd;stroke:none;stroke-width:1px;stroke-linecap:butt;stroke-linejoin:miter;stroke-opacity:1"
       d="m 1194.305,345.92782 c -9.7274,39.9903 -10.8082,52.96012 -21.6164,69.17241 -10.8082,16.21228 -29.1821,20.53556 -31.3438,29.18211 -2.1616,8.64655 1.0808,29.18211 20.5356,51.87931 -36.7479,-29.18211 -35.667,-43.23276 -32.4246,-60.52586 3.2425,-17.2931 25.9397,-18.37392 33.5054,-54.04095 7.5657,-35.66702 16.2123,-56.20258 16.2123,-56.20258 z"
       id="path1082"
       inkscape:connector-curvature="0" />
    <path
       style="fill:#ffffff;fill-rule:evenodd;stroke:none;stroke-width:1px;stroke-linecap:butt;stroke-linejoin:miter;stroke-opacity:1"
       d="m 381.62228,1130.1196 c 7.10656,-26.2943 39.08608,-39.0861 50.45657,-41.2181 11.3705,-2.1319 69.64429,3.5533 87.41069,13.5025 17.7664,9.9492 32.69018,19.8984 34.82215,30.5582 2.13197,10.6598 2.13197,24.873 -2.84263,33.4008 -4.97459,8.5279 -68.93363,18.4771 -84.56806,20.6091 -15.63443,2.1319 -47.61395,-0.7107 -65.38035,-9.2386 -17.7664,-8.5278 -23.45165,-24.8729 -19.89837,-47.6139 z"
       id="path1084"
       inkscape:connector-curvature="0" />
    <path
       style="fill:#ffffff;fill-rule:evenodd;stroke:none;stroke-width:1px;stroke-linecap:butt;stroke-linejoin:miter;stroke-opacity:1"
       d="m 441.31738,1197.6319 c 15.63444,-22.0303 54.72052,-29.8476 79.59348,-30.5582 24.87296,-0.7107 43.35001,-2.132 58.98445,5.6852 15.63443,7.8173 36.95411,17.0558 35.5328,35.5328 -1.42132,18.4771 0.71065,31.2689 -13.50247,41.9287 -14.21312,10.6599 -61.11642,17.0558 -71.77626,17.7664 -10.65984,0.7107 -27.71558,4.264 -49.03526,-5.6852 -21.31968,-9.9492 -39.08608,-24.1623 -41.21805,-36.9541 -2.13197,-12.7918 1.42131,-27.7156 1.42131,-27.7156 z"
       id="path1086"
       inkscape:connector-curvature="0" />
    <path
       style="fill:#ffffff;fill-rule:evenodd;stroke:none;stroke-width:1px;stroke-linecap:butt;stroke-linejoin:miter;stroke-opacity:1"
       d="m 502.33666,1275.8008 c 7.10656,-22.0303 26.39141,-32.6869 50.55372,-32.6869 24.1623,0 59.6951,-2.8426 76.75085,7.8172 17.05574,10.6598 25.58361,22.741 24.87296,35.5328 -0.71066,12.7918 -7.81722,27.7156 -22.741,35.5328 -14.92377,7.8172 -52.58854,9.2385 -76.75085,7.1066 -24.1623,-2.132 -49.03688,-16.3484 -52.58854,-27.7156 -1.92638,-9.3357 -0.0971,-25.5869 -0.0971,-25.5869 z"
       id="path1088"
       inkscape:connector-curvature="0"
       sodipodi:nodetypes="cssssccc" />
    <path
       style="fill:#ffffff;fill-rule:evenodd;stroke:none;stroke-width:1px;stroke-linecap:butt;stroke-linejoin:miter;stroke-opacity:1"
       d="m 596.46743,1302.5188 c 0,0 8.06037,1.6121 6.98565,11.8219 -1.07471,10.2098 -10.74716,38.6898 -16.6581,45.6754 9.67245,-7.523 19.88225,-15.046 31.16677,-6.9856 11.28452,8.0603 19.88225,12.8966 6.4483,38.6898 0.53735,5.9109 1.61207,15.5833 9.67244,18.8075 -18.27017,-6.4483 -22.03168,-15.5834 -19.88225,-23.6438 2.14943,-8.0603 6.98566,-18.2701 0.53736,-22.0317 -6.4483,-3.7615 -26.8679,17.1955 -34.92827,7.5231 -8.06037,-9.6725 -8.06037,-16.6581 -6.4483,-19.8823 1.61208,-3.2241 10.74716,-13.9713 11.82188,-19.8822 1.07471,-5.911 1.61207,-18.2702 -2.14943,-24.7185 -3.76151,-6.4483 13.43395,-5.3736 13.43395,-5.3736 z"
       id="path1090"
       inkscape:connector-curvature="0" />
    <path
       style="fill:#ffffff;fill-rule:evenodd;stroke:none"
       d="m 20.1778,2105.4747 c 33.818912,8.8904 89.23821,38.4431 16.585466,65.93 24.043422,9.9768 97.000814,4.4598 12.439096,58.3642 131.797558,-23.477 113.270728,20.5131 74.634578,52.9601 137.82448,-59.5278 114.07115,-29.4294 89.55429,6.0554 103.3775,-49.9094 77.96989,0.4024 69.38973,16.6418 53.9676,-26.3134 85.36434,-24.0499 88.45581,14.0507 54.52741,-60.8176 82.19782,-21.6491 103.65914,1.0808 -6.83109,-19.5116 17.04468,-74.7419 100.89489,-10.8082 -13.69923,-46.1252 25.31476,-43.4353 103.65915,-4.3233 -60.031,-70.235 43.03658,-38.0977 70.48821,-23.778 -35.05789,-20.2999 -82.24151,-78.2235 49.7564,-37.8287 -53.05299,-23.2286 -74.90546,-43.6687 40.08153,-51.8793 -52.14371,-14.7808 -81.57546,-29.8228 29.02455,-46.4752 -33.66574,-5.0295 -114.23799,9.64 -26.26031,-46.4752 -58.67851,1.8133 -81.61125,-3.2298 -12.4391,-25.9397 -92.93473,9.9795 -118.93459,1.1155 -30.40667,-39.9903 -147.72059,43.6943 -71.91029,-3.2535 -52.52064,-18.3739 -66.96761,23.2688 -113.01934,36.0032 -38.69942,-11.889 -129.52734,33.8209 -82.54197,-14.2631 -80.16307,-28.1013 -66.29421,61.4768 -72.22325,4.1749 -80.16307,-9.7274 -6.18047,48.0723 -14.30821,16.7927 -29.02455,-2.1616 -20.81842,21.228 -41.95891,40.7434 -74.63459,-1.0808 -20.8594,39.4268 -47.98411,21.6932 -76.0167,-4.3233 2.32762,58.723 -57.79721,4.5086 -89.83792,1.0808 24.91239,57.284 -24.67446,29.261 -64.95972,11.889 75.41924,72.1642 -41.88908,40.0341 -80.16307,19.4548 84.052,54.714 57.56715,67.7058 -13.82122,43.2327 88.56581,41.4069 -13.59922,60.0332 -64.959735,20.5356 65.200475,49.5119 30.19648,56.9416 -34.553055,51.8793 z"
       id="path1092"
       inkscape:connector-curvature="0"
       sodipodi:nodetypes="cccccccccccccccccccccccccccccc" />
    <path
       style="fill:#ffffff;fill-rule:evenodd;stroke:none;stroke-width:1px;stroke-linecap:butt;stroke-linejoin:miter;stroke-opacity:1"
       d="m 357.21198,2209.9917 c -73.33356,55.9324 -104.40711,93.2206 -116.83653,150.3959 -12.42942,57.1754 -21.13001,118.0795 47.23179,190.1701 -79.54827,-68.3618 -74.57651,-141.6953 -72.09062,-162.8253 2.48588,-21.1301 16.15824,-95.7066 60.90414,-147.9101 44.74591,-52.2036 93.22064,-87.0059 93.22064,-87.0059 l 6.21471,34.8023 z"
       id="path1094"
       inkscape:connector-curvature="0" />
    <path
       style="fill:#ffffff;fill-rule:evenodd;stroke:none;stroke-width:1.12178349px;stroke-linecap:butt;stroke-linejoin:miter;stroke-opacity:1"
       d="m 842.63034,1976.4706 c 52.52138,40.0116 42.85089,57.4789 -31.18835,51.6128 118.04144,61.4398 69.31267,70.6358 -5.42407,71.6844 50.17043,22.441 105.68331,44.4013 -9.49211,81.7203 66.74532,6.0505 124.90173,14.5937 10.84813,73.1181 59.17366,-2.4037 118.82895,-5.1102 47.46055,74.5519 96.86216,-35.7806 164.04741,-46.3068 113.90532,43.0106 48.68659,-26.3041 128.72879,-92.9666 100.34519,-20.0717 22.3061,-23.2801 50.6948,-32.0908 101.7012,12.9033 -9.9462,-32.4495 -39.9134,-83.877 50.1725,-21.5053 -27.2335,-48.8036 -32.6557,-75.2454 58.3087,-2.8674 -13.5509,-36.7981 -71.9678,-73.596 39.3245,-110.3941 -76.6606,-3.6701 -52.8817,-28.5788 -4.068,-58.7812 -91.2832,-16.692 -46.1186,-36.9026 8.1361,-57.3476 -56.5409,-7.7929 -100.1614,-20.9168 -10.8482,-88.8887 -98.3087,28.2183 -69.8588,-19.5077 -65.0888,-53.0465 -45.3677,26.6317 -96.6724,68.4329 -100.3452,-11.4696 -60.8591,99.1333 -83.9022,23.344 -117.9734,-1.4336 -35.43732,117.9595 -115.77035,9.2449 -138.3135,1.4336 45.97255,48.2806 53.99925,70.1411 -47.46056,15.7707 z"
       id="path1096"
       inkscape:connector-curvature="0"
       sodipodi:nodetypes="cccccccccccccccccccc" />
    <path
       style="fill:#ffffff;fill-rule:evenodd;stroke:none;stroke-width:1px;stroke-linecap:butt;stroke-linejoin:miter;stroke-opacity:1"
       d="m 1088.0811,2278.5266 c -27.3447,36.0454 -98.19241,124.2942 -99.43531,131.7519 -1.24299,7.4576 39.77411,-2.4859 39.77411,-2.4859 l -60.90417,89.4918 c 0,0 103.16417,-99.4353 109.37887,-104.4071 6.2147,-4.9718 -23.6159,-11.1865 -41.0171,-6.2147 19.8871,-19.8871 99.4354,-99.4354 99.4354,-99.4354 z"
       id="path1098"
       inkscape:connector-curvature="0" />
    <path
       style="fill:#ffffff;fill-rule:evenodd;stroke:none;stroke-width:1.02267253px;stroke-linecap:butt;stroke-linejoin:miter;stroke-opacity:1"
       d="m 1344.6207,2045.122 c 47.3517,25.8606 63.3081,-19.2377 74.2743,-75.6144 -2.0363,137.8642 64.7994,79.1036 139.9118,-3.2875 -22.348,100.9579 37.2161,107.6272 111.3634,51.1627 -8.3862,48.7044 21.176,68.0509 100.1796,24.8367 -23.8689,54.9811 -69.653,105.8558 101.7832,39.8106 -50.1943,36.851 -129.2123,83.4177 -19.6837,116.0465 -98.6322,14.3838 -123.8496,81.7414 -98.1218,113.658 -46.9898,-64.5955 -87.7402,-53.9715 -69.4272,49.0773 -47.2658,-48.926 -86.0001,-81.9737 -95.002,-26.3007 -85.2041,-144.4324 -67.0558,45.1846 -65.6376,164.3791 -24.0913,-139.5228 -52.1878,-277.2814 -126.0935,-126.5719 -0.5222,-53.3867 -18.6575,-91.517 -53.5465,-64.1078 z"
       id="path1100"
       inkscape:connector-curvature="0"
       sodipodi:nodetypes="cccccccccccccc" />
  </g>
  <g
     inkscape:groupmode="layer"
     id="layer1"
     inkscape:label="txt">
    <text
       xml:space="preserve"
       style="font-style:normal;font-variant:normal;font-weight:normal;font-stretch:normal;line-height:0%;font-family:Lavi;-inkscape-font-specification:Lavi;text-align:center;letter-spacing:0px;word-spacing:0px;text-anchor:middle;fill:#000000;fill-opacity:1;stroke:none"
       x="924.03223"
       y="217.78159"
       id="text4246"><tspan
         sodipodi:role="line"
         style="font-size:45px;line-height:1.20000005"
         x="931.06348"
         y="217.78159"
         id="tspan962">De drole ? Nouna, </tspan><tspan
         sodipodi:role="line"
         style="font-size:45px;line-height:1.20000005"
         x="931.06348"
         y="271.78159"
         id="tspan8905">ben sur qe nouna ! </tspan><tspan
         sodipodi:role="line"
         style="font-size:45px;line-height:1.20000005"
         x="924.03223"
         y="325.78159"
         id="tspan8907">Ben marriy.</tspan></text>
    <text
       xml:space="preserve"
       style="font-style:normal;font-variant:normal;font-weight:normal;font-stretch:normal;line-height:0%;font-family:Lavi;-inkscape-font-specification:Lavi;text-align:center;letter-spacing:0px;word-spacing:0px;text-anchor:middle;fill:#000000;fill-opacity:1;stroke:none"
       x="1270.011"
       y="251.11826"
       id="text4246-3"><tspan
         sodipodi:role="line"
         style="font-size:45px;line-height:1.20000005"
         x="1277.0422"
         y="251.11826"
         id="tspan858">Hi, hi ! Ben </tspan><tspan
         sodipodi:role="line"
         style="font-size:45px;line-height:1.20000005"
         x="1277.0422"
         y="305.11826"
         id="tspan8916">vrae ! Y a ren </tspan><tspan
         sodipodi:role="line"
         style="font-size:45px;line-height:1.20000005"
         x="1270.011"
         y="359.11826"
         id="tspan8920">de drole !</tspan></text>
    <text
       xml:space="preserve"
       style="font-style:normal;font-variant:normal;font-weight:normal;font-stretch:normal;line-height:0%;font-family:Lavi;-inkscape-font-specification:Lavi;text-align:center;letter-spacing:0px;word-spacing:0px;text-anchor:middle;fill:#000000;fill-opacity:1;stroke:none"
       x="475.27716"
       y="1156.4937"
       id="text4246-0"><tspan
         sodipodi:role="line"
         style="font-size:45px;line-height:1.20000005"
         x="475.27716"
         y="1156.4937"
         id="tspan4252-9">Ha...</tspan></text>
    <text
       xml:space="preserve"
       style="font-style:normal;font-variant:normal;font-weight:normal;font-stretch:normal;line-height:0%;font-family:Lavi;-inkscape-font-specification:Lavi;text-align:center;letter-spacing:0px;word-spacing:0px;text-anchor:middle;fill:#000000;fill-opacity:1;stroke:none"
       x="535.16223"
       y="1232.2852"
       id="text4246-0-3"><tspan
         sodipodi:role="line"
         style="font-size:45px;line-height:1.20000005"
         x="535.16223"
         y="1232.2852"
         id="tspan4252-9-6">Ha...</tspan></text>
    <text
       xml:space="preserve"
       style="font-style:normal;font-variant:normal;font-weight:normal;font-stretch:normal;line-height:0%;font-family:Lavi;-inkscape-font-specification:Lavi;text-align:center;letter-spacing:0px;word-spacing:0px;text-anchor:middle;fill:#000000;fill-opacity:1;stroke:none"
       x="581.47876"
       y="1302.325"
       id="text4246-0-0"><tspan
         sodipodi:role="line"
         style="font-size:45px;line-height:1.20000005"
         x="581.47876"
         y="1302.325"
         id="tspan4252-9-62">Ha.</tspan></text>
    <flowRoot
       xml:space="preserve"
       id="flowRoot1004"
       style="font-style:normal;font-variant:normal;font-weight:normal;font-stretch:normal;line-height:0.01%;font-family:Lavi;-inkscape-font-specification:Lavi;text-align:center;letter-spacing:4.28999996px;word-spacing:-79.63999939px;writing-mode:lr-tb;text-anchor:middle;fill:#000000;fill-opacity:1;stroke:none;stroke-width:1px;stroke-linecap:butt;stroke-linejoin:miter;stroke-opacity:1"><flowRegion
         id="flowRegion1006"><rect
           id="rect1008"
           width="15.723214"
           height="1.429383"
           x="606.05841"
           y="1290.3149" /></flowRegion><flowPara
         id="flowPara1010"
         style="font-size:0.66666698px;line-height:0"> </flowPara></flowRoot>    <flowRoot
       xml:space="preserve"
       id="flowRoot1012"
       style="font-style:normal;font-variant:normal;font-weight:normal;font-stretch:normal;line-height:0.01%;font-family:Lavi;-inkscape-font-specification:Lavi;text-align:center;letter-spacing:4.28999996px;word-spacing:-79.63999939px;writing-mode:lr-tb;text-anchor:middle;fill:#000000;fill-opacity:1;stroke:none;stroke-width:1px;stroke-linecap:butt;stroke-linejoin:miter;stroke-opacity:1"><flowRegion
         id="flowRegion1014"><rect
           id="rect1016"
           width="10.005682"
           height="2.8587661"
           x="608.91718"
           y="1290.3149" /></flowRegion><flowPara
         id="flowPara1018"
         style="font-size:0.66666698px;line-height:0"> </flowPara></flowRoot>    <text
       xml:space="preserve"
       style="font-style:normal;font-variant:normal;font-weight:normal;font-stretch:normal;line-height:0%;font-family:Lavi;-inkscape-font-specification:Lavi;text-align:center;letter-spacing:0px;word-spacing:0px;text-anchor:middle;fill:#000000;fill-opacity:1;stroke:none"
       x="450.68362"
       y="1960.8077"
       id="text4246-6"
       transform="scale(0.9428475,1.0606169)"><tspan
         sodipodi:role="line"
         style="font-style:normal;font-variant:normal;font-weight:bold;font-stretch:normal;font-size:73.16191101px;line-height:1.20000005;font-family:Lavi;-inkscape-font-specification:'Lavi Bold';stroke:#000000;stroke-width:1.95098436;stroke-miterlimit:4;stroke-dasharray:none;stroke-opacity:1"
         x="450.68362"
         y="1960.8077"
         id="tspan4252-1">OH BRICHT !</tspan></text>
    <text
       xml:space="preserve"
       style="font-style:normal;font-variant:normal;font-weight:normal;font-stretch:normal;line-height:0%;font-family:Lavi;-inkscape-font-specification:Lavi;text-align:center;letter-spacing:0px;word-spacing:0px;text-anchor:middle;fill:#000000;fill-opacity:1;stroke:none"
       x="431.29309"
       y="2142.8376"
       id="text4246-8"><tspan
         sodipodi:role="line"
         style="font-size:45px;line-height:1.20000005"
         x="438.32434"
         y="2142.8376"
         id="tspan983">Ma robe pour la ceremoniy </tspan><tspan
         sodipodi:role="line"
         style="font-size:45px;line-height:1.20000005"
         x="438.32434"
         y="2196.8376"
         id="tspan8927">q’ét dralhey net ! Mon couturier </tspan><tspan
         sodipodi:role="line"
         style="font-size:45px;line-height:1.20000005"
         x="431.29309"
         y="2250.8376"
         id="tspan8929">va étr afelonae !</tspan></text>
    <text
       xml:space="preserve"
       style="font-style:normal;font-variant:normal;font-weight:normal;font-stretch:normal;line-height:0%;font-family:Lavi;-inkscape-font-specification:Lavi;text-align:center;letter-spacing:0px;word-spacing:0px;text-anchor:middle;fill:#000000;fill-opacity:1;stroke:none"
       x="1346.9668"
       y="1927.4419"
       id="text4246-9"
       transform="matrix(0.92146908,0,-0.09009126,1.0852236,0,0)"><tspan
         sodipodi:role="line"
         style="font-style:normal;font-variant:normal;font-weight:bold;font-stretch:normal;font-size:58.44882965px;line-height:1.20000005;font-family:Lavi;-inkscape-font-specification:'Lavi Bold'"
         x="1346.9668"
         y="1927.4419"
         id="tspan4252-2">Maodit robot !</tspan></text>
    <text
       xml:space="preserve"
       style="font-style:normal;font-variant:normal;font-weight:normal;font-stretch:normal;line-height:0%;font-family:Lavi;-inkscape-font-specification:Lavi;text-align:center;letter-spacing:0px;word-spacing:0px;text-anchor:middle;fill:#000000;fill-opacity:1;stroke:none"
       x="1057.8169"
       y="2174.3855"
       id="text4246-02"
       transform="scale(1.0048528,0.99517063)"><tspan
         sodipodi:role="line"
         style="font-size:51.93634033px;line-height:1.20000005"
         x="1065.932"
         y="2174.3855"
         id="tspan989">Je vaz m’échevir </tspan><tspan
         sodipodi:role="line"
         style="font-size:51.93634033px;line-height:1.20000005"
         x="1065.932"
         y="2236.7092"
         id="tspan8936">de ta bétayey </tspan><tspan
         sodipodi:role="line"
         style="font-size:51.93634033px;line-height:1.20000005"
         x="1057.8169"
         y="2299.0327"
         id="tspan8938">de biao jeu !</tspan></text>
    <text
       xml:space="preserve"
       style="font-style:normal;font-variant:normal;font-weight:normal;font-stretch:normal;line-height:0%;font-family:Lavi;-inkscape-font-specification:Lavi;text-align:center;letter-spacing:20.25646019px;word-spacing:0px;text-anchor:middle;fill:#000000;fill-opacity:1;stroke:none"
       x="2233.6995"
       y="1932.4862"
       id="text4246-6-6-3"
       transform="matrix(0.877383,0,-0.20283407,1.1397531,0,0)"><tspan
         sodipodi:role="line"
         style="font-style:normal;font-variant:normal;font-weight:bold;font-stretch:normal;font-size:74.97727203px;line-height:1.20000005;font-family:Lavi;-inkscape-font-specification:'Lavi Bold';letter-spacing:2.78353477px"
         x="2235.0913"
         y="1932.4862"
         id="tspan4252-00-4-7">ESPERE !!</tspan></text>
    <text
       xml:space="preserve"
       style="font-style:normal;font-variant:normal;font-weight:normal;font-stretch:normal;line-height:0%;font-family:'Cabin Sketch';-inkscape-font-specification:'Cabin Sketch';letter-spacing:0px;word-spacing:0px;fill:#000000;fill-opacity:1;stroke:none;stroke-width:1px;stroke-linecap:butt;stroke-linejoin:miter;stroke-opacity:1"
       x="1263.3837"
       y="254.65823"
       id="text770"><tspan
         sodipodi:role="line"
         id="tspan768"
         x="1263.3837"
         y="254.65823"
         style="font-size:40px;line-height:1.25"> </tspan></text>
    <text
       xml:space="preserve"
       style="font-style:normal;font-variant:normal;font-weight:normal;font-stretch:normal;line-height:0%;font-family:Lavi;-inkscape-font-specification:Lavi;letter-spacing:0px;word-spacing:0px;fill:#000000;fill-opacity:1;stroke:#000000;stroke-width:0;stroke-linecap:square;stroke-miterlimit:4;stroke-dasharray:none;stroke-opacity:1;filter:url(#filter4375-4-1-1-1-9-8)"
       x="787.65729"
       y="1584.5073"
       id="text4580-7"
       transform="matrix(2.7819933,-0.1626793,-0.94551619,2.9284614,847.83592,-4206.9016)"><tspan
         sodipodi:role="line"
         id="tspan4582-7"
         x="787.65729"
         y="1584.5073"
         style="font-style:normal;font-variant:normal;font-weight:normal;font-stretch:normal;font-size:70px;line-height:1.25;font-family:ComicSpice;-inkscape-font-specification:ComicSpice;fill:#ffffff;stroke-width:0;stroke-linecap:square;stroke-miterlimit:4;stroke-dasharray:none">G</tspan></text>
    <text
       xml:space="preserve"
       style="font-style:normal;font-variant:normal;font-weight:normal;font-stretch:normal;line-height:0%;font-family:Lavi;-inkscape-font-specification:Lavi;letter-spacing:0px;word-spacing:0px;fill:#000000;fill-opacity:1;stroke:#000000;stroke-width:0;stroke-linecap:square;stroke-miterlimit:4;stroke-dasharray:none;stroke-opacity:1;filter:url(#filter4375-4-1-1-1-9-30-7)"
       x="787.65729"
       y="1584.5073"
       id="text4580-9-6"
       transform="matrix(2.0062568,-0.28085132,-1.1064232,2.8181271,1827.0399,-3899.3548)"><tspan
         sodipodi:role="line"
         id="tspan4582-26-4"
         x="787.65729"
         y="1584.5073"
         style="font-style:normal;font-variant:normal;font-weight:normal;font-stretch:normal;font-size:70px;line-height:1.25;font-family:ComicSpice;-inkscape-font-specification:ComicSpice;fill:#ffffff;stroke-width:0;stroke-linecap:square;stroke-miterlimit:4;stroke-dasharray:none">Z</tspan></text>
    <text
       xml:space="preserve"
       style="font-style:normal;font-variant:normal;font-weight:normal;font-stretch:normal;line-height:0%;font-family:Lavi;-inkscape-font-specification:Lavi;letter-spacing:0px;word-spacing:0px;fill:#000000;fill-opacity:1;stroke:#000000;stroke-width:0;stroke-linecap:square;stroke-miterlimit:4;stroke-dasharray:none;stroke-opacity:1;filter:url(#filter4375-4-1-1-1-9-30-2-4)"
       x="787.65729"
       y="1584.5073"
       id="text4580-9-9-3"
       transform="matrix(1.6478956,-0.12375314,-0.87637078,2.5734869,1811.3927,-3600.7784)"><tspan
         sodipodi:role="line"
         id="tspan4582-26-1-0"
         x="787.65729"
         y="1584.5073"
         style="font-style:normal;font-variant:normal;font-weight:normal;font-stretch:normal;font-size:70px;line-height:1.25;font-family:ComicSpice;-inkscape-font-specification:ComicSpice;fill:#ffffff;stroke-width:0;stroke-linecap:square;stroke-miterlimit:4;stroke-dasharray:none">Z</tspan></text>
    <text
       xml:space="preserve"
       style="font-style:normal;font-variant:normal;font-weight:normal;font-stretch:normal;line-height:0%;font-family:Lavi;-inkscape-font-specification:Lavi;letter-spacing:0px;word-spacing:0px;fill:#000000;fill-opacity:1;stroke:#000000;stroke-width:0;stroke-linecap:square;stroke-miterlimit:4;stroke-dasharray:none;stroke-opacity:1;filter:url(#filter4375-4-1-1-1-9-30-2-7-9)"
       x="787.65729"
       y="1584.5073"
       id="text4580-9-9-6-3"
       transform="matrix(1.7863953,-0.07100102,-0.69940041,2.1802978,1477.4386,-2984.9193)"><tspan
         sodipodi:role="line"
         id="tspan4582-26-1-5-0"
         x="787.65729"
         y="1584.5073"
         style="font-style:normal;font-variant:normal;font-weight:normal;font-stretch:normal;font-size:70px;line-height:1.25;font-family:ComicSpice;-inkscape-font-specification:ComicSpice;fill:#ffffff;stroke-width:0;stroke-linecap:square;stroke-miterlimit:4;stroke-dasharray:none">T</tspan></text>
    <text
       xml:space="preserve"
       style="font-style:normal;font-variant:normal;font-weight:normal;font-stretch:normal;line-height:0%;font-family:Lavi;-inkscape-font-specification:Lavi;letter-spacing:0px;word-spacing:0px;fill:#000000;fill-opacity:1;stroke:#000000;stroke-width:0;stroke-linecap:square;stroke-miterlimit:4;stroke-dasharray:none;stroke-opacity:1;filter:url(#filter4375-4-1-1-1-9-30-2-7-6-5)"
       x="787.65729"
       y="1584.5073"
       id="text4580-9-9-6-8-9"
       transform="matrix(2.0241923,0.10781681,-1.2082941,2.536771,2181.4743,-3672.0484)"><tspan
         sodipodi:role="line"
         id="tspan4582-26-1-5-8-2"
         x="787.65729"
         y="1584.5073"
         style="font-style:normal;font-variant:normal;font-weight:normal;font-stretch:normal;font-size:70px;line-height:1.25;font-family:ComicSpice;-inkscape-font-specification:ComicSpice;fill:#ffffff;stroke-width:0;stroke-linecap:square;stroke-miterlimit:4;stroke-dasharray:none"> !</tspan></text>
  </g>
</svg>
