<?xml version="1.0" encoding="UTF-8" standalone="no"?>
<!-- Created with Inkscape (http://www.inkscape.org/) -->

<svg
   xmlns:dc="http://purl.org/dc/elements/1.1/"
   xmlns:cc="http://creativecommons.org/ns#"
   xmlns:rdf="http://www.w3.org/1999/02/22-rdf-syntax-ns#"
   xmlns:svg="http://www.w3.org/2000/svg"
   xmlns="http://www.w3.org/2000/svg"
   xmlns:xlink="http://www.w3.org/1999/xlink"
   xmlns:sodipodi="http://sodipodi.sourceforge.net/DTD/sodipodi-0.dtd"
   xmlns:inkscape="http://www.inkscape.org/namespaces/inkscape"
   id="svg2"
   version="1.1"
   inkscape:version="0.92.3 (2405546, 2018-03-11)"
   width="2481"
   height="3503"
   sodipodi:docname="E13P01.svg">
  <metadata
     id="metadata8">
    <rdf:RDF>
      <cc:Work
         rdf:about="">
        <dc:format>image/svg+xml</dc:format>
        <dc:type
           rdf:resource="http://purl.org/dc/dcmitype/StillImage" />
        <dc:title />
      </cc:Work>
    </rdf:RDF>
  </metadata>
  <defs
     id="defs6" />
  <sodipodi:namedview
     pagecolor="#ffffff"
     bordercolor="#666666"
     borderopacity="1"
     objecttolerance="10"
     gridtolerance="10"
     guidetolerance="10"
     inkscape:pageopacity="0"
     inkscape:pageshadow="2"
     inkscape:window-width="1920"
     inkscape:window-height="1017"
     id="namedview4"
     showgrid="false"
     inkscape:zoom="0.48234982"
     inkscape:cx="1172.6083"
     inkscape:cy="1963.0615"
     inkscape:window-x="-8"
     inkscape:window-y="-8"
     inkscape:window-maximized="1"
     inkscape:current-layer="layer1" />
  <g
     inkscape:groupmode="layer"
     id="layer2"
     inkscape:label="artwork"
     sodipodi:insensitive="true">
    <image
       sodipodi:absref="C:\Users\ato\OneDrive - Høgskulen i Volda\Vevsida\Teikneseriesida\Pepar &amp; Gulrot\ep13_The-Pyjama-Party_lang-pack\lang\nn\../gfx_Pepper-and-Carrot_by-David-Revoy_E13P01.png"
       xlink:href="../gfx_Pepper-and-Carrot_by-David-Revoy_E13P01.png"
       y="0"
       x="0"
       id="image10"
       height="3503"
       width="2481" />
  </g>
  <g
     inkscape:groupmode="layer"
     id="layer3"
     inkscape:label="speechbubbles" />
  <g
     inkscape:groupmode="layer"
     id="layer1"
     inkscape:label="txt">
    <path
       style="fill:#ffffff;fill-opacity:1;stroke:none;stroke-width:0.91671038"
       d="M 698.10063,769.26331 C 707.14529,710.8626 649.41234,709.5295 541.1326,705.7578 c -103.49412,-3.6049 -124.03631,9.0774 -137.99482,33.63651 -16.11738,28.3574 -21.50424,73.8614 61.02763,88.2487 65.61584,11.4386 181.92835,0.6814 196.81245,-11.7527 14.88408,-12.4341 32.58977,-15.271 37.12277,-46.627 z"
       id="path3238-1-6"
       inkscape:connector-curvature="0"
       sodipodi:nodetypes="cssssc" />
    <path
       style="fill:#ffffff;fill-opacity:1;stroke:none;stroke-width:0.98903"
       d="m 742.42774,1108.9836 c 11.00394,-62.1699 -59.23538,-63.589 -190.9712,-67.6041 -125.91347,-3.8376 -150.9056,9.6632 -167.88788,35.8074 -19.60879,30.1876 -26.16257,78.6284 74.24773,93.9443 79.82983,12.1768 218.98764,-3.5418 239.44685,-12.5112 21.73521,-9.5288 39.64952,-16.2566 45.1645,-49.6364 z"
       id="path3238-1"
       inkscape:connector-curvature="0"
       sodipodi:nodetypes="cssssc" />
    <path
       style="fill:#ffffff;stroke:none;stroke-width:0.87416792"
       d="m 2010.4292,3347.4584 c -8.6944,-55.7426 10.3846,-102.5898 23.0785,-114.5544 12.6939,-11.9647 34.7288,-26.8949 45.8306,-29.9166 11.1018,-3.0217 200.2944,-16.6563 210.995,-9.884 10.7007,6.7722 60.8461,51.2406 72.0702,85.5615 11.2242,34.3208 -7.6439,120.4656 -21.3598,140.4658 -13.716,20 -29.4985,2.588 -109.8123,10.4853 -80.3141,7.8975 -176.7841,8.1328 -200.4693,-32.1219 -13.3525,-22.6932 -20.3329,-50.0357 -20.3329,-50.0357 z"
       id="path3286"
       inkscape:connector-curvature="0"
       sodipodi:nodetypes="csssssssc" />
    <path
       style="color:#000000;fill:#ffffff;fill-opacity:1;fill-rule:nonzero;stroke:none;stroke-width:1px;marker:none;visibility:visible;display:inline;overflow:visible;enable-background:accumulate"
       d="m 2065.3434,2938.9931 c 59.1369,57.7184 84.0546,81.7232 70.3501,131.5639 -13.7043,49.8409 29.5777,21.853 29.5777,21.853 0,0 27.6302,-106.7588 -99.9278,-153.4169 z"
       id="path3984"
       inkscape:connector-curvature="0"
       sodipodi:nodetypes="cscc" />
    <path
       style="color:#000000;display:inline;overflow:visible;visibility:visible;fill:#ffffff;fill-opacity:1;fill-rule:nonzero;stroke:none;stroke-width:0.97877455px;marker:none;enable-background:accumulate"
       d="m 2022.9103,3132.6672 c 1.4772,-67.4185 50.9723,-78.0165 86.9393,-84.9289 36.9255,-7.0968 56.1588,-4.3577 66.4125,-1.7697 10.2537,2.588 89.7601,-3.5814 120.3604,0.8015 29.46,4.2197 78.0615,31.4897 78.0615,92.367 0,77.6815 -52.0735,86.6985 -94.9526,90.5804 -42.8794,3.8821 -120.2396,2.5984 -142.7063,1.7032 -33.3133,-1.3271 -107.5896,0.8849 -114.1148,-98.7538 z"
       id="path5034"
       inkscape:connector-curvature="0"
       sodipodi:nodetypes="cscsssscc" />
    <path
       style="fill:#ffffff;fill-opacity:1;stroke:none;stroke-width:1.07880592"
       d="m 435.72841,1449.7348 c -10.97928,58.7809 65.57023,59.0418 209.16297,60.8072 137.24637,1.6871 164.25629,-11.4244 182.33409,-36.3328 20.87374,-28.7607 27.22748,-74.5301 -82.41934,-87.4297 -87.17317,-10.256 -191.96414,-6.0398 -245.09604,5.4897 -42.71711,9.2695 -58.51515,25.9115 -63.98168,57.4656 z"
       id="path3238"
       inkscape:connector-curvature="0"
       sodipodi:nodetypes="cssssc" />
    <path
       style="color:#000000;display:inline;overflow:visible;visibility:visible;fill:#ffffff;fill-opacity:1;fill-rule:nonzero;stroke:none;stroke-width:1px;marker:none;enable-background:accumulate"
       d="M 537.20621,747.31481 C 497.18166,1119.9729 723.58268,1848.6244 747.8049,2074.1644 760.10221,1890.5729 526.40737,1185.705 565.75742,742.84162 c -24.19123,-4.10336 -28.55121,4.47319 -28.55121,4.47319 z"
       id="path4008"
       inkscape:connector-curvature="0"
       sodipodi:nodetypes="cccc" />
    <text
       xml:space="preserve"
       style="color:#000000;font-style:normal;font-variant:normal;font-weight:normal;font-stretch:normal;line-height:0%;font-family:Lavi;-inkscape-font-specification:Lavi;text-indent:0;text-align:center;text-decoration:none;text-decoration-line:none;letter-spacing:0px;word-spacing:0px;text-transform:none;writing-mode:lr-tb;direction:ltr;baseline-shift:baseline;text-anchor:middle;display:inline;overflow:visible;visibility:visible;fill:#000000;fill-opacity:1;fill-rule:nonzero;stroke:none;enable-background:accumulate"
       x="2197.4683"
       y="3127.4856"
       id="text4159"><tspan
         sodipodi:role="line"
         x="2197.4683"
         y="3127.4856"
         id="tspan3737"
         style="font-size:45px;line-height:1.25">Det er berre</tspan><tspan
         sodipodi:role="line"
         x="2197.4683"
         y="3183.7356"
         id="tspan4161"
         style="font-size:45px;line-height:1.25"><tspan
   style="font-style:italic;font-variant:normal;font-weight:normal;font-stretch:normal;font-family:Lavi;-inkscape-font-specification:'Lavi Italic'"
   id="tspan4174">så</tspan> kjekt!</tspan></text>
    <text
       xml:space="preserve"
       style="color:#000000;font-style:normal;font-variant:normal;font-weight:normal;font-stretch:normal;line-height:0%;font-family:Lavi;-inkscape-font-specification:Lavi;text-indent:0;text-align:center;text-decoration:none;text-decoration-line:none;letter-spacing:0px;word-spacing:0px;text-transform:none;writing-mode:lr-tb;direction:ltr;baseline-shift:baseline;text-anchor:middle;display:inline;overflow:visible;visibility:visible;fill:#000000;fill-opacity:1;fill-rule:nonzero;stroke:none;enable-background:accumulate"
       x="2185.697"
       y="3271.6777"
       id="text4177"><tspan
         sodipodi:role="line"
         x="2192.7283"
         y="3271.6777"
         style="font-size:45px;line-height:1.25"
         id="tspan3769">Takk for </tspan><tspan
         sodipodi:role="line"
         x="2192.7283"
         y="3327.9277"
         style="font-size:45px;line-height:1.25"
         id="tspan3775">innbydinga, </tspan><tspan
         sodipodi:role="line"
         x="2185.697"
         y="3384.1777"
         style="font-size:45px;line-height:1.25"
         id="tspan3771">Koriander!</tspan></text>
    <text
       xml:space="preserve"
       style="color:#000000;font-style:normal;font-variant:normal;font-weight:normal;font-stretch:normal;line-height:0%;font-family:Lavi;-inkscape-font-specification:Lavi;text-indent:0;text-align:center;text-decoration:none;text-decoration-line:none;letter-spacing:0px;word-spacing:0px;text-transform:none;writing-mode:lr-tb;direction:ltr;baseline-shift:baseline;text-anchor:middle;display:inline;overflow:visible;visibility:visible;fill:#000000;fill-opacity:1;fill-rule:nonzero;stroke:#000000;stroke-width:1.15499997;stroke-linecap:butt;stroke-linejoin:miter;stroke-miterlimit:4;stroke-dasharray:none;stroke-dashoffset:0;stroke-opacity:1;enable-background:accumulate"
       x="633.81232"
       y="1451.3315"
       id="text4201"
       transform="scale(0.99121655,1.0088613)"><tspan
         sodipodi:role="line"
         x="633.81232"
         y="1451.3315"
         id="tspan4183"
         style="font-style:normal;font-variant:normal;font-weight:bold;font-stretch:normal;font-size:47.26602173px;line-height:1.25;font-family:Lavi;-inkscape-font-specification:'Lavi Bold';stroke:none;stroke-width:1.15499997;stroke-miterlimit:4;stroke-dasharray:none">... nokosinne!</tspan></text>
    <text
       xml:space="preserve"
       style="color:#000000;font-style:normal;font-variant:normal;font-weight:normal;font-stretch:normal;line-height:0%;font-family:Lavi;-inkscape-font-specification:Lavi;text-indent:0;text-align:center;text-decoration:none;text-decoration-line:none;letter-spacing:0px;word-spacing:0px;text-transform:none;writing-mode:lr-tb;direction:ltr;baseline-shift:baseline;text-anchor:middle;display:inline;overflow:visible;visibility:visible;fill:#000000;fill-opacity:1;fill-rule:nonzero;stroke:none;enable-background:accumulate"
       x="547.33362"
       y="781.7851"
       id="text4201-8"><tspan
         sodipodi:role="line"
         x="547.33362"
         y="781.7851"
         id="tspan4183-9"
         style="font-size:45px;line-height:1.25">Beste ...</tspan></text>
    <text
       xml:space="preserve"
       style="color:#000000;font-style:normal;font-variant:normal;font-weight:normal;font-stretch:normal;line-height:0%;font-family:Lavi;-inkscape-font-specification:Lavi;text-indent:0;text-align:center;text-decoration:none;text-decoration-line:none;letter-spacing:0px;word-spacing:0px;text-transform:none;writing-mode:lr-tb;direction:ltr;baseline-shift:baseline;text-anchor:middle;display:inline;overflow:visible;visibility:visible;fill:#000000;fill-opacity:1;fill-rule:nonzero;stroke:none;enable-background:accumulate"
       x="552.08148"
       y="1121.1799"
       id="text4201-2"><tspan
         sodipodi:role="line"
         x="552.08148"
         y="1121.1799"
         id="tspan4183-92"
         style="font-size:45px;line-height:1.25">... ferien ...</tspan></text>
  </g>
</svg>
