<?xml version="1.0" encoding="UTF-8" standalone="no"?>
<!-- Created with Inkscape (http://www.inkscape.org/) -->

<svg
   xmlns:dc="http://purl.org/dc/elements/1.1/"
   xmlns:cc="http://creativecommons.org/ns#"
   xmlns:rdf="http://www.w3.org/1999/02/22-rdf-syntax-ns#"
   xmlns:svg="http://www.w3.org/2000/svg"
   xmlns="http://www.w3.org/2000/svg"
   xmlns:xlink="http://www.w3.org/1999/xlink"
   xmlns:sodipodi="http://sodipodi.sourceforge.net/DTD/sodipodi-0.dtd"
   xmlns:inkscape="http://www.inkscape.org/namespaces/inkscape"
   id="svg2"
   version="1.1"
   inkscape:version="0.92.3 (2405546, 2018-03-11)"
   width="2481"
   height="3503"
   sodipodi:docname="E27P06.svg">
  <metadata
     id="metadata8">
    <rdf:RDF>
      <cc:Work
         rdf:about="">
        <dc:format>image/svg+xml</dc:format>
        <dc:type
           rdf:resource="http://purl.org/dc/dcmitype/StillImage" />
        <dc:title />
      </cc:Work>
    </rdf:RDF>
  </metadata>
  <defs
     id="defs6">
    <filter
       style="color-interpolation-filters:sRGB"
       id="filter4375-4-1-1-1-9"
       inkscape:label="deevad outline effect">
      <feFlood
         id="feFlood4377-7-9-0-8-1"
         flood-opacity="1"
         flood-color="rgb(0,0,0)"
         result="flood" />
      <feComposite
         id="feComposite4379-3-8-8-2-77"
         in2="SourceGraphic"
         in="flood"
         operator="in"
         result="composite1" />
      <feMorphology
         id="feMorphology4393-1-0-49-8-9"
         operator="dilate"
         radius="4"
         result="result3" />
      <feComposite
         id="feComposite4385-9-5-7-0-8"
         in2="result3"
         in="SourceGraphic"
         operator="over"
         result="composite2" />
    </filter>
    <filter
       style="color-interpolation-filters:sRGB"
       id="filter4375-4-1-1-1-9-7-7-0-3"
       inkscape:label="deevad outline effect">
      <feFlood
         id="feFlood4377-7-9-0-8-1-4-8-3-2"
         flood-opacity="1"
         flood-color="rgb(0,0,0)"
         result="flood" />
      <feComposite
         id="feComposite4379-3-8-8-2-77-7-8-1-2"
         in2="SourceGraphic"
         in="flood"
         operator="in"
         result="composite1" />
      <feMorphology
         id="feMorphology4393-1-0-49-8-9-3-9-0-1"
         operator="dilate"
         radius="4"
         result="result3" />
      <feComposite
         id="feComposite4385-9-5-7-0-8-0-0-3-5"
         in2="result3"
         in="SourceGraphic"
         operator="over"
         result="composite2" />
    </filter>
    <filter
       style="color-interpolation-filters:sRGB"
       id="filter4375-4-1-1-1-9-7-7-0"
       inkscape:label="deevad outline effect">
      <feFlood
         id="feFlood4377-7-9-0-8-1-4-8-3"
         flood-opacity="1"
         flood-color="rgb(0,0,0)"
         result="flood" />
      <feComposite
         id="feComposite4379-3-8-8-2-77-7-8-1"
         in2="SourceGraphic"
         in="flood"
         operator="in"
         result="composite1" />
      <feMorphology
         id="feMorphology4393-1-0-49-8-9-3-9-0"
         operator="dilate"
         radius="4"
         result="result3" />
      <feComposite
         id="feComposite4385-9-5-7-0-8-0-0-3"
         in2="result3"
         in="SourceGraphic"
         operator="over"
         result="composite2" />
    </filter>
    <filter
       style="color-interpolation-filters:sRGB"
       id="filter4375-4-1-1-1-9-7-7"
       inkscape:label="deevad outline effect">
      <feFlood
         id="feFlood4377-7-9-0-8-1-4-8"
         flood-opacity="1"
         flood-color="rgb(0,0,0)"
         result="flood" />
      <feComposite
         id="feComposite4379-3-8-8-2-77-7-8"
         in2="SourceGraphic"
         in="flood"
         operator="in"
         result="composite1" />
      <feMorphology
         id="feMorphology4393-1-0-49-8-9-3-9"
         operator="dilate"
         radius="4"
         result="result3" />
      <feComposite
         id="feComposite4385-9-5-7-0-8-0-0"
         in2="result3"
         in="SourceGraphic"
         operator="over"
         result="composite2" />
    </filter>
    <filter
       style="color-interpolation-filters:sRGB"
       id="filter4375-4-1-1-1-9-7"
       inkscape:label="deevad outline effect">
      <feFlood
         id="feFlood4377-7-9-0-8-1-4"
         flood-opacity="1"
         flood-color="rgb(0,0,0)"
         result="flood" />
      <feComposite
         id="feComposite4379-3-8-8-2-77-7"
         in2="SourceGraphic"
         in="flood"
         operator="in"
         result="composite1" />
      <feMorphology
         id="feMorphology4393-1-0-49-8-9-3"
         operator="dilate"
         radius="4"
         result="result3" />
      <feComposite
         id="feComposite4385-9-5-7-0-8-0"
         in2="result3"
         in="SourceGraphic"
         operator="over"
         result="composite2" />
    </filter>
    <filter
       style="color-interpolation-filters:sRGB"
       id="filter4375-4-1-1-1-9-75"
       inkscape:label="deevad outline effect">
      <feFlood
         id="feFlood4377-7-9-0-8-1-3"
         flood-opacity="1"
         flood-color="rgb(0,0,0)"
         result="flood" />
      <feComposite
         id="feComposite4379-3-8-8-2-77-5"
         in2="SourceGraphic"
         in="flood"
         operator="in"
         result="composite1" />
      <feMorphology
         id="feMorphology4393-1-0-49-8-9-6"
         operator="dilate"
         radius="4"
         result="result3" />
      <feComposite
         id="feComposite4385-9-5-7-0-8-2"
         in2="result3"
         in="SourceGraphic"
         operator="over"
         result="composite2" />
    </filter>
    <linearGradient
       gradientTransform="matrix(0.9620232,0,0,1.1282469,-764.28464,-38.250005)"
       inkscape:collect="always"
       xlink:href="#linearGradient964"
       id="linearGradient966"
       x1="483.93088"
       y1="252.79726"
       x2="521.5141"
       y2="254.66634"
       gradientUnits="userSpaceOnUse" />
    <linearGradient
       inkscape:collect="always"
       id="linearGradient964">
      <stop
         style="stop-color:#918a6f;stop-opacity:1;"
         offset="0"
         id="stop960" />
      <stop
         style="stop-color:#c2bb9f;stop-opacity:1"
         offset="1"
         id="stop962" />
    </linearGradient>
    <radialGradient
       inkscape:collect="always"
       xlink:href="#linearGradient928"
       id="radialGradient932"
       cx="322.14978"
       cy="230.87151"
       fx="322.14978"
       fy="230.87151"
       r="182.11266"
       gradientTransform="matrix(1.0760297,-0.00865386,0.00801478,1.3707011,-845.99625,-48.45967)"
       gradientUnits="userSpaceOnUse" />
    <linearGradient
       inkscape:collect="always"
       id="linearGradient928">
      <stop
         style="stop-color:#f3efe0;stop-opacity:1"
         offset="0"
         id="stop924" />
      <stop
         style="stop-color:#d9cc9d;stop-opacity:1"
         offset="1"
         id="stop926" />
    </linearGradient>
    <filter
       style="color-interpolation-filters:sRGB"
       id="filter4375-4-1-1-1-9-30-2-7-6"
       inkscape:label="Roughen">
      <feFlood
         id="feFlood4377-7-9-0-8-1-78-6-7-3"
         flood-opacity="1"
         flood-color="rgb(0,0,0)"
         result="flood" />
      <feComposite
         id="feComposite4379-3-8-8-2-77-68-1-1-9"
         in2="SourceGraphic"
         in="flood"
         operator="in"
         result="composite1" />
      <feMorphology
         id="feMorphology4393-1-0-49-8-9-8-0-1-4"
         operator="dilate"
         radius="4"
         result="result3" />
      <feComposite
         id="feComposite4385-9-5-7-0-8-4-6-5-8"
         in2="result3"
         in="SourceGraphic"
         operator="over"
         result="fbSourceGraphic" />
      <feColorMatrix
         result="fbSourceGraphicAlpha"
         in="fbSourceGraphic"
         values="0 0 0 -1 0 0 0 0 -1 0 0 0 0 -1 0 0 0 0 1 0"
         id="feColorMatrix333-3-1-9-1" />
      <feTurbulence
         id="feTurbulence335-1-5-7-2"
         type="fractalNoise"
         numOctaves="5"
         seed="1"
         baseFrequency="0.013 0.013"
         result="turbulence" />
      <feDisplacementMap
         in2="turbulence"
         id="feDisplacementMap337-4-9-7-9"
         in="fbSourceGraphic"
         scale="6.6"
         yChannelSelector="G"
         xChannelSelector="R"
         result="fbSourceGraphic" />
      <feColorMatrix
         result="fbSourceGraphicAlpha"
         in="fbSourceGraphic"
         values="0 0 0 -1 0 0 0 0 -1 0 0 0 0 -1 0 0 0 0 1 0"
         id="feColorMatrix435-92-4-6-3" />
      <feTurbulence
         id="feTurbulence437-06-9-7-9"
         type="fractalNoise"
         numOctaves="5"
         seed="27"
         baseFrequency="0.001 0.4414"
         result="turbulence" />
      <feDisplacementMap
         in2="turbulence"
         id="feDisplacementMap439-8-0-3-0"
         in="fbSourceGraphic"
         scale="4.27461"
         yChannelSelector="G"
         xChannelSelector="R" />
    </filter>
    <filter
       style="color-interpolation-filters:sRGB"
       id="filter4375-4-1-1-1-9-30-2-7"
       inkscape:label="Roughen">
      <feFlood
         id="feFlood4377-7-9-0-8-1-78-6-7"
         flood-opacity="1"
         flood-color="rgb(0,0,0)"
         result="flood" />
      <feComposite
         id="feComposite4379-3-8-8-2-77-68-1-1"
         in2="SourceGraphic"
         in="flood"
         operator="in"
         result="composite1" />
      <feMorphology
         id="feMorphology4393-1-0-49-8-9-8-0-1"
         operator="dilate"
         radius="4"
         result="result3" />
      <feComposite
         id="feComposite4385-9-5-7-0-8-4-6-5"
         in2="result3"
         in="SourceGraphic"
         operator="over"
         result="fbSourceGraphic" />
      <feColorMatrix
         result="fbSourceGraphicAlpha"
         in="fbSourceGraphic"
         values="0 0 0 -1 0 0 0 0 -1 0 0 0 0 -1 0 0 0 0 1 0"
         id="feColorMatrix333-3-1-9" />
      <feTurbulence
         id="feTurbulence335-1-5-7"
         type="fractalNoise"
         numOctaves="5"
         seed="1"
         baseFrequency="0.013 0.013"
         result="turbulence" />
      <feDisplacementMap
         in2="turbulence"
         id="feDisplacementMap337-4-9-7"
         in="fbSourceGraphic"
         scale="6.6"
         yChannelSelector="G"
         xChannelSelector="R"
         result="fbSourceGraphic" />
      <feColorMatrix
         result="fbSourceGraphicAlpha"
         in="fbSourceGraphic"
         values="0 0 0 -1 0 0 0 0 -1 0 0 0 0 -1 0 0 0 0 1 0"
         id="feColorMatrix435-92-4-6" />
      <feTurbulence
         id="feTurbulence437-06-9-7"
         type="fractalNoise"
         numOctaves="5"
         seed="27"
         baseFrequency="0.001 0.4414"
         result="turbulence" />
      <feDisplacementMap
         in2="turbulence"
         id="feDisplacementMap439-8-0-3"
         in="fbSourceGraphic"
         scale="4.27461"
         yChannelSelector="G"
         xChannelSelector="R" />
    </filter>
    <filter
       style="color-interpolation-filters:sRGB"
       id="filter4375-4-1-1-1-9-30-2"
       inkscape:label="Roughen">
      <feFlood
         id="feFlood4377-7-9-0-8-1-78-6"
         flood-opacity="1"
         flood-color="rgb(0,0,0)"
         result="flood" />
      <feComposite
         id="feComposite4379-3-8-8-2-77-68-1"
         in2="SourceGraphic"
         in="flood"
         operator="in"
         result="composite1" />
      <feMorphology
         id="feMorphology4393-1-0-49-8-9-8-0"
         operator="dilate"
         radius="4"
         result="result3" />
      <feComposite
         id="feComposite4385-9-5-7-0-8-4-6"
         in2="result3"
         in="SourceGraphic"
         operator="over"
         result="fbSourceGraphic" />
      <feColorMatrix
         result="fbSourceGraphicAlpha"
         in="fbSourceGraphic"
         values="0 0 0 -1 0 0 0 0 -1 0 0 0 0 -1 0 0 0 0 1 0"
         id="feColorMatrix333-3-1" />
      <feTurbulence
         id="feTurbulence335-1-5"
         type="fractalNoise"
         numOctaves="5"
         seed="1"
         baseFrequency="0.013 0.013"
         result="turbulence" />
      <feDisplacementMap
         in2="turbulence"
         id="feDisplacementMap337-4-9"
         in="fbSourceGraphic"
         scale="6.6"
         yChannelSelector="G"
         xChannelSelector="R"
         result="fbSourceGraphic" />
      <feColorMatrix
         result="fbSourceGraphicAlpha"
         in="fbSourceGraphic"
         values="0 0 0 -1 0 0 0 0 -1 0 0 0 0 -1 0 0 0 0 1 0"
         id="feColorMatrix435-92-4" />
      <feTurbulence
         id="feTurbulence437-06-9"
         type="fractalNoise"
         numOctaves="5"
         seed="27"
         baseFrequency="0.001 0.4414"
         result="turbulence" />
      <feDisplacementMap
         in2="turbulence"
         id="feDisplacementMap439-8-0"
         in="fbSourceGraphic"
         scale="4.27461"
         yChannelSelector="G"
         xChannelSelector="R" />
    </filter>
    <filter
       style="color-interpolation-filters:sRGB"
       id="filter4375-4-1-1-1-9-30"
       inkscape:label="Roughen">
      <feFlood
         id="feFlood4377-7-9-0-8-1-78"
         flood-opacity="1"
         flood-color="rgb(0,0,0)"
         result="flood" />
      <feComposite
         id="feComposite4379-3-8-8-2-77-68"
         in2="SourceGraphic"
         in="flood"
         operator="in"
         result="composite1" />
      <feMorphology
         id="feMorphology4393-1-0-49-8-9-8"
         operator="dilate"
         radius="4"
         result="result3" />
      <feComposite
         id="feComposite4385-9-5-7-0-8-4"
         in2="result3"
         in="SourceGraphic"
         operator="over"
         result="fbSourceGraphic" />
      <feColorMatrix
         result="fbSourceGraphicAlpha"
         in="fbSourceGraphic"
         values="0 0 0 -1 0 0 0 0 -1 0 0 0 0 -1 0 0 0 0 1 0"
         id="feColorMatrix333-3" />
      <feTurbulence
         id="feTurbulence335-1"
         type="fractalNoise"
         numOctaves="5"
         seed="1"
         baseFrequency="0.013 0.013"
         result="turbulence" />
      <feDisplacementMap
         in2="turbulence"
         id="feDisplacementMap337-4"
         in="fbSourceGraphic"
         scale="6.6"
         yChannelSelector="G"
         xChannelSelector="R"
         result="fbSourceGraphic" />
      <feColorMatrix
         result="fbSourceGraphicAlpha"
         in="fbSourceGraphic"
         values="0 0 0 -1 0 0 0 0 -1 0 0 0 0 -1 0 0 0 0 1 0"
         id="feColorMatrix435-92" />
      <feTurbulence
         id="feTurbulence437-06"
         type="fractalNoise"
         numOctaves="5"
         seed="27"
         baseFrequency="0.001 0.4414"
         result="turbulence" />
      <feDisplacementMap
         in2="turbulence"
         id="feDisplacementMap439-8"
         in="fbSourceGraphic"
         scale="4.27461"
         yChannelSelector="G"
         xChannelSelector="R" />
    </filter>
    <filter
       style="color-interpolation-filters:sRGB"
       id="filter4375-4-1-1-1-9-3"
       inkscape:label="Roughen">
      <feFlood
         id="feFlood4377-7-9-0-8-1-6"
         flood-opacity="1"
         flood-color="rgb(0,0,0)"
         result="flood" />
      <feComposite
         id="feComposite4379-3-8-8-2-77-75"
         in2="SourceGraphic"
         in="flood"
         operator="in"
         result="composite1" />
      <feMorphology
         id="feMorphology4393-1-0-49-8-9-35"
         operator="dilate"
         radius="4"
         result="result3" />
      <feComposite
         id="feComposite4385-9-5-7-0-8-6"
         in2="result3"
         in="SourceGraphic"
         operator="over"
         result="fbSourceGraphic" />
      <feColorMatrix
         result="fbSourceGraphicAlpha"
         in="fbSourceGraphic"
         values="0 0 0 -1 0 0 0 0 -1 0 0 0 0 -1 0 0 0 0 1 0"
         id="feColorMatrix333" />
      <feTurbulence
         id="feTurbulence335"
         type="fractalNoise"
         numOctaves="5"
         seed="1"
         baseFrequency="0.013 0.013"
         result="turbulence" />
      <feDisplacementMap
         in2="turbulence"
         id="feDisplacementMap337"
         in="fbSourceGraphic"
         scale="6.6"
         yChannelSelector="G"
         xChannelSelector="R"
         result="fbSourceGraphic" />
      <feColorMatrix
         result="fbSourceGraphicAlpha"
         in="fbSourceGraphic"
         values="0 0 0 -1 0 0 0 0 -1 0 0 0 0 -1 0 0 0 0 1 0"
         id="feColorMatrix435" />
      <feTurbulence
         id="feTurbulence437"
         type="fractalNoise"
         numOctaves="5"
         seed="27"
         baseFrequency="0.001 0.4414"
         result="turbulence" />
      <feDisplacementMap
         in2="turbulence"
         id="feDisplacementMap439"
         in="fbSourceGraphic"
         scale="4.27461"
         yChannelSelector="G"
         xChannelSelector="R" />
    </filter>
    <filter
       inkscape:collect="always"
       style="color-interpolation-filters:sRGB"
       id="filter4210-3"
       x="-0.0015578248"
       width="1.0031157"
       y="-0.0045528179"
       height="1.0091056">
      <feGaussianBlur
         inkscape:collect="always"
         stdDeviation="0.2079876"
         id="feGaussianBlur4212-9" />
    </filter>
    <clipPath
       clipPathUnits="userSpaceOnUse"
       id="clipPath120">
      <path
         style="opacity:1;vector-effect:none;fill:none;fill-opacity:1;fill-rule:nonzero;stroke:#000000;stroke-width:2;stroke-linecap:butt;stroke-linejoin:miter;stroke-miterlimit:4;stroke-dasharray:none;stroke-dashoffset:0;stroke-opacity:1;paint-order:fill markers stroke"
         d="m 1599.2475,1685.4 c -5.1923,6.9687 -5.1923,18.1732 -2.8694,21.1793 2.3229,3.0061 7.7885,6.5588 15.987,6.8321 l 0.4135,76.3253 -163.4808,15.0727 -1.5459,-108.2142 z"
         id="path122"
         inkscape:connector-curvature="0"
         sodipodi:nodetypes="csccccc" />
    </clipPath>
    <filter
       inkscape:collect="always"
       style="color-interpolation-filters:sRGB"
       id="filter4210"
       x="-0.0015578248"
       width="1.0031157"
       y="-0.0045528179"
       height="1.0091056">
      <feGaussianBlur
         inkscape:collect="always"
         stdDeviation="0.2079876"
         id="feGaussianBlur4212" />
    </filter>
    <filter
       style="color-interpolation-filters:sRGB"
       id="filter4375-4-1-1-1-9-30-2-7-6-3"
       inkscape:label="Roughen">
      <feFlood
         id="feFlood4377-7-9-0-8-1-78-6-7-3-6"
         flood-opacity="1"
         flood-color="rgb(0,0,0)"
         result="flood" />
      <feComposite
         id="feComposite4379-3-8-8-2-77-68-1-1-9-7"
         in2="SourceGraphic"
         in="flood"
         operator="in"
         result="composite1" />
      <feMorphology
         id="feMorphology4393-1-0-49-8-9-8-0-1-4-5"
         operator="dilate"
         radius="4"
         result="result3" />
      <feComposite
         id="feComposite4385-9-5-7-0-8-4-6-5-8-3"
         in2="result3"
         in="SourceGraphic"
         operator="over"
         result="fbSourceGraphic" />
      <feColorMatrix
         result="fbSourceGraphicAlpha"
         in="fbSourceGraphic"
         values="0 0 0 -1 0 0 0 0 -1 0 0 0 0 -1 0 0 0 0 1 0"
         id="feColorMatrix333-3-1-9-1-5" />
      <feTurbulence
         id="feTurbulence335-1-5-7-2-6"
         type="fractalNoise"
         numOctaves="5"
         seed="1"
         baseFrequency="0.013 0.013"
         result="turbulence" />
      <feDisplacementMap
         in2="turbulence"
         id="feDisplacementMap337-4-9-7-9-2"
         in="fbSourceGraphic"
         scale="6.6"
         yChannelSelector="G"
         xChannelSelector="R"
         result="fbSourceGraphic" />
      <feColorMatrix
         result="fbSourceGraphicAlpha"
         in="fbSourceGraphic"
         values="0 0 0 -1 0 0 0 0 -1 0 0 0 0 -1 0 0 0 0 1 0"
         id="feColorMatrix435-92-4-6-3-9" />
      <feTurbulence
         id="feTurbulence437-06-9-7-9-1"
         type="fractalNoise"
         numOctaves="5"
         seed="27"
         baseFrequency="0.001 0.4414"
         result="turbulence" />
      <feDisplacementMap
         in2="turbulence"
         id="feDisplacementMap439-8-0-3-0-2"
         in="fbSourceGraphic"
         scale="4.27461"
         yChannelSelector="G"
         xChannelSelector="R" />
    </filter>
    <filter
       style="color-interpolation-filters:sRGB"
       id="filter4375-4-1-1-1-9-3-9"
       inkscape:label="Roughen">
      <feFlood
         id="feFlood4377-7-9-0-8-1-6-3"
         flood-opacity="1"
         flood-color="rgb(0,0,0)"
         result="flood" />
      <feComposite
         id="feComposite4379-3-8-8-2-77-75-6"
         in2="SourceGraphic"
         in="flood"
         operator="in"
         result="composite1" />
      <feMorphology
         id="feMorphology4393-1-0-49-8-9-35-0"
         operator="dilate"
         radius="4"
         result="result3" />
      <feComposite
         id="feComposite4385-9-5-7-0-8-6-6"
         in2="result3"
         in="SourceGraphic"
         operator="over"
         result="fbSourceGraphic" />
      <feColorMatrix
         result="fbSourceGraphicAlpha"
         in="fbSourceGraphic"
         values="0 0 0 -1 0 0 0 0 -1 0 0 0 0 -1 0 0 0 0 1 0"
         id="feColorMatrix333-2" />
      <feTurbulence
         id="feTurbulence335-6"
         type="fractalNoise"
         numOctaves="5"
         seed="1"
         baseFrequency="0.013 0.013"
         result="turbulence" />
      <feDisplacementMap
         in2="turbulence"
         id="feDisplacementMap337-1"
         in="fbSourceGraphic"
         scale="6.6"
         yChannelSelector="G"
         xChannelSelector="R"
         result="fbSourceGraphic" />
      <feColorMatrix
         result="fbSourceGraphicAlpha"
         in="fbSourceGraphic"
         values="0 0 0 -1 0 0 0 0 -1 0 0 0 0 -1 0 0 0 0 1 0"
         id="feColorMatrix435-8" />
      <feTurbulence
         id="feTurbulence437-7"
         type="fractalNoise"
         numOctaves="5"
         seed="27"
         baseFrequency="0.001 0.4414"
         result="turbulence" />
      <feDisplacementMap
         in2="turbulence"
         id="feDisplacementMap439-9"
         in="fbSourceGraphic"
         scale="4.27461"
         yChannelSelector="G"
         xChannelSelector="R" />
    </filter>
  </defs>
  <sodipodi:namedview
     pagecolor="#ffffff"
     bordercolor="#666666"
     borderopacity="1"
     objecttolerance="10"
     gridtolerance="10"
     guidetolerance="10"
     inkscape:pageopacity="0"
     inkscape:pageshadow="2"
     inkscape:window-width="1366"
     inkscape:window-height="713"
     id="namedview4"
     showgrid="false"
     inkscape:zoom="0.45225171"
     inkscape:cx="1253.4883"
     inkscape:cy="399.74969"
     inkscape:window-x="0"
     inkscape:window-y="27"
     inkscape:window-maximized="1"
     inkscape:current-layer="layer1"
     inkscape:snap-global="false" />
  <g
     inkscape:groupmode="layer"
     id="layer2"
     inkscape:label="artwork"
     sodipodi:insensitive="true">
    <image
       sodipodi:absref="/home/juanjo/Comics/Pepper and Carrot/webcomics-master_181103/ep27_Coriander-s-Invention/lang/es/../gfx_Pepper-and-Carrot_by-David-Revoy_E27P06.png"
       xlink:href="../gfx_Pepper-and-Carrot_by-David-Revoy_E27P06.png"
       width="2481"
       height="3503"
       id="image10"
       x="0"
       y="0" />
  </g>
  <g
     inkscape:groupmode="layer"
     id="layer3"
     inkscape:label="speechbubbles">
    <path
       style="fill:#ffffff;fill-rule:evenodd;stroke:none;stroke-width:1.05190408px;stroke-linecap:butt;stroke-linejoin:miter;stroke-opacity:1"
       d="m 106.82653,228.98155 c 0,-50.95751 15.28827,-73.97057 35.6726,-85.47711 20.38435,-11.50653 91.72957,-19.72548 125.70348,-14.79411 33.9739,4.93137 66.24912,-3.28758 79.83867,-3.28758 13.58958,0 86.63348,1.64379 115.5113,8.21895 28.87781,6.57516 52.65958,-3.28758 67.94785,3.28758 15.28824,6.57516 57.75564,55.88888 57.75564,78.90195 0,23.01306 -18.68564,90.40847 -40.76869,100.27122 -22.08305,9.86274 -96.82565,24.65686 -134.19697,24.65686 -37.37128,0 -96.82562,0 -152.88258,-6.57517 -56.05695,-6.57516 -105.31913,-13.15032 -127.40217,-39.45097 -22.08305,-26.30065 -25.48045,-32.87581 -27.17913,-65.75162 z"
       id="path1055"
       inkscape:connector-curvature="0" />
    <path
       style="fill:#ffffff;fill-rule:evenodd;stroke:none;stroke-width:1px;stroke-linecap:butt;stroke-linejoin:miter;stroke-opacity:1"
       d="m 331.00243,306.49609 c 0,0 -11.34439,15.12497 -17.23952,40.59312 -5.89513,25.46814 -7.35913,39.49755 -2.53393,61.15161 3.67951,16.51251 22.29674,57.72327 31.08248,67.32511 -23.57697,-24.17146 -47.44853,-51.19112 -54.87711,-89.33367 -3.46351,-17.78368 11.1671,-71.13643 15.72728,-83.70363 4.56019,-12.56722 27.8408,3.96746 27.8408,3.96746 z"
       id="path1057"
       inkscape:connector-curvature="0"
       sodipodi:nodetypes="csscssc" />
    <g
       transform="matrix(1.039476,0,0,0.88633082,839.29237,-4.1908013)"
       id="g975">
      <path
         inkscape:connector-curvature="0"
         id="path101"
         d="m 524.22751,191.63146 c -3.54348,-0.0348 -7.29462,0.1157 -11.15995,0.53804 0,0 -30.0934,62.27058 -34.39246,76.5103 11.46417,0 17.19658,2.58826 28.66075,3.88278 11.46419,1.29452 32.95953,-2.58907 41.55766,-3.23633 8.59813,-0.64726 15.76193,2.58904 44.42238,0 -2.86603,0.64726 -12.18043,-6.47148 -16.47949,-9.06051 -4.29907,-2.58904 -2.86564,-7.7685 -5.73169,-13.59384 -7.1651,4.53081 -12.18133,-3e-5 -15.76388,-3.23633 -3.58256,-3.2363 0,-6.73429 0,-6.73429 l 12.77953,-8.85507 c -3.1956,-18.67125 -9.78598,-23.87711 1.97813,-29.67315 l 19.34646,-0.64645 10.74778,-5.82622 -16.48174,0.64645 c -12.78626,1.01278 -21.80405,1.84038 -32.66837,1.29495 0,0 -11.46004,-1.8597 -26.81511,-2.01033 z m 14.40511,17.99219 c 0,0 11.92148,1.46891 13.54683,3.42659 1.62535,1.95768 4.33226,0.4895 6.4994,1.95776 2.16714,1.46826 4.87786,9.7878 2.71073,10.76663 -2.16714,0.97885 -5.41927,3.42554 -7.58642,2.44669 -2.16713,-0.97883 -4.87568,-5.87327 -4.87568,-5.87327 -0.54179,-4.40479 0,-6.85113 0,-6.85113 z"
         style="fill:url(#linearGradient966);fill-opacity:1;fill-rule:evenodd;stroke:none;stroke-width:0.99999994px;stroke-linecap:butt;stroke-linejoin:miter;stroke-opacity:1"
         sodipodi:nodetypes="cccsscscccccccccccssccccc" />
      <path
         inkscape:connector-curvature="0"
         id="path958"
         d="m 479.1379,267.64029 c 0,0 8.1984,-5.23752 15.06909,-6.63932 6.87069,-1.40181 24.66762,-6.18478 30.68906,-7.94356 6.02146,-1.75878 6.02146,-1.75878 6.02146,-1.75878 l -4.64731,-30.01543 -8.70287,-22.89613 -30.68908,2.80361 -5.49655,49.06313 z"
         style="fill:#6c6753;fill-rule:evenodd;stroke:#6c6753;stroke-width:1px;stroke-linecap:butt;stroke-linejoin:miter;stroke-opacity:1" />
      <path
         inkscape:connector-curvature="0"
         id="path99"
         d="m 541.89921,152.34375 c -0.14714,0.0194 -0.29648,0.0584 -0.44937,0.11719 -4.89222,1.87969 -40.11706,-0.93945 -46.96617,3.75976 -6.84911,4.69921 -102.98621,-0.94062 -119.61976,-2.82031 -16.63354,-1.87968 -98.82297,7.8e-4 -112.52117,2.82031 -13.69822,2.81953 -48.9227,6.57969 -91.97424,2.82032 l 2.93411,9.39843 0.98007,7.51758 -3.91418,7.51953 h 2.93411 l 15.65675,5.63867 v 8.45899 l -6.85034,6.57812 -10.76248,1.88086 c 0,16.44857 -8.57201,31.59947 -15.89192,50.34227 18.59043,-1.87969 21.76302,-3.75937 44.26723,-4.69922 22.50421,-0.93984 93.93032,10.33789 108.60698,10.33789 14.67666,0 46.9658,-2.81915 67.51312,-5.63867 20.54732,-2.81953 105.92276,1.14917 116.68564,0.20932 10.76288,-0.93985 24.46114,-7.51873 39.1378,-4.69921 l 10.76249,-41.15316 c 0,-4.69921 4.89223,-6.58008 4.89223,-6.58008 l -4.89223,-9.39843 c 0,0 3.91378,-12.21799 4.89223,-18.79688 0.94786,-6.37331 -0.85928,-24.21344 -5.4209,-23.61328 z m -352.27346,74.98942 c 1.88302,0.02 3.3984,0.6712 3.61122,2.30664 0.48646,3.73815 2.43327,8.87803 -0.97194,11.68164 -3.40522,2.80361 -12.16143,-0.46687 -12.16143,-2.33594 0,-1.86907 2.43188,-9.3457 2.43188,-9.3457 1.64181,-1.31419 4.66925,-2.33231 7.09027,-2.30664 z"
         style="fill:url(#radialGradient932);fill-opacity:1;fill-rule:evenodd;stroke:none;stroke-width:0.99999994px;stroke-linecap:butt;stroke-linejoin:miter;stroke-opacity:1"
         sodipodi:nodetypes="ccsssccccccccccsssscccccccccscc" />
      <path
         inkscape:connector-curvature="0"
         id="path111"
         d="m 515.27248,172.97336 c 7.29689,-4.20541 14.59379,-4.20541 16.05316,0.93454 1.45939,5.13994 4.8646,8.87808 0.48646,10.74716 -4.37813,1.86907 -10.7021,9.81262 -13.62086,4.20541 -2.91876,-5.60722 -9.72919,-8.41082 -8.75627,-9.81263 0.97291,-1.4018 5.83751,-6.07448 5.83751,-6.07448 z"
         style="opacity:0.53299997;vector-effect:none;fill:#cbc29a;fill-opacity:1;fill-rule:evenodd;stroke:none;stroke-width:0.99999994px;stroke-linecap:butt;stroke-linejoin:miter;stroke-miterlimit:4;stroke-dasharray:none;stroke-dashoffset:0;stroke-opacity:1" />
      <path
         inkscape:connector-curvature="0"
         id="path113"
         d="m 508.02036,204.75351 c 4.8646,-2.80361 8.75627,0 8.75627,3.27087 0,3.27088 2.4323,6.54175 -2.91875,6.54175 -5.35106,0 -9.72919,0.46727 -9.72919,-3.27087 0,-3.73814 3.89167,-6.54175 3.89167,-6.54175 z"
         style="opacity:0.53299997;vector-effect:none;fill:#cbc29a;fill-opacity:1;fill-rule:evenodd;stroke:none;stroke-width:0.99999994px;stroke-linecap:butt;stroke-linejoin:miter;stroke-miterlimit:4;stroke-dasharray:none;stroke-dashoffset:0;stroke-opacity:1" />
      <path
         inkscape:connector-curvature="0"
         id="path115"
         d="m 487.65472,226.68348 c 3.40522,-6.07449 6.81043,-4.67268 6.81043,-4.67268 l 4.37813,4.67268 -5.35104,5.60721 z"
         style="opacity:0.53299997;vector-effect:none;fill:#cbc29a;fill-opacity:1;fill-rule:evenodd;stroke:none;stroke-width:0.99999994px;stroke-linecap:butt;stroke-linejoin:miter;stroke-miterlimit:4;stroke-dasharray:none;stroke-dashoffset:0;stroke-opacity:1" />
    </g>
    <path
       style="fill:#ffffff;fill-rule:evenodd;stroke:none;stroke-width:0.97442096px;stroke-linecap:butt;stroke-linejoin:miter;stroke-opacity:1"
       d="m 192.38578,1176.6098 c 24.85883,-23.6034 149.15301,-32.8395 174.01185,-32.8395 24.85883,0 146.99138,3.0787 159.9612,47.2067 12.96983,44.128 6.48492,60.5478 -25.93965,79.02 -32.42457,18.4722 -95.11207,41.0493 -136.18319,40.0231 -41.07112,-1.0262 -137.26401,-16.4197 -161.04203,-34.8919 -23.77801,-18.4723 -36.74784,-56.4429 -10.80818,-98.5184 z"
       id="path1095"
       inkscape:connector-curvature="0" />
    <path
       style="fill:#ffffff;fill-rule:evenodd;stroke:none;stroke-width:1px;stroke-linecap:butt;stroke-linejoin:miter;stroke-opacity:1"
       d="m 482.13924,1201.3255 c 0,0 -8.62566,-5.3172 28.0282,-19.4148 36.65386,-14.0977 107.9013,-25.0538 135.15673,-23.1741 27.25544,1.8796 110.30926,1.2359 170.45918,31.3108 60.14993,30.075 115.60064,56.3906 153.19434,105.2624 -49.81165,-46.0523 -134.66245,-85.1159 -164.66532,-93.6365 -53.48105,-15.1883 -115.40776,-21.0243 -146.42257,-21.0243 -31.0148,0 -99.62331,14.0976 -140.03654,27.2554 -40.41323,13.1578 -69.54835,14.0977 -69.54835,14.0977 z"
       id="path1097"
       inkscape:connector-curvature="0"
       sodipodi:nodetypes="cccccssscc" />
    <path
       style="fill:#ffffff;fill-rule:evenodd;stroke:none;stroke-width:0.88524592px;stroke-linecap:butt;stroke-linejoin:miter;stroke-opacity:1"
       d="m 2258.0739,1500.5897 c 18.7969,5.1237 45.7663,13.4495 49.0353,22.4158 3.269,8.9663 20.4314,25.618 14.7106,40.3484 -5.7208,14.7303 -22.0659,29.4607 -37.5937,37.7865 -15.5279,8.3259 -44.949,14.7303 -63.7459,16.0112 -18.7968,1.281 -67.0148,-7.6853 -80.9081,-5.1236 -13.8934,2.5618 -64.5631,3.8427 -89.898,-2.5617 -25.3349,-6.4046 -53.9388,-30.1012 -58.0251,-44.8315 -4.0863,-14.7304 13.8933,-44.1911 17.1623,-51.8765 3.2691,-7.6854 17.1624,-10.2472 17.1624,-10.2472 38.7893,-4.3962 174.943,-8.5318 232.1002,-1.9214 z"
       id="path1099"
       inkscape:connector-curvature="0"
       sodipodi:nodetypes="ccccccccccc" />
    <path
       style="fill:#ffffff;fill-rule:evenodd;stroke:none;stroke-width:1.16228735px;stroke-linecap:butt;stroke-linejoin:miter;stroke-opacity:1"
       d="m 2017.6077,1513.8738 c -28.8009,-11.3705 -54.722,-16.3451 -65.2823,-24.1623 -10.5603,-7.8172 -17.2805,-25.5836 -16.3205,-31.2688 0.9599,-5.6853 11.5203,-30.5583 24.0008,-33.4009 12.4804,-2.8426 53.7619,-17.7664 72.9626,-22.0303 19.2008,-4.2639 98.8834,-4.2639 118.0841,-1.4213 19.2007,2.8426 33.6012,7.1065 38.4015,7.1065 4.8,0 21.1206,-1.4213 32.6411,0 11.5202,1.4213 30.721,5.6853 39.3614,6.3959 8.6402,0.7107 17.2805,-3.5532 30.721,0.7107 13.4404,4.2639 31.6811,9.2385 41.2815,20.609 9.6003,11.3705 24.0008,14.9238 18.2405,35.5328 -5.7601,20.609 -16.4166,26.5074 -28.369,29.5988 -11.9523,3.0914 -59.954,11.6193 -77.2346,10.9086 -17.2806,-0.7106 -147.8452,-2.8426 -147.8452,-2.8426 l -57.602,3.5533 z"
       id="path1101"
       inkscape:connector-curvature="0" />
    <path
       style="fill:#ffffff;fill-rule:evenodd;stroke:none;stroke-width:1px;stroke-linecap:butt;stroke-linejoin:miter;stroke-opacity:1"
       d="m 1981.0245,1445.6508 c -21.3196,-32.6901 -31.2688,-43.35 -49.7459,-55.4311 -18.477,-12.0812 -45.482,-11.3705 -78.8828,-5.6853 54.7205,-1.4213 65.3804,11.3705 73.9082,17.7664 8.5279,6.3959 29.1369,31.2689 35.5328,50.4566 6.3959,19.1877 19.1877,-7.1066 19.1877,-7.1066 z"
       id="path1103"
       inkscape:connector-curvature="0" />
    <path
       style="fill:#ffffff;fill-rule:evenodd;stroke:none;stroke-width:1.20574927px;stroke-linecap:butt;stroke-linejoin:miter;stroke-opacity:1"
       d="m 539.59928,1888.9622 16.26324,8.7006 -32.52648,6.2147 9.03513,43.503 -3.61406,31.0735 1.80703,24.8589 -5.42107,7.4576 25.29838,1.2429 43.36865,-1.2429 106.61459,1.2429 23.49136,-7.4576 79.50918,3.7288 81.31623,-12.4294 68.66702,2.4859 -7.2281,-8.7006 16.26325,-11.1865 -12.6492,-52.2035 7.22812,-19.8871 -7.22812,-4.9718 9.03513,-7.4576 -135.52703,-4.9718 h -32.52647 l -9.03514,-3.7288 -27.10541,2.4859 -54.21082,3.7288 -28.91243,-3.7288 -32.52648,8.7006 -28.91244,1.2429 z"
       id="path1105"
       inkscape:connector-curvature="0" />
    <path
       style="fill:#ffffff;fill-rule:evenodd;stroke:none;stroke-width:1.48033345px;stroke-linecap:butt;stroke-linejoin:miter;stroke-opacity:1"
       d="m 580.05275,2030.7094 128.01704,-11.1864 78.98925,1.2429 133.46455,-6.2147 174.32111,1.2429 29.9614,1.243 -5.4475,33.5594 -57.1991,2.4859 62.6466,9.9435 -10.895,29.8306 -19.0664,3.7289 27.2376,4.9717 -19.0663,4.9718 H 947.76127 l -95.33184,-2.4859 -57.19912,1.243 -108.95065,6.2147 -43.58028,1.2429 -62.64663,-7.4576 10.89508,-31.0736 38.13271,-8.7006 -46.30404,-4.9718 z"
       id="path1107"
       inkscape:connector-curvature="0" />
    <path
       style="fill:#ffffff;fill-rule:evenodd;stroke:none;stroke-width:1.19471741px;stroke-linecap:butt;stroke-linejoin:miter;stroke-opacity:1"
       d="m 667.22908,2119.9676 82.14509,4.5468 2.93376,-6.8202 19.0694,3.4101 h 107.082 l 57.20818,-10.2302 26.40378,-4.5468 14.66872,10.2303 66.00959,-12.5036 10.268,-3.4102 73.3438,2.2734 -2.9337,7.9569 45.4733,5.6835 -1.4669,12.5036 -2.9339,13.6402 -24.9369,3.4102 -2.9336,5.6834 32.2713,4.5467 -2.9337,15.9137 -2.934,6.8202 -22.0031,3.4101 22.0031,6.8201 2.934,12.5036 -1.4671,40.9209 v 39.7842 l 5.8676,19.3238 v 10.2302 l -14.6688,-2.2734 7.3343,12.5036 -68.9431,-1.1367 -63.0757,4.5468 h -27.8707 l -54.2744,-1.1367 -36.6719,6.8201 -54.27444,-5.6834 -45.47318,1.1367 -49.87382,2.2734 -83.61197,-1.1367 -14.66877,2.2733 v -13.6402 l 7.33439,-2.2734 -7.33439,-5.6834 -4.40062,-37.511 22.00315,-7.9568 -2.93376,-9.0934 -14.66877,-1.1368 -7.33437,-31.8273 2.93375,-7.9569 20.53627,-4.5467 v -4.5468 l -26.40378,-7.9568 2.93376,-9.0936 8.80125,-37.5108 z"
       id="path1109"
       inkscape:connector-curvature="0" />
    <path
       style="fill:#ffffff;fill-rule:evenodd;stroke:none;stroke-width:1px;stroke-linecap:butt;stroke-linejoin:miter;stroke-opacity:1"
       d="m 1192.053,2451.3632 -38.9095,-116.7285 -20.5355,-3.2425 -1.0808,35.6671 -159.9612,-194.5474 -27.02047,37.8286 -86.46552,-154.5571 -20.53556,19.4548 -32.42457,-110.2436 -50.79849,-8.6465 77.81896,143.7489 16.33097,-14.4505 85.04421,161.7527 40.21211,-44.6244 154.55706,190.2241 12.9698,3.2425 3.2425,-25.9397 z"
       id="path1111"
       inkscape:connector-curvature="0"
       sodipodi:nodetypes="cccccccccccccccccc" />
  </g>
  <g
     inkscape:groupmode="layer"
     id="layer1"
     inkscape:label="txt">
    <text
       xml:space="preserve"
       style="font-style:normal;font-variant:normal;font-weight:normal;font-stretch:normal;line-height:0%;font-family:Lavi;-inkscape-font-specification:Lavi;text-align:center;letter-spacing:0px;word-spacing:0px;text-anchor:middle;fill:#000000;fill-opacity:1;stroke:none"
       x="349.02747"
       y="181.83766"
       id="text4246"><tspan
         sodipodi:role="line"
         style="font-size:45px;line-height:1.20000005"
         x="349.02747"
         y="181.83766"
         id="tspan762">Tengo una idea de</tspan><tspan
         sodipodi:role="line"
         style="font-size:45px;line-height:1.20000005"
         x="349.02747"
         y="235.83766"
         id="tspan173">como podríamos</tspan><tspan
         sodipodi:role="line"
         style="font-size:45px;line-height:1.20000005"
         x="349.02747"
         y="289.83768"
         id="tspan985">aprovechar ese fallo.</tspan></text>
    <text
       xml:space="preserve"
       style="font-style:normal;font-variant:normal;font-weight:normal;font-stretch:normal;line-height:0%;font-family:Lavi;-inkscape-font-specification:Lavi;letter-spacing:0px;word-spacing:0px;fill:#000000;fill-opacity:1;stroke:#000000;stroke-width:0.99236238;stroke-miterlimit:4;stroke-dasharray:none;stroke-opacity:1;filter:url(#filter4375-4-1-1-1-9)"
       x="787.65729"
       y="1584.5073"
       id="text4580"
       transform="matrix(0.77821249,-0.28959874,-0.30299683,1.0489343,541.49337,-699.9517)"><tspan
         sodipodi:role="line"
         id="tspan4582"
         x="787.65729"
         y="1584.5073"
         style="font-size:70px;line-height:1.25;fill:#ffffff"><tspan
           style="font-size:80.40014648px"
           id="tspan4617">¡Ting!</tspan></tspan></text>
    <text
       xml:space="preserve"
       style="font-style:normal;font-variant:normal;font-weight:normal;font-stretch:normal;line-height:1.20000005;font-family:Lavi;-inkscape-font-specification:Lavi;text-align:center;letter-spacing:0px;word-spacing:0px;text-anchor:middle;fill:#000000;fill-opacity:1;stroke:none"
       x="1215.2571"
       y="192.86003"
       id="text4246-3"><tspan
         sodipodi:role="line"
         style="font-style:italic;font-variant:normal;font-weight:normal;font-stretch:normal;font-size:45px;line-height:1.20000005;font-family:Fondamento;-inkscape-font-specification:'Fondamento Italic'"
         x="1215.2571"
         y="192.86003"
         id="tspan18">Por la noche...</tspan></text>
    <text
       xml:space="preserve"
       style="font-style:normal;font-variant:normal;font-weight:normal;font-stretch:normal;line-height:0%;font-family:Lavi;-inkscape-font-specification:Lavi;text-align:center;letter-spacing:0px;word-spacing:0px;text-anchor:middle;fill:#000000;fill-opacity:1;stroke:none"
       x="352.16574"
       y="1215.2815"
       id="text4246-2"><tspan
         sodipodi:role="line"
         style="font-size:45px;line-height:1.20000005"
         x="352.16574"
         y="1215.2815"
         id="tspan939">¡Pepper, qué</tspan><tspan
         sodipodi:role="line"
         style="font-size:45px;line-height:1.20000005"
         x="352.16574"
         y="1269.2815"
         id="tspan989">idea genial!</tspan></text>
    <text
       xml:space="preserve"
       style="font-style:normal;font-variant:normal;font-weight:normal;font-stretch:normal;line-height:0%;font-family:Lavi;-inkscape-font-specification:Lavi;text-align:center;letter-spacing:0px;word-spacing:0px;text-anchor:middle;fill:#000000;fill-opacity:1;stroke:none"
       x="2149.0879"
       y="1472.6672"
       id="text4246-2-0"><tspan
         sodipodi:role="line"
         style="font-size:45px;line-height:1.20000005"
         x="2149.0879"
         y="1472.6672"
         id="tspan939-3">No, la idea es tuya.</tspan></text>
    <text
       xml:space="preserve"
       style="font-style:normal;font-variant:normal;font-weight:normal;font-stretch:normal;line-height:0%;font-family:Lavi;-inkscape-font-specification:Lavi;text-align:center;letter-spacing:0px;word-spacing:0px;text-anchor:middle;fill:#000000;fill-opacity:1;stroke:none"
       x="2158.4167"
       y="1568.3052"
       id="text4246-2-0-6"><tspan
         sodipodi:role="line"
         style="font-size:45px;line-height:1.20000005"
         x="2158.4167"
         y="1568.3052"
         id="tspan982">¡Es <tspan
   style="font-style:normal;font-variant:normal;font-weight:bold;font-stretch:normal;font-family:Lavi;-inkscape-font-specification:'Lavi Bold'"
   id="tspan991">tu </tspan>invento!</tspan></text>
    <text
       xml:space="preserve"
       style="font-style:normal;font-variant:normal;font-weight:normal;font-stretch:normal;line-height:0%;font-family:Lavi;-inkscape-font-specification:Lavi;text-align:center;letter-spacing:0px;word-spacing:0px;text-anchor:middle;fill:#000000;fill-opacity:1;stroke:none"
       x="748.60962"
       y="1944.8193"
       id="text4246-3-3-2"><tspan
         sodipodi:role="line"
         style="font-style:normal;font-variant:normal;font-weight:normal;font-stretch:normal;font-size:32px;line-height:1.39999998;font-family:'Press Start 2P';-inkscape-font-specification:'Press Start 2P'"
         x="764.60962"
         y="1944.8193"
         id="tspan995">El siguiente, </tspan><tspan
         sodipodi:role="line"
         style="font-style:normal;font-variant:normal;font-weight:normal;font-stretch:normal;font-size:32px;line-height:1.39999998;font-family:'Press Start 2P';-inkscape-font-specification:'Press Start 2P'"
         x="748.60962"
         y="1989.6194"
         id="tspan1017">por favor.</tspan></text>
    <text
       xml:space="preserve"
       style="font-style:normal;font-variant:normal;font-weight:normal;font-stretch:normal;line-height:0%;font-family:Lavi;-inkscape-font-specification:Lavi;text-align:center;letter-spacing:0px;word-spacing:0px;text-anchor:middle;fill:#000000;fill-opacity:1;stroke:none"
       x="862.06146"
       y="2079.8193"
       id="text4246-3-3-2-6"><tspan
         sodipodi:role="line"
         style="font-style:normal;font-variant:normal;font-weight:normal;font-stretch:normal;font-size:32px;line-height:1.39999998;font-family:'Press Start 2P';-inkscape-font-specification:'Press Start 2P'"
         x="862.06146"
         y="2079.8193"
         id="tspan998-6">Buenas noches,</tspan></text>
    <text
       xml:space="preserve"
       style="font-style:normal;font-variant:normal;font-weight:normal;font-stretch:normal;line-height:0%;font-family:Lavi;-inkscape-font-specification:Lavi;text-align:center;letter-spacing:0px;word-spacing:0px;text-anchor:middle;fill:#000000;fill-opacity:1;stroke:none"
       x="916.5"
       y="2193.5"
       id="text4246-3-3-2-6-1"><tspan
         sodipodi:role="line"
         style="font-style:normal;font-variant:normal;font-weight:normal;font-stretch:normal;font-size:32px;line-height:1.39999998;font-family:'Press Start 2P';-inkscape-font-specification:'Press Start 2P'"
         x="916.5"
         y="2193.5"
         id="tspan128">¿Planea usted</tspan><tspan
         sodipodi:role="line"
         style="font-style:normal;font-variant:normal;font-weight:normal;font-stretch:normal;font-size:32px;line-height:1.39999998;font-family:'Press Start 2P';-inkscape-font-specification:'Press Start 2P'"
         x="916.5"
         y="2238.3"
         id="tspan1011">un asesinato</tspan><tspan
         sodipodi:role="line"
         style="font-style:normal;font-variant:normal;font-weight:normal;font-stretch:normal;font-size:32px;line-height:1.39999998;font-family:'Press Start 2P';-inkscape-font-specification:'Press Start 2P'"
         x="916.5"
         y="2283.1001"
         id="tspan1013">esta noche?</tspan></text>
    <text
       xml:space="preserve"
       style="font-style:normal;font-variant:normal;font-weight:normal;font-stretch:normal;font-size:43.85733414px;line-height:0%;font-family:Lavi;-inkscape-font-specification:'Lavi, Normal';font-variant-ligatures:normal;font-variant-caps:normal;font-variant-numeric:normal;font-feature-settings:normal;text-align:end;letter-spacing:0px;word-spacing:0px;writing-mode:lr-tb;text-anchor:end;display:inline;fill:#241c1c;fill-opacity:1;stroke:#000000;stroke-width:0.82200003;stroke-miterlimit:4;stroke-dasharray:none;stroke-opacity:1"
       x="2643.2395"
       y="3318.4402"
       id="text4213"
       transform="matrix(0.96049651,0,-0.32716292,1.0411282,0,0)"><tspan
         sodipodi:role="line"
         id="tspan3562"
         x="2643.2395"
         y="3318.4402"
         style="font-style:normal;font-variant:normal;font-weight:normal;font-stretch:normal;font-size:43.85733414px;line-height:1.25;font-family:Lavi;-inkscape-font-specification:'Lavi, Normal';font-variant-ligatures:normal;font-variant-caps:normal;font-variant-numeric:normal;font-feature-settings:normal;text-align:end;writing-mode:lr-tb;text-anchor:end;stroke-width:0.82200003">CONTINUARÁ...</tspan></text>
    <text
       xml:space="preserve"
       style="font-style:normal;font-variant:normal;font-weight:normal;font-stretch:normal;line-height:0%;font-family:Lavi;-inkscape-font-specification:Lavi;letter-spacing:0px;word-spacing:0px;fill:#000000;fill-opacity:1;stroke:#000000;stroke-width:0;stroke-linecap:square;stroke-miterlimit:4;stroke-dasharray:none;stroke-opacity:1;filter:url(#filter4375-4-1-1-1-9-3)"
       x="787.65729"
       y="1584.5073"
       id="text4580-2"
       transform="matrix(1.1613654,-0.69321719,0.44569052,1.6077045,-166.83333,-1422.875)"><tspan
         sodipodi:role="line"
         id="tspan4582-9"
         x="787.65729"
         y="1584.5073"
         style="font-style:normal;font-variant:normal;font-weight:normal;font-stretch:normal;font-size:70px;line-height:1.25;font-family:ComicSpice;-inkscape-font-specification:ComicSpice;fill:#ffffff;stroke-width:0;stroke-linecap:square;stroke-miterlimit:4;stroke-dasharray:none">B</tspan></text>
    <text
       xml:space="preserve"
       style="font-style:normal;font-variant:normal;font-weight:normal;font-stretch:normal;line-height:0%;font-family:Lavi;-inkscape-font-specification:Lavi;letter-spacing:0px;word-spacing:0px;fill:#000000;fill-opacity:1;stroke:#000000;stroke-width:0;stroke-linecap:square;stroke-miterlimit:4;stroke-dasharray:none;stroke-opacity:1;filter:url(#filter4375-4-1-1-1-9-30)"
       x="787.65729"
       y="1584.5073"
       id="text4580-9-1"
       transform="matrix(1.0231831,-0.61448535,0.39266108,1.4251102,81.385407,-1213.691)"><tspan
         sodipodi:role="line"
         id="tspan4582-26"
         x="787.65729"
         y="1584.5073"
         style="font-style:normal;font-variant:normal;font-weight:normal;font-stretch:normal;font-size:70px;line-height:1.25;font-family:ComicSpice;-inkscape-font-specification:ComicSpice;fill:#ffffff;stroke-width:0;stroke-linecap:square;stroke-miterlimit:4;stroke-dasharray:none">Z</tspan></text>
    <text
       xml:space="preserve"
       style="font-style:normal;font-variant:normal;font-weight:normal;font-stretch:normal;line-height:0%;font-family:Lavi;-inkscape-font-specification:Lavi;letter-spacing:0px;word-spacing:0px;fill:#000000;fill-opacity:1;stroke:#000000;stroke-width:0;stroke-linecap:square;stroke-miterlimit:4;stroke-dasharray:none;stroke-opacity:1;filter:url(#filter4375-4-1-1-1-9-30-2)"
       x="787.65729"
       y="1584.5073"
       id="text4580-9-9"
       transform="matrix(0.96706972,-0.54046136,0.32409822,1.325527,277.0066,-1122.6108)"><tspan
         sodipodi:role="line"
         id="tspan4582-26-1"
         x="787.65729"
         y="1584.5073"
         style="font-style:normal;font-variant:normal;font-weight:normal;font-stretch:normal;font-size:70px;line-height:1.25;font-family:ComicSpice;-inkscape-font-specification:ComicSpice;fill:#ffffff;stroke-width:0;stroke-linecap:square;stroke-miterlimit:4;stroke-dasharray:none">Z</tspan></text>
    <text
       xml:space="preserve"
       style="font-style:normal;font-variant:normal;font-weight:normal;font-stretch:normal;line-height:0%;font-family:Lavi;-inkscape-font-specification:Lavi;letter-spacing:0px;word-spacing:0px;fill:#000000;fill-opacity:1;stroke:#000000;stroke-width:0;stroke-linecap:square;stroke-miterlimit:4;stroke-dasharray:none;stroke-opacity:1;filter:url(#filter4375-4-1-1-1-9-30-2-7)"
       x="787.65729"
       y="1584.5073"
       id="text4580-9-9-6"
       transform="matrix(0.79978398,-0.46065546,0.26803503,1.1297963,542.53638,-887.29232)"><tspan
         sodipodi:role="line"
         id="tspan4582-26-1-5"
         x="787.65729"
         y="1584.5073"
         style="font-style:normal;font-variant:normal;font-weight:normal;font-stretch:normal;font-size:70px;line-height:1.25;font-family:ComicSpice;-inkscape-font-specification:ComicSpice;fill:#ffffff;stroke-width:0;stroke-linecap:square;stroke-miterlimit:4;stroke-dasharray:none">Z</tspan></text>
    <text
       xml:space="preserve"
       style="font-style:normal;font-variant:normal;font-weight:normal;font-stretch:normal;line-height:0%;font-family:Lavi;-inkscape-font-specification:Lavi;letter-spacing:0px;word-spacing:0px;fill:#000000;fill-opacity:1;stroke:#000000;stroke-width:0;stroke-linecap:square;stroke-miterlimit:4;stroke-dasharray:none;stroke-opacity:1;filter:url(#filter4375-4-1-1-1-9-30-2-7-6)"
       x="787.65729"
       y="1584.5073"
       id="text4580-9-9-6-8"
       transform="matrix(1.2353491,-0.45667938,0.06126805,1.7149541,543.73632,-1825.3338)"><tspan
         sodipodi:role="line"
         id="tspan4582-26-1-5-8"
         x="787.65729"
         y="1584.5073"
         style="font-style:normal;font-variant:normal;font-weight:normal;font-stretch:normal;font-size:70px;line-height:1.25;font-family:ComicSpice;-inkscape-font-specification:ComicSpice;fill:#ffffff;stroke-width:0;stroke-linecap:square;stroke-miterlimit:4;stroke-dasharray:none"> !</tspan></text>
    <g
       transform="translate(424.67874,-1323.6939)"
       id="g113"
       clip-path="url(#clipPath120)">
      <text
         clip-path="none"
         transform="matrix(0.34078016,-0.05523595,-0.03677833,0.84250244,1175.879,890.65924)"
         id="text4246-5-9"
         y="1085.962"
         x="1174.0292"
         style="font-style:normal;font-variant:normal;font-weight:normal;font-stretch:normal;line-height:0%;font-family:Lavi;-inkscape-font-specification:Lavi;text-align:center;letter-spacing:0px;word-spacing:0px;text-anchor:middle;display:inline;opacity:0.6;fill:#c9bbb2;fill-opacity:1;stroke:#c9bbb2;stroke-width:2.68153024;stroke-miterlimit:4;stroke-dasharray:none;stroke-opacity:1;filter:url(#filter4210)"
         xml:space="preserve"><tspan
           id="tspan754-9"
           y="1085.962"
           x="1174.0292"
           style="font-style:normal;font-variant:normal;font-weight:normal;font-stretch:normal;font-size:45.00812149px;line-height:1;font-family:Fondamento;-inkscape-font-specification:Fondamento;fill:#c9bbb2;fill-opacity:1;stroke:#c9bbb2;stroke-width:2.68153024;stroke-miterlimit:4;stroke-dasharray:none;stroke-opacity:1"
           sodipodi:role="line">CORONACIÓN</tspan><tspan
           id="tspan916"
           y="1130.9702"
           x="1174.0292"
           style="font-style:normal;font-variant:normal;font-weight:normal;font-stretch:normal;font-size:45.00812149px;line-height:1;font-family:Fondamento;-inkscape-font-specification:Fondamento;fill:#c9bbb2;fill-opacity:1;stroke:#c9bbb2;stroke-width:2.68153024;stroke-miterlimit:4;stroke-dasharray:none;stroke-opacity:1"
           sodipodi:role="line">DE SU MAJESTAD</tspan></text>
    </g>
    <text
       xml:space="preserve"
       style="font-style:normal;font-variant:normal;font-weight:normal;font-stretch:normal;line-height:0%;font-family:Lavi;-inkscape-font-specification:Lavi;text-align:center;letter-spacing:0px;word-spacing:0px;text-anchor:middle;display:inline;opacity:0.6;fill:#fff6d5;fill-opacity:1;stroke:#fff6d5;stroke-width:2.70249391;stroke-miterlimit:4;stroke-dasharray:none;filter:url(#filter4210-3)"
       x="1174.0292"
       y="1085.962"
       id="text4246-5-9-4"
       transform="matrix(0.51631892,-0.04402708,-0.03573291,0.7462275,1390.2142,-51.118275)"><tspan
         sodipodi:role="line"
         style="font-style:normal;font-variant:normal;font-weight:normal;font-stretch:normal;font-size:45.00812149px;line-height:1;font-family:Fondamento;-inkscape-font-specification:Fondamento;fill:#fff6d5;stroke:#fff6d5;stroke-width:2.70249391;stroke-miterlimit:4;stroke-dasharray:none;stroke-opacity:1"
         x="1174.0292"
         y="1085.962"
         id="tspan121-1">REINA</tspan><tspan
         sodipodi:role="line"
         style="font-style:normal;font-variant:normal;font-weight:normal;font-stretch:normal;font-size:45.00812149px;line-height:1;font-family:Fondamento;-inkscape-font-specification:Fondamento;fill:#fff6d5;stroke:#fff6d5;stroke-width:2.70249391;stroke-miterlimit:4;stroke-dasharray:none;stroke-opacity:1"
         x="1174.0292"
         y="1130.9702"
         id="tspan920">CELANDRIA</tspan></text>
    <text
       xml:space="preserve"
       style="font-style:normal;font-variant:normal;font-weight:normal;font-stretch:normal;line-height:0%;font-family:Lavi;-inkscape-font-specification:Lavi;letter-spacing:0px;word-spacing:0px;fill:#000000;fill-opacity:1;stroke:#000000;stroke-width:0;stroke-linecap:square;stroke-miterlimit:4;stroke-dasharray:none;stroke-opacity:1;filter:url(#filter4375-4-1-1-1-9-3-9)"
       x="787.65729"
       y="1584.5073"
       id="text4580-2-2"
       transform="matrix(1.1613654,-0.69321719,0.44569052,1.6077045,-207.64125,-1441.0641)"><tspan
         sodipodi:role="line"
         id="tspan4582-9-0"
         x="787.65729"
         y="1584.5073"
         style="font-style:normal;font-variant:normal;font-weight:normal;font-stretch:normal;font-size:70px;line-height:1.25;font-family:ComicSpice;-inkscape-font-specification:ComicSpice;fill:#ffffff;stroke-width:0;stroke-linecap:square;stroke-miterlimit:4;stroke-dasharray:none">¡</tspan></text>
  </g>
</svg>
