<?xml version="1.0" encoding="UTF-8" standalone="no"?>
<!-- Created with Inkscape (http://www.inkscape.org/) -->

<svg
   xmlns:dc="http://purl.org/dc/elements/1.1/"
   xmlns:cc="http://creativecommons.org/ns#"
   xmlns:rdf="http://www.w3.org/1999/02/22-rdf-syntax-ns#"
   xmlns:svg="http://www.w3.org/2000/svg"
   xmlns="http://www.w3.org/2000/svg"
   xmlns:xlink="http://www.w3.org/1999/xlink"
   xmlns:sodipodi="http://sodipodi.sourceforge.net/DTD/sodipodi-0.dtd"
   xmlns:inkscape="http://www.inkscape.org/namespaces/inkscape"
   id="svg2"
   version="1.1"
   inkscape:version="0.92.4 5da689c313, 2019-01-14"
   width="2481"
   height="3503"
   sodipodi:docname="E29P01.svg">
  <metadata
     id="metadata8">
    <rdf:RDF>
      <cc:Work
         rdf:about="">
        <dc:format>image/svg+xml</dc:format>
        <dc:type
           rdf:resource="http://purl.org/dc/dcmitype/StillImage" />
        <dc:title />
      </cc:Work>
    </rdf:RDF>
  </metadata>
  <defs
     id="defs6">
    <filter
       style="color-interpolation-filters:sRGB"
       id="filter3018"
       inkscape:label="Lapping"
       inkscape:menu="Distort"
       inkscape:menu-tooltip="Something like a water noise"
       height="1.3"
       y="-0.15000001"
       width="1.3"
       x="-0.15000001">
      <feTurbulence
         id="feTurbulence3020"
         numOctaves="5"
         seed="0"
         type="fractalNoise"
         baseFrequency="0.1"
         result="result1" />
      <feGaussianBlur
         id="feGaussianBlur3022"
         stdDeviation="2"
         result="result2" />
      <feDisplacementMap
         id="feDisplacementMap3024"
         in2="result2"
         scale="50"
         yChannelSelector="B"
         xChannelSelector="R"
         in="SourceGraphic" />
    </filter>
    <filter
       style="color-interpolation-filters:sRGB"
       id="filter3018-3"
       inkscape:label="Lapping"
       inkscape:menu="Distort"
       inkscape:menu-tooltip="Something like a water noise"
       height="1.3"
       y="-0.15000001"
       width="1.3"
       x="-0.15000001">
      <feTurbulence
         id="feTurbulence3020-6"
         numOctaves="5"
         seed="0"
         type="fractalNoise"
         baseFrequency="0.1"
         result="result1" />
      <feGaussianBlur
         id="feGaussianBlur3022-7"
         stdDeviation="2"
         result="result2" />
      <feDisplacementMap
         id="feDisplacementMap3024-5"
         in2="result2"
         scale="50"
         yChannelSelector="B"
         xChannelSelector="R"
         in="SourceGraphic" />
    </filter>
    <filter
       style="color-interpolation-filters:sRGB"
       id="filter3018-3-2"
       inkscape:label="Lapping"
       inkscape:menu="Distort"
       inkscape:menu-tooltip="Something like a water noise"
       height="1.3"
       y="-0.15000001"
       width="1.3"
       x="-0.15000001">
      <feTurbulence
         id="feTurbulence3020-6-9"
         numOctaves="5"
         seed="0"
         type="fractalNoise"
         baseFrequency="0.1"
         result="result1" />
      <feGaussianBlur
         id="feGaussianBlur3022-7-1"
         stdDeviation="2"
         result="result2" />
      <feDisplacementMap
         id="feDisplacementMap3024-5-2"
         in2="result2"
         scale="50"
         yChannelSelector="B"
         xChannelSelector="R"
         in="SourceGraphic" />
    </filter>
    <filter
       style="color-interpolation-filters:sRGB"
       id="filter3018-7"
       inkscape:label="Lapping"
       inkscape:menu="Distort"
       inkscape:menu-tooltip="Something like a water noise"
       height="1.3"
       y="-0.15000001"
       width="1.3"
       x="-0.15000001">
      <feTurbulence
         id="feTurbulence3020-0"
         numOctaves="5"
         seed="0"
         type="fractalNoise"
         baseFrequency="0.1"
         result="result1" />
      <feGaussianBlur
         id="feGaussianBlur3022-9"
         stdDeviation="2"
         result="result2" />
      <feDisplacementMap
         id="feDisplacementMap3024-3"
         in2="result2"
         scale="50"
         yChannelSelector="B"
         xChannelSelector="R"
         in="SourceGraphic" />
    </filter>
    <linearGradient
       inkscape:collect="always"
       xlink:href="#linearGradient964"
       id="linearGradient966"
       x1="483.93088"
       y1="252.79726"
       x2="521.5141"
       y2="254.66634"
       gradientUnits="userSpaceOnUse"
       gradientTransform="matrix(0.87803713,-0.00774983,0,0.66469765,116.54306,62.075835)" />
    <linearGradient
       inkscape:collect="always"
       id="linearGradient964">
      <stop
         style="stop-color:#918a6f;stop-opacity:1;"
         offset="0"
         id="stop960" />
      <stop
         style="stop-color:#c2bb9f;stop-opacity:1"
         offset="1"
         id="stop962" />
    </linearGradient>
    <radialGradient
       inkscape:collect="always"
       xlink:href="#linearGradient928"
       id="radialGradient932"
       cx="256.4834"
       cy="197.78122"
       fx="256.4834"
       fy="197.78122"
       r="182.11266"
       gradientTransform="matrix(1.837639,0.3973666,-0.30399365,0.77675495,-136.93264,-67.788877)"
       gradientUnits="userSpaceOnUse" />
    <linearGradient
       inkscape:collect="always"
       id="linearGradient928">
      <stop
         style="stop-color:#f3efe0;stop-opacity:1"
         offset="0"
         id="stop924" />
      <stop
         style="stop-color:#d9cc9d;stop-opacity:1"
         offset="1"
         id="stop926" />
    </linearGradient>
    <filter
       style="color-interpolation-filters:sRGB"
       id="filter3018-3-2-2"
       inkscape:label="Lapping"
       inkscape:menu="Distort"
       inkscape:menu-tooltip="Something like a water noise"
       height="1.3"
       y="-0.15000001"
       width="1.3"
       x="-0.15000001">
      <feTurbulence
         id="feTurbulence3020-6-9-0"
         numOctaves="5"
         seed="0"
         type="fractalNoise"
         baseFrequency="0.1"
         result="result1" />
      <feGaussianBlur
         id="feGaussianBlur3022-7-1-2"
         stdDeviation="2"
         result="result2" />
      <feDisplacementMap
         id="feDisplacementMap3024-5-2-3"
         in2="result2"
         scale="50"
         yChannelSelector="B"
         xChannelSelector="R"
         in="SourceGraphic" />
    </filter>
    <filter
       style="color-interpolation-filters:sRGB"
       id="filter3018-3-2-2-2"
       inkscape:label="Lapping"
       inkscape:menu="Distort"
       inkscape:menu-tooltip="Something like a water noise"
       height="1.3"
       y="-0.15000001"
       width="1.3"
       x="-0.15000001">
      <feTurbulence
         id="feTurbulence3020-6-9-0-9"
         numOctaves="5"
         seed="0"
         type="fractalNoise"
         baseFrequency="0.1"
         result="result1" />
      <feGaussianBlur
         id="feGaussianBlur3022-7-1-2-3"
         stdDeviation="2"
         result="result2" />
      <feDisplacementMap
         id="feDisplacementMap3024-5-2-3-1"
         in2="result2"
         scale="50"
         yChannelSelector="B"
         xChannelSelector="R"
         in="SourceGraphic" />
    </filter>
    <filter
       style="color-interpolation-filters:sRGB"
       id="filter3018-3-2-2-2-1"
       inkscape:label="Lapping"
       inkscape:menu="Distort"
       inkscape:menu-tooltip="Something like a water noise"
       height="1.3"
       y="-0.15000001"
       width="1.3"
       x="-0.15000001">
      <feTurbulence
         id="feTurbulence3020-6-9-0-9-0"
         numOctaves="5"
         seed="0"
         type="fractalNoise"
         baseFrequency="0.1"
         result="result1" />
      <feGaussianBlur
         id="feGaussianBlur3022-7-1-2-3-6"
         stdDeviation="2"
         result="result2" />
      <feDisplacementMap
         id="feDisplacementMap3024-5-2-3-1-3"
         in2="result2"
         scale="50"
         yChannelSelector="B"
         xChannelSelector="R"
         in="SourceGraphic" />
    </filter>
    <filter
       style="color-interpolation-filters:sRGB"
       id="filter3018-7-5"
       inkscape:label="Lapping"
       inkscape:menu="Distort"
       inkscape:menu-tooltip="Something like a water noise"
       height="1.3"
       y="-0.15000001"
       width="1.3"
       x="-0.15000001">
      <feTurbulence
         id="feTurbulence3020-0-6"
         numOctaves="5"
         seed="0"
         type="fractalNoise"
         baseFrequency="0.1"
         result="result1" />
      <feGaussianBlur
         id="feGaussianBlur3022-9-9"
         stdDeviation="2"
         result="result2" />
      <feDisplacementMap
         id="feDisplacementMap3024-3-3"
         in2="result2"
         scale="50"
         yChannelSelector="B"
         xChannelSelector="R"
         in="SourceGraphic" />
    </filter>
    <filter
       style="color-interpolation-filters:sRGB"
       id="filter3018-3-2-2-7"
       inkscape:label="Lapping"
       inkscape:menu="Distort"
       inkscape:menu-tooltip="Something like a water noise"
       height="1.3"
       y="-0.15000001"
       width="1.3"
       x="-0.15000001">
      <feTurbulence
         id="feTurbulence3020-6-9-0-4"
         numOctaves="5"
         seed="0"
         type="fractalNoise"
         baseFrequency="0.1"
         result="result1" />
      <feGaussianBlur
         id="feGaussianBlur3022-7-1-2-4"
         stdDeviation="2"
         result="result2" />
      <feDisplacementMap
         id="feDisplacementMap3024-5-2-3-3"
         in2="result2"
         scale="50"
         yChannelSelector="B"
         xChannelSelector="R"
         in="SourceGraphic" />
    </filter>
    <filter
       style="color-interpolation-filters:sRGB"
       id="filter3018-3-2-2-7-8"
       inkscape:label="Lapping"
       inkscape:menu="Distort"
       inkscape:menu-tooltip="Something like a water noise"
       height="1.3"
       y="-0.15000001"
       width="1.3"
       x="-0.15000001">
      <feTurbulence
         id="feTurbulence3020-6-9-0-4-8"
         numOctaves="5"
         seed="0"
         type="fractalNoise"
         baseFrequency="0.1"
         result="result1" />
      <feGaussianBlur
         id="feGaussianBlur3022-7-1-2-4-4"
         stdDeviation="2"
         result="result2" />
      <feDisplacementMap
         id="feDisplacementMap3024-5-2-3-3-3"
         in2="result2"
         scale="50"
         yChannelSelector="B"
         xChannelSelector="R"
         in="SourceGraphic" />
    </filter>
  </defs>
  <sodipodi:namedview
     pagecolor="#ffffff"
     bordercolor="#666666"
     borderopacity="1"
     objecttolerance="10"
     gridtolerance="10"
     guidetolerance="10"
     inkscape:pageopacity="0"
     inkscape:pageshadow="2"
     inkscape:window-width="1920"
     inkscape:window-height="1027"
     id="namedview4"
     showgrid="false"
     inkscape:zoom="0.52900001"
     inkscape:cx="1167.813"
     inkscape:cy="1276.061"
     inkscape:window-x="1920"
     inkscape:window-y="26"
     inkscape:window-maximized="1"
     inkscape:current-layer="layer3" />
  <g
     inkscape:groupmode="layer"
     id="layer2"
     inkscape:label="artwork"
     sodipodi:insensitive="true">
    <image
       sodipodi:absref="/home/midgard/git/peppercarrot/comics/new-ep29_Destroyer-of-Worlds/lang/fr/../gfx_Pepper-and-Carrot_by-David-Revoy_E29P01.png"
       xlink:href="../gfx_Pepper-and-Carrot_by-David-Revoy_E29P01.png"
       width="2481"
       height="3503"
       id="image10"
       x="0"
       y="0" />
  </g>
  <g
     inkscape:groupmode="layer"
     id="layer3"
     inkscape:label="speechbubbles"
     style="display:inline">
    <path
       style="color:#000000;display:inline;overflow:visible;visibility:visible;fill:#0f0f0f;fill-opacity:1;fill-rule:nonzero;stroke:none;stroke-width:0.99999994px;marker:none;enable-background:accumulate"
       d="m 2142.8716,3054.2308 c 14.9445,-43.4849 20.5793,-85.1201 -10.9877,-108.6818 55.3429,24.3622 47.5109,110.6327 42.6787,137.0071 -4.8322,26.3745 -31.691,-28.3253 -31.691,-28.3253 z"
       id="path5010"
       inkscape:connector-curvature="0" />
    <path
       style="color:#000000;display:inline;overflow:visible;visibility:visible;fill:#0f0f0f;fill-opacity:1;fill-rule:nonzero;stroke:none;stroke-width:1px;marker:none;enable-background:accumulate"
       d="m 1263.381,2497.9192 c 8.4719,17.8984 14.9795,39.5894 14.2356,43.8801 -0.7439,4.2907 -23.2819,20.6864 -21.2553,26.7647 2.0266,6.0781 17.6118,13.0975 17.7588,17.0957 0.147,3.9981 -14.044,18.551 -12.0664,23.2965 1.9777,4.7455 23.1171,23.8778 22.9345,27.085 -0.1827,3.2072 -1.0468,20.5758 5.2648,36.9358 3.2784,-33.4479 10.0264,-37.9126 7.9996,-43.9908 -2.0264,-6.0782 -17.1484,-16.8465 -17.0637,-22.7192 0.084,-5.8725 13.3847,-20.1328 10.7478,-26.4601 -2.6369,-6.3273 -13.3892,-12.6864 -13.3892,-12.6864 6.5165,-2.5902 38.0119,-20.5796 31.0634,-54.2648 -6.9484,-33.6853 -46.2299,-14.9365 -46.2299,-14.9365 z"
       id="path5050"
       inkscape:connector-curvature="0" />
    <path
       style="color:#000000;display:inline;overflow:visible;visibility:visible;opacity:1;fill:#0f0f0f;fill-opacity:1;fill-rule:nonzero;stroke:none;stroke-width:1px;marker:none;filter:url(#filter3018-7);enable-background:accumulate"
       d="m 168.28312,283.8421 c 0,-33.58279 14.75908,-50.8989 58.54415,-54.04737 43.78511,-3.14835 169.7094,-7.85644 188.89616,3.16291 19.18671,11.01941 19.20607,27.27159 20.19004,49.31029 0.98391,22.03871 -49.15482,72.90604 -92.9228,70.88969 -34.17117,-1.57423 -91.76602,6.39736 -115.38046,-1.47364 -23.61444,-7.871 -57.3592,-41.08057 -59.32709,-67.84188 z"
       id="path3986"
       inkscape:connector-curvature="0"
       sodipodi:nodetypes="csssssc"
       transform="matrix(1.0376604,0,0,1.0073751,749.73591,530.49252)" />
    <path
       style="opacity:1;fill:#0f0f0f;fill-opacity:1;stroke:none"
       d="m 1064.796,1038.4421 c 2.8076,36.5266 -11.3531,47.358 -7.5295,55.3048 3.8237,7.9469 15.8815,11.5559 18.3467,1.8286 2.4651,-9.7273 -8.7342,-30.033 -4.1662,-54.2007"
       id="path3060"
       inkscape:connector-curvature="0" />
    <path
       style="opacity:1;fill:#0f0f0f;fill-opacity:1;stroke:none;stroke-width:0.99999994"
       d="m 1384.2482,982.08791 c 3.1888,39.43329 -12.8949,51.12669 -8.552,59.70589 4.343,8.5793 18.0383,12.4755 20.8384,1.9741 2.7999,-10.5014 -9.9204,-32.4231 -4.732,-58.51403"
       id="path3060-9"
       inkscape:connector-curvature="0" />
    <path
       style="color:#000000;display:inline;overflow:visible;visibility:visible;opacity:1;fill:#0f0f0f;fill-opacity:1;fill-rule:nonzero;stroke:none;stroke-width:1px;marker:none;enable-background:accumulate"
       d="m 1167.515,1008.4201 c 5.756,16.0551 36.8697,21.8704 34.6394,25.8409 -2.2303,3.9705 -43.01,23.6375 -44.822,28.8265 -1.4766,4.2968 13.32,2.0583 17.0774,2.8471 3.7574,0.7889 13.421,0.9232 18.1192,11.2971 4.6984,10.374 -4.1293,24.3583 -11.7604,31.5826 -7.631,7.2244 -21.254,9.8009 -18.5521,17.9701 2.7018,8.1692 10.3661,3.5153 15.2974,2.8158 4.9315,-0.6993 26.8788,-5.3934 34.7459,-4.099 7.8671,1.2945 30.5976,14.4124 28.7208,26.263 -7.6706,-12.0246 -17.5023,-14.2985 -24.782,-13.888 -7.2799,0.4104 -19.721,1.229 -27.4698,5.8264 -7.7489,4.5977 -22.1356,7.9519 -28.946,5.8077 -6.8106,-2.144 -16.55,-7.3392 -17.843,-16.6413 -1.293,-9.3019 -2.8828,-17.8086 9.4444,-27.7204 7.631,-7.2244 10.8006,-11.4057 9.7435,-13.8216 -1.0571,-2.4157 -10.3335,-4.2101 -19.6089,-1.1065 -9.2754,3.1036 -21.7936,1.0176 -23.2036,-4.3803 -1.4097,-5.398 2.4238,-16.8664 7.5618,-25.344 5.1379,-13.8512 34.8579,-36.7588 34.8579,-36.7588 z"
       id="path5058"
       inkscape:connector-curvature="0"
       sodipodi:nodetypes="cscsssssscssssccscccc" />
    <path
       style="color:#000000;display:inline;overflow:visible;visibility:visible;opacity:1;fill:#0f0f0f;fill-opacity:1;fill-rule:nonzero;stroke:none;stroke-width:0.97100657px;marker:none;filter:url(#filter3018-3-2);enable-background:accumulate"
       d="m 150.91079,338.94529 c 0,-54.78843 31.10074,-104.01401 104.69356,-109.15056 73.59288,-5.13636 285.24319,-12.81734 317.4918,5.16011 32.24854,17.97755 46.12799,62.99969 47.78183,98.95459 1.65373,35.95491 -71.93916,91.59953 -145.53198,89.03135 -73.59291,-2.56827 -206.32976,7.58039 -246.0203,-5.2607 -39.69054,-12.8411 -75.10733,-35.07523 -78.41491,-78.73479 z"
       id="path3986-3"
       inkscape:connector-curvature="0"
       sodipodi:nodetypes="csssssc"
       transform="matrix(1.0568384,0,0,1.0490436,766.177,607.88992)" />
    <path
       style="opacity:1;fill:#0f0f0f;fill-opacity:1;stroke:none"
       d="m 935.57921,823.10587 c 2.0926,31.7613 -8.4621,41.1796 -5.6121,48.0897 2.85,6.9101 11.8373,10.0483 13.6748,1.59 1.8374,-8.4583 -6.5101,-26.1149 -3.1053,-47.1297"
       id="path3060-9-6"
       inkscape:connector-curvature="0" />
    <path
       style="opacity:1;fill:#0f0f0f;fill-opacity:1;stroke:none"
       d="m 961.29002,1024.8074 c 4.1246,27.5199 -5.4305,36.5008 -2.2235,42.3123 3.207,5.8116 12.083,7.8862 13.2942,0.3816 1.2112,-7.5046 -8.0105,-22.2759 -6.1203,-40.8359"
       id="path3060-4"
       inkscape:connector-curvature="0" />
    <g
       transform="matrix(1.1389041,0.01327869,0,1.5044434,-51.938068,-94.937147)"
       id="g975"
       style="stroke-width:0.76395637">
      <path
         inkscape:connector-curvature="0"
         id="path101"
         d="m 560.42318,190.63619 c -3.54348,-0.0348 -7.29462,0.1157 -11.15995,0.53804 0,0 -30.0934,106.15112 -34.39246,120.39084 11.46417,0 17.19658,2.58826 28.66075,3.88278 11.46419,1.29452 32.95953,-2.58907 41.55766,-3.23633 8.59813,-0.64726 15.76193,2.58904 44.42238,0 -2.86603,0.64726 -12.18043,-6.47148 -16.47949,-9.06051 -4.29907,-2.58904 -2.86564,-7.7685 -5.73169,-13.59384 -7.1651,4.53081 -12.18133,-3e-5 -15.76388,-3.23633 -3.58256,-3.2363 0,-4.52924 0,-4.52924 l 11.4634,-8.41405 c 0,0 -3.58217,-14.24033 -5.7317,-17.47663 -2.14954,-3.2363 2.86698,-16.18167 2.86698,-16.18167 0,0 3.58164,-9.0614 0.71562,-14.88673 -2.86604,-5.82535 4.29867,-7.11997 5.73169,-9.70901 1.43304,-2.58904 9.31656,-12.29889 9.31656,-12.29889 l 7.88082,-3.88279 19.34646,-0.64645 10.74778,-5.82622 -16.48174,0.64645 -24.3603,2.58989 -25.79378,-1.29494 c 0,0 -11.46004,-3.62374 -26.81511,-3.77437 z m 14.40511,63.85728 c 0,0 11.92148,1.46891 13.54683,3.42659 1.62535,1.95768 4.33226,0.4895 6.4994,1.95776 2.16714,1.46826 4.87786,9.7878 2.71073,10.76663 -2.16714,0.97885 -5.41927,3.42554 -7.58642,2.44669 -2.16713,-0.97883 -4.87568,-5.87327 -4.87568,-5.87327 -0.54179,-4.40479 0,-6.85113 0,-6.85113 z"
         style="fill:url(#linearGradient966);fill-opacity:1;fill-rule:evenodd;stroke:none;stroke-width:0.76395619px;stroke-linecap:butt;stroke-linejoin:miter;stroke-opacity:1" />
      <path
         inkscape:connector-curvature="0"
         id="path958"
         d="m 515.33357,310.52556 c 0,0 8.1984,-5.23752 15.06909,-6.63932 6.87069,-1.40181 24.66762,-6.18478 30.68906,-7.94356 l 6.13248,-1.15243 -4.75833,-30.62178 -8.70287,-22.89613 -30.68908,2.80361 -5.49655,49.06313 z"
         style="fill:#6c6753;fill-rule:evenodd;stroke:#6c6753;stroke-width:0.76395637px;stroke-linecap:butt;stroke-linejoin:miter;stroke-opacity:1"
         sodipodi:nodetypes="ccscccccc" />
      <path
         inkscape:connector-curvature="0"
         id="path99"
         d="m 578.45775,152.25075 c -0.137,0.0194 -0.27605,0.0584 -0.4184,0.11719 -4.55511,1.87969 -37.35272,-0.93945 -43.72988,3.75976 -6.37716,4.69921 -87.18552,-0.94062 -102.67291,-2.82031 -15.48737,-1.87968 -140.35128,0.13995 -153.10557,2.95948 -12.75432,2.81953 -45.55159,6.57969 -85.63658,2.82032 l 2.73193,9.39843 0.91253,7.51758 -3.64446,7.51953 h 2.73193 l 14.57789,5.63867 v 8.45899 l -6.37831,6.57812 -10.02087,1.88086 -12.75471,40.41211 c 0,0 1.82168,6.57852 0.91065,10.33789 -0.91102,3.75937 -10.01975,15.97738 -17.30793,46.99219 17.30942,-1.87969 34.61853,-3.75937 55.57205,-4.69922 20.95351,-0.93984 120.02762,10.33789 133.69295,10.33789 13.66534,0 59.49768,-2.95832 78.62915,-5.77784 19.13147,-2.81953 89.91973,-2.81992 99.94097,-3.75977 10.02124,-0.93985 22.7756,-7.51873 36.44093,-4.69921 -1.82203,-11.27811 -0.91216,-15.03595 -1.82318,-22.55469 -0.91103,-7.51874 8.19884,-29.13674 10.02088,-38.53516 1.82205,-9.39843 1.82318,-18.79493 1.82318,-23.49414 0,-4.69921 4.55513,-6.58008 4.55513,-6.58008 l -4.55513,-9.39843 c 0,0 3.6441,-12.21799 4.55513,-18.79688 0.88254,-6.37331 -0.80007,-24.21344 -5.04737,-23.61328 z m -379.88744,68.26808 c 1.75327,0.02 3.16423,0.6712 3.36239,2.30664 0.45294,3.73815 2.2656,8.87803 -0.90497,11.68164 -3.17058,2.80361 -11.32342,-0.46687 -11.32342,-2.33594 0,-1.86907 2.2643,-9.3457 2.2643,-9.3457 1.52868,-1.31419 4.34751,-2.33231 6.6017,-2.30664 z"
         style="fill:url(#radialGradient932);fill-opacity:1;fill-rule:evenodd;stroke:none;stroke-width:0.76395619px;stroke-linecap:butt;stroke-linejoin:miter;stroke-opacity:1"
         sodipodi:nodetypes="ccsssccccccccccccssssccsscccccccscc" />
      <path
         inkscape:connector-curvature="0"
         id="path109"
         d="m 510.93577,227.35928 c 4.8646,-2.80361 12.64794,-2.33634 14.59378,0.46727 1.94585,2.80361 7.78336,6.07448 6.32398,8.87809 -1.45938,2.80361 -4.8646,8.41082 -7.78336,8.41082 -2.91876,0 -11.18856,1.86907 -13.62086,-2.33634 -2.4323,-4.20541 -4.37814,-8.87809 -3.40521,-11.21443 0.97291,-2.33634 3.89167,-4.20541 3.89167,-4.20541 z"
         style="opacity:0.53299997;fill:#cbc29a;fill-opacity:1;fill-rule:evenodd;stroke:none;stroke-width:0.76395619px;stroke-linecap:butt;stroke-linejoin:miter;stroke-opacity:1" />
      <path
         inkscape:connector-curvature="0"
         id="path111"
         d="m 537.20458,190.44512 c 7.29689,-4.20541 14.59379,-4.20541 16.05316,0.93454 1.45939,5.13994 4.8646,8.87808 0.48646,10.74716 -4.37813,1.86907 -10.7021,9.81262 -13.62086,4.20541 -2.91876,-5.60722 -9.72919,-8.41082 -8.75627,-9.81263 0.97291,-1.4018 5.83751,-6.07448 5.83751,-6.07448 z"
         style="opacity:0.53299997;vector-effect:none;fill:#cbc29a;fill-opacity:1;fill-rule:evenodd;stroke:none;stroke-width:0.76395619px;stroke-linecap:butt;stroke-linejoin:miter;stroke-miterlimit:4;stroke-dasharray:none;stroke-dashoffset:0;stroke-opacity:1" />
      <path
         inkscape:connector-curvature="0"
         id="path113"
         d="m 528.44831,269.41339 c 4.8646,-2.80361 8.75627,0 8.75627,3.27087 0,3.27088 2.4323,6.54175 -2.91875,6.54175 -5.35106,0 -9.72919,0.46727 -9.72919,-3.27087 0,-3.73814 3.89167,-6.54175 3.89167,-6.54175 z"
         style="opacity:0.53299997;vector-effect:none;fill:#cbc29a;fill-opacity:1;fill-rule:evenodd;stroke:none;stroke-width:0.76395619px;stroke-linecap:butt;stroke-linejoin:miter;stroke-miterlimit:4;stroke-dasharray:none;stroke-dashoffset:0;stroke-opacity:1" />
      <path
         inkscape:connector-curvature="0"
         id="path115"
         d="m 509.96285,282.96416 c 3.40522,-6.07449 6.81043,-4.67268 6.81043,-4.67268 l 4.37813,4.67268 -5.35104,5.60721 z"
         style="opacity:0.53299997;vector-effect:none;fill:#cbc29a;fill-opacity:1;fill-rule:evenodd;stroke:none;stroke-width:0.76395619px;stroke-linecap:butt;stroke-linejoin:miter;stroke-miterlimit:4;stroke-dasharray:none;stroke-dashoffset:0;stroke-opacity:1" />
    </g>
    <path
       style="fill:#0f0f0f;fill-opacity:1;stroke:none;stroke-width:1"
       d="m 1600.6957,1390.5913 c 24.5589,5.7352 36.1331,28.4179 33.4474,42.48 -2.6857,14.0621 -30.7585,40.7541 -25.6969,47.701 5.0617,6.9468 15.851,10.6091 23.551,14.4427 24.9731,12.4334 -1.9689,39.2733 -1.9597,48.9468 0.01,9.6736 21.4782,30.6042 21.4782,30.6042 0,0 17.3988,-32.1731 19.0338,-44.7703 1.6347,-12.5972 8.837,-21.7317 8.1685,-26.8016 -0.6681,-5.0699 -11.5505,-17.6316 -19.0808,-22.6113 -7.5302,-4.9796 -17.2978,-5.5767 -23.9333,-7.908 -6.6357,-2.331 14.4443,-26.9612 14.3196,-37.8425 -0.1247,-10.8813 -11.6787,-31.9063 -24.7689,-38.5058 -13.09,-6.5994 -24.5592,-5.7352 -24.5592,-5.7352 z"
       id="path3023"
       inkscape:connector-curvature="0"
       sodipodi:nodetypes="csssscsssssscc" />
    <path
       style="color:#000000;display:inline;overflow:visible;visibility:visible;opacity:1;fill:#0f0f0f;fill-opacity:1;fill-rule:nonzero;stroke:none;stroke-width:1.03416967px;marker:none;filter:url(#filter3018-3-2-2);enable-background:accumulate"
       d="m 170.32692,363.7456 c 0,-56.49556 26.68331,-125.50758 94.75725,-143.74141 70.02787,-18.7572 254.68689,-19.55316 333.79437,17.09909 51.36021,23.79632 56.5665,66.64526 58.14022,103.72047 1.57362,37.07521 -9.3475,190.73912 -76.70093,211.26998 -101.71052,31.0037 -293.13442,29.795 -356.08062,-10.4724 C 181.03688,513.98558 173.47427,408.76552 170.32692,363.7456 Z"
       id="path3986-3-7"
       inkscape:connector-curvature="0"
       sodipodi:nodetypes="csssssc"
       transform="matrix(1.0376604,0,0,0.94190613,1317.3203,1309.953)" />
    <path
       style="display:inline;opacity:1;fill:#0f0f0f;fill-opacity:1;stroke:none"
       d="m 1620.9279,1820.4767 c 2.8076,36.5266 -11.3531,47.358 -7.5295,55.3048 3.8237,7.9469 15.8815,11.5559 18.3467,1.8286 2.4651,-9.7273 -8.7342,-30.033 -4.1662,-54.2007"
       id="path3060-5"
       inkscape:connector-curvature="0" />
    <path
       style="display:inline;opacity:1;fill:#0f0f0f;fill-opacity:1;stroke:none"
       d="m 1967.295,1742.2323 c 2.8076,36.5266 -5.949,47.358 -2.1254,55.3048 3.8237,7.9469 15.8815,11.5559 18.3467,1.8286 2.4651,-9.7273 -8.7342,-30.033 -4.1662,-54.2007"
       id="path3060-5-9"
       inkscape:connector-curvature="0"
       sodipodi:nodetypes="cccc" />
    <path
       style="display:inline;opacity:1;fill:#0f0f0f;fill-opacity:1;stroke:none;stroke-width:1"
       d="m 1490.333,1681.5757 c 5.3812,33.3121 -17.0906,43.7731 -12.9066,50.8078 4.184,7.0347 21.4818,8.1166 23.062,-0.9675 23.6461,1.5401 -6.1629,-13.6833 3.6585,-52.4948"
       id="path3060-4-2"
       inkscape:connector-curvature="0"
       sodipodi:nodetypes="cscc" />
    <path
       style="fill:#0f0f0f;fill-opacity:1;stroke:none;stroke-width:1"
       d="m 250.60992,2738.0007 c -29.0203,-27.199 -30.3395,-41.8764 -23.24119,-53.2904 7.09808,-11.4143 11.60319,-24.3514 8.1083,-32.1376 -3.49468,-7.786 -10.13615,-13.2728 -18.3006,-18.4048 -21.40585,-13.4553 18.16258,-30.9329 21.01071,-39.4089 2.84807,-8.4763 -36.56643,-19.2552 -36.56643,-19.2552 0,0 -4.64653,14.8347 -10.16022,25.319 -5.51391,10.4842 -7.59619,14.295 -8.36204,18.9603 -0.76564,4.6654 1.91955,12.6664 8.70102,19.5592 6.78147,6.8929 17.30998,10.0813 23.89327,14.3535 6.58347,4.2722 0.13761,18.1256 -2.94073,27.6983 -3.07846,9.5727 -3.38805,16.9343 6.86519,31.4162 8.78883,12.4137 30.99272,25.1904 30.99272,25.1904 z"
       id="path3023-2"
       inkscape:connector-curvature="0"
       sodipodi:nodetypes="csssscssssssc" />
    <path
       style="color:#000000;display:inline;overflow:visible;visibility:visible;opacity:1;fill:#0f0f0f;fill-opacity:1;fill-rule:nonzero;stroke:none;stroke-width:1.03416967px;marker:none;filter:url(#filter3018-3-2-2-2);enable-background:accumulate"
       d="m 589.37375,248.80282 c 12.84005,5.76932 25.96374,38.87106 33.69895,46.5738 7.73521,7.70274 19.58673,10.94857 23.54588,19.83235 3.95916,8.88379 -14.23122,39.11209 -12.71932,48.42454 1.51189,9.31244 3.71649,43.08356 4.10992,52.07228 0.39343,8.98873 -26.92431,12.82784 -28.77927,32.16579 -1.85495,19.33795 13.83221,40.21333 8.35583,62.3325 -5.47638,22.11917 -43.20524,3.59793 -53.67609,20.93032 -10.47085,17.3324 -11.10915,28.63423 -27.9475,33.61185 -25.42763,7.51671 -20.02733,-16.58698 -48.5075,-16.56924 -33.38477,0.0208 -6.88185,24.15693 -41.10088,23.44892 -34.21904,-0.70801 -14.95034,-15.79216 -43.33737,-20.92375 -28.38702,-5.13159 -26.80733,24.12181 -42.54388,14.35915 -10.80008,-6.70016 -27.29346,-12.86731 -34.12668,-26.88464 -6.83321,-14.01734 -37.27304,35.6673 -41.11509,18.50846 -20.95094,-390.01935 -47.92119,-294.57164 304.143,-307.88233 z"
       id="path3986-3-7-9"
       inkscape:connector-curvature="0"
       sodipodi:nodetypes="cssssssssssssscc"
       transform="matrix(1.0376604,0,0,0.94190613,-205.9646,2089.4259)" />
    <rect
       style="color:#000000;clip-rule:nonzero;display:inline;overflow:visible;visibility:visible;opacity:1;isolation:auto;mix-blend-mode:normal;color-interpolation:sRGB;color-interpolation-filters:linearRGB;solid-color:#000000;solid-opacity:1;vector-effect:none;fill:#ffffff;fill-opacity:1;fill-rule:nonzero;stroke:none;stroke-width:1.5;stroke-linecap:butt;stroke-linejoin:miter;stroke-miterlimit:4;stroke-dasharray:none;stroke-dashoffset:0;stroke-opacity:1;marker:none;paint-order:stroke fill markers;color-rendering:auto;image-rendering:auto;shape-rendering:auto;text-rendering:auto;enable-background:accumulate"
       id="rect1243-4"
       width="596.69598"
       height="61.288307"
       x="-2812.6338"
       y="40.783878"
       transform="rotate(-90)" />
    <path
       style="display:inline;opacity:1;fill:#0f0f0f;fill-opacity:1;stroke:none"
       d="m 151.3791,2592.0721 c 2.8076,36.5266 -11.3531,47.358 -7.5295,55.3048 3.8237,7.9469 15.8815,11.5559 18.3467,1.8286 2.4651,-9.7273 -8.7342,-30.033 -4.1662,-54.2007"
       id="path3060-5-7"
       inkscape:connector-curvature="0" />
    <path
       style="color:#000000;display:inline;overflow:visible;visibility:visible;opacity:1;fill:#0f0f0f;fill-opacity:1;fill-rule:nonzero;stroke:none;stroke-width:1.03416967px;marker:none;filter:url(#filter3018-3-2-2-2-1);enable-background:accumulate"
       d="m 605.17066,246.62324 c 12.84005,5.76932 25.96374,38.87106 33.69895,46.5738 7.73521,7.70274 -0.52681,32.44959 3.43234,41.33337 3.95916,8.88379 5.88232,17.61107 7.39422,26.92352 1.51189,9.31244 3.71649,43.08356 4.10992,52.07228 0.39343,8.98873 5.60201,31.64364 3.74705,50.98159 -1.85495,19.33795 -19.62493,29.98147 -25.10131,52.10064 -5.47638,22.11917 10.30146,52.69742 -0.16939,70.02981 -10.47085,17.3324 -33.20114,32.73242 -50.03949,37.71004 -25.42763,7.51671 -51.50271,-6.99392 -79.98288,-6.97618 -33.38477,0.0208 -21.05564,28.03764 -55.27467,27.32963 -34.21904,-0.70801 -27.5405,-11.95493 -55.92753,-17.08652 -28.38702,-5.13159 -36.50657,15.65961 -52.24312,5.89695 -10.80008,-6.70016 -43.05089,-8.94309 -49.88411,-22.96042 -6.83321,-14.01734 -56.90841,8.27511 -60.75046,-8.88373 -31.8741,-452.56515 -38.10344,-326.03724 376.99048,-355.04478 z"
       id="path3986-3-7-9-2"
       inkscape:connector-curvature="0"
       sodipodi:nodetypes="cssssssssssssscc"
       transform="matrix(-1.0373381,0.02586148,0.02347501,0.94161355,1139.0523,2079.731)" />
    <rect
       style="color:#000000;clip-rule:nonzero;display:inline;overflow:visible;visibility:visible;opacity:1;isolation:auto;mix-blend-mode:normal;color-interpolation:sRGB;color-interpolation-filters:linearRGB;solid-color:#000000;solid-opacity:1;vector-effect:none;fill:#ffffff;fill-opacity:1;fill-rule:nonzero;stroke:none;stroke-width:1.5;stroke-linecap:butt;stroke-linejoin:miter;stroke-miterlimit:4;stroke-dasharray:none;stroke-dashoffset:0;stroke-opacity:1;marker:none;paint-order:stroke fill markers;color-rendering:auto;image-rendering:auto;shape-rendering:auto;text-rendering:auto;enable-background:accumulate"
       id="rect1243"
       width="858.05865"
       height="61.288307"
       x="60.116302"
       y="2284.2473" />
    <rect
       style="color:#000000;clip-rule:nonzero;display:inline;overflow:visible;visibility:visible;opacity:1;isolation:auto;mix-blend-mode:normal;color-interpolation:sRGB;color-interpolation-filters:linearRGB;solid-color:#000000;solid-opacity:1;vector-effect:none;fill:#ffffff;fill-opacity:1;fill-rule:nonzero;stroke:none;stroke-width:1.5;stroke-linecap:butt;stroke-linejoin:miter;stroke-miterlimit:4;stroke-dasharray:none;stroke-dashoffset:0;stroke-opacity:1;marker:none;paint-order:stroke fill markers;color-rendering:auto;image-rendering:auto;shape-rendering:auto;text-rendering:auto;enable-background:accumulate"
       id="rect1243-4-0"
       width="596.69598"
       height="33.411301"
       x="-2900.5508"
       y="902.09576"
       transform="rotate(-90)" />
    <path
       style="color:#000000;display:inline;overflow:visible;visibility:visible;opacity:1;fill:#0f0f0f;fill-opacity:1;fill-rule:nonzero;stroke:none;stroke-width:1px;marker:none;filter:url(#filter3018-7-5);enable-background:accumulate"
       d="m 199.70833,294.63209 c 0,-33.58279 12.66407,-63.84689 56.44914,-66.99536 43.78511,-3.14835 131.99914,9.40754 151.1859,20.42689 19.18671,11.01941 19.20607,27.27159 20.19004,49.31029 0.98391,22.03871 -40.77476,57.80006 -84.54274,55.78371 -34.17117,-1.57423 -62.43582,4.23936 -86.05026,-3.63164 -23.61444,-7.871 -55.26419,-28.13258 -57.23208,-54.89389 z"
       id="path3986-7"
       inkscape:connector-curvature="0"
       sodipodi:nodetypes="csssssc"
       transform="matrix(-1.0343417,0.08292387,-0.08050364,-1.0041533,1633.542,2740.1367)" />
    <path
       style="display:inline;opacity:1;fill:#0f0f0f;fill-opacity:1;stroke:none"
       d="m 1234.6371,2511.5263 c 2.8076,36.5266 -11.3531,47.358 -7.5295,55.3048 3.8237,7.9469 15.8815,11.5559 18.3467,1.8286 2.4651,-9.7273 -8.7342,-30.033 -4.1662,-54.2007"
       id="path3060-5-7-4"
       inkscape:connector-curvature="0" />
    <path
       style="color:#000000;display:inline;overflow:visible;visibility:visible;opacity:1;fill:#0f0f0f;fill-opacity:1;fill-rule:nonzero;stroke:none;stroke-width:1.03416967px;marker:none;filter:url(#filter3018-3-2-2-7);enable-background:accumulate"
       d="m 166.61891,299.47069 c 0,-32.50561 17.17852,-60.22362 85.25246,-71.29403 70.02787,-11.38817 344.93022,-7.30002 424.0377,13.11525 51.36021,13.25453 66.07129,25.64782 67.64501,46.96624 1.57362,21.31842 -4.5951,113.31467 -71.94853,125.70058 -101.71052,18.70399 -383.37775,13.52 -446.32395,-9.11284 -43.20033,-15.53304 -55.51534,-79.49906 -58.66269,-105.3752 z"
       id="path3986-3-7-0"
       inkscape:connector-curvature="0"
       sodipodi:nodetypes="csssssc"
       transform="matrix(1.0376604,0,0,0.94190613,885.70838,2969.0467)" />
    <path
       style="display:inline;opacity:1;fill:#0f0f0f;fill-opacity:1;stroke:none"
       d="m 1624.2155,3312.0524 c 2.8076,36.5266 -11.3531,47.358 -7.5295,55.3048 3.8237,7.9469 15.8815,11.5559 18.3467,1.8286 2.4651,-9.7273 -8.7342,-30.033 -4.1662,-54.2007"
       id="path3060-5-7-4-8"
       inkscape:connector-curvature="0" />
    <path
       style="display:inline;opacity:1;fill:#0f0f0f;fill-opacity:1;stroke:none"
       d="m 876.29078,2641.3858 c 2.8076,36.5266 -11.3531,47.358 -7.5295,55.3048 3.8237,7.9469 15.8815,11.5559 18.3467,1.8286 2.4651,-9.7273 -8.7342,-30.033 -4.1662,-54.2007"
       id="path3060-5-7-4-8-6"
       inkscape:connector-curvature="0" />
    <path
       style="color:#000000;display:inline;overflow:visible;visibility:visible;opacity:1;fill:#0f0f0f;fill-opacity:1;fill-rule:nonzero;stroke:none;stroke-width:0.96192521px;marker:none;filter:url(#filter3018-3-2-2-7-8);enable-background:accumulate"
       d="m 355.41062,305.85428 c 0,-32.50561 17.17852,-60.22362 85.25246,-71.29403 70.02787,-11.38817 64.37591,-17.02946 143.48339,3.38581 51.36021,13.25453 68.31459,28.11639 69.88821,49.43482 0.78681,10.65921 5.75096,145.79929 3.81642,189.60009 -1.93454,43.80081 -13.17462,122.72067 -46.85134,128.91363 -50.85526,9.35199 -21.41118,17.34114 -74.06461,15.73811 -52.65343,-1.60304 -134.75312,-11.58206 -166.22622,-22.89848 -21.60016,-7.76652 -24.54995,-79.13851 -23.18278,-115.56777 1.36717,-36.42926 9.45815,-164.37411 7.88447,-177.31218 z"
       id="path3986-3-7-0-1"
       inkscape:connector-curvature="0"
       sodipodi:nodetypes="cssssssssc"
       transform="matrix(-0.02389471,-1.0916119,1.0344386,-0.02077638,1659.0278,3769.929)" />
    <path
       style="display:inline;opacity:1;fill:#0f0f0f;fill-opacity:1;stroke:none"
       d="m 1903.5066,3316.5001 c 2.8076,36.5266 -11.3531,47.358 -7.5295,55.3048 3.8237,7.9469 15.8815,11.5559 18.3467,1.8286 2.4651,-9.7273 -8.7342,-30.033 -4.1662,-54.2007"
       id="path3060-5-7-4-8-8"
       inkscape:connector-curvature="0" />
    <path
       style="opacity:1;color:#000000;display:inline;overflow:visible;visibility:visible;fill:#0f0f0f;fill-opacity:1;fill-rule:nonzero;stroke:none;stroke-width:1px;marker:none;enable-background:accumulate"
       d="m 717.15892,2786.6342 c 33.71458,-10.0399 56.65107,-20.7413 80.08528,-48.578 -2.47358,-21.4283 -44.05269,-16.1085 -27.63149,-37.4416 27.07704,-14.3492 53.32562,-42.5179 48.09918,-75.3645 -15.89655,-32.5264 -72.59906,-3.3372 -67.70013,25.893 -14.54954,30.5606 -7.2637,36.467 -28.23567,48.5286 -4.9287,27.362 34.9634,21.0683 49.96947,35.3389 -2.39274,16.8748 -33.91844,36.7956 -50.61537,49.5892 z"
       id="path5162"
       inkscape:connector-curvature="0"
       sodipodi:nodetypes="ccccccccc" />
    <path
       style="opacity:1;color:#000000;display:inline;overflow:visible;visibility:visible;fill:#0f0f0f;fill-opacity:1;fill-rule:nonzero;stroke:none;stroke-width:1px;marker:none;enable-background:accumulate"
       d="m 1413.1536,3209.1155 c -9.4337,-14.7882 -23.7275,-14.7168 -22.1036,-35.5712 0.6838,-3.9374 25.1444,-28.3457 22.8434,-33.4879 -2.301,-5.1421 -19.0178,-9.2083 -19.2724,-12.7585 -0.2543,-3.55 14.4511,-18.5536 12.2349,-22.5123 -2.2162,-3.9588 -25.1274,-18.0584 -25.0126,-20.9486 0.115,-2.8903 0.6044,-18.5249 -6.4983,-32.2444 -2.6562,30.3368 -9.7095,35.2781 -7.4084,40.4203 2.301,5.1422 18.6184,12.6222 18.6732,17.8791 0.055,5.257 -13.7123,19.8733 -10.7574,25.1517 2.955,5.2784 14.5256,9.438 14.5256,9.438 -6.8537,3.2346 -39.8437,23.7535 -31.638,52.8566 8.2057,29.1031 54.4136,11.7772 54.4136,11.7772 z"
       id="path5050-7"
       inkscape:connector-curvature="0"
       sodipodi:nodetypes="cccccccccccsc" />
  </g>
  <g
     inkscape:groupmode="layer"
     id="layer1"
     inkscape:label="txt"
     style="opacity:1">
    <flowRoot
       xml:space="preserve"
       id="flowRoot2987-4-9-3"
       style="font-style:normal;font-variant:normal;font-weight:normal;font-stretch:normal;line-height:0.01%;font-family:Lavi;-inkscape-font-specification:Lavi;text-align:center;letter-spacing:0px;word-spacing:0px;text-anchor:middle;fill:#000000;fill-opacity:1;stroke:none"
       transform="matrix(1.1000385,0,0,1.1857741,603.54207,465.42451)"><flowRegion
         id="flowRegion2989-5-4-5"><rect
           id="rect2991-7-9-6"
           width="602.40173"
           height="310.73996"
           x="120.55251"
           y="265.53046"
           style="font-style:normal;font-variant:normal;font-weight:normal;font-stretch:normal;font-family:Lavi;-inkscape-font-specification:Lavi;text-align:center;text-anchor:middle" /></flowRegion><flowPara
         style="font-style:normal;font-variant:normal;font-weight:normal;font-stretch:normal;font-size:48px;line-height:1.25;font-family:'Drukaatie burti';-inkscape-font-specification:'Drukaatie burti';text-align:center;text-anchor:middle;fill:#ffffff;fill-opacity:1"
         id="flowPara3071">…Enfin !</flowPara></flowRoot>    <flowRoot
       xml:space="preserve"
       id="flowRoot2987-4-9-3-6"
       style="font-style:normal;font-variant:normal;font-weight:normal;font-stretch:normal;line-height:0.01%;font-family:Lavi;-inkscape-font-specification:Lavi;text-align:center;letter-spacing:0px;word-spacing:0px;text-anchor:middle;opacity:1;fill:#000000;fill-opacity:1;stroke:none"
       transform="matrix(1.1000385,0,0,1.1857741,710.33437,556.3296)"><flowRegion
         id="flowRegion2989-5-4-5-0"><rect
           id="rect2991-7-9-6-6"
           width="602.40173"
           height="310.73996"
           x="120.55251"
           y="265.53046"
           style="font-style:normal;font-variant:normal;font-weight:normal;font-stretch:normal;font-family:Lavi;-inkscape-font-specification:Lavi;text-align:center;text-anchor:middle" /></flowRegion><flowPara
         style="font-style:normal;font-variant:normal;font-weight:normal;font-stretch:normal;font-size:48px;line-height:1.25;font-family:'Drukaatie burti';-inkscape-font-specification:'Drukaatie burti';text-align:center;text-anchor:middle;fill:#ffffff;fill-opacity:1"
         id="flowPara3071-2">Un déchirement</flowPara><flowPara
         style="font-style:normal;font-variant:normal;font-weight:normal;font-stretch:normal;font-size:48px;line-height:1.25;font-family:'Drukaatie burti';-inkscape-font-specification:'Drukaatie burti';text-align:center;text-anchor:middle;fill:#ffffff;fill-opacity:1"
         id="flowPara1005">interdimensionnel !</flowPara></flowRoot>    <text
       xml:space="preserve"
       style="font-style:normal;font-variant:normal;font-weight:normal;font-stretch:normal;font-size:45px;line-height:0%;font-family:Lavi;-inkscape-font-specification:Lavi;text-align:center;letter-spacing:0px;word-spacing:0px;text-anchor:middle;fill:#5d5146;fill-opacity:1;stroke:none;stroke-width:0.99999994"
       x="396.24088"
       y="218.99033"
       id="text4246"><tspan
         sodipodi:role="line"
         style="font-size:45px;line-height:1.20000005;fill:#5d5146;fill-opacity:1;stroke-width:0.99999994"
         x="396.24088"
         y="218.99033"
         id="tspan4252">Au même moment,</tspan><tspan
         sodipodi:role="line"
         style="font-size:45px;line-height:1.20000005;fill:#5d5146;fill-opacity:1;stroke-width:0.99999994"
         x="396.24088"
         y="272.99033"
         id="tspan1055">dans une autre</tspan><tspan
         sodipodi:role="line"
         style="font-size:45px;line-height:1.20000005;fill:#5d5146;fill-opacity:1;stroke-width:0.99999994"
         x="396.24088"
         y="326.99033"
         id="tspan151">dimension…</tspan></text>
    <flowRoot
       xml:space="preserve"
       id="flowRoot2987-4-9-3-6-6"
       style="font-style:normal;font-variant:normal;font-weight:normal;font-stretch:normal;line-height:0.01%;font-family:Lavi;-inkscape-font-specification:Lavi;text-align:center;letter-spacing:0px;word-spacing:0px;text-anchor:middle;opacity:1;fill:#000000;fill-opacity:1;stroke:none"
       transform="matrix(1.1000385,0,0,1.1857741,1286.3719,1226.1978)"><flowRegion
         id="flowRegion2989-5-4-5-0-1"><rect
           id="rect2991-7-9-6-6-8"
           width="602.40173"
           height="310.73996"
           x="120.55251"
           y="265.53046"
           style="font-style:normal;font-variant:normal;font-weight:normal;font-stretch:normal;font-family:Lavi;-inkscape-font-specification:Lavi;text-align:center;text-anchor:middle" /></flowRegion><flowPara
         style="font-style:normal;font-variant:normal;font-weight:normal;font-stretch:normal;font-size:48px;line-height:1.25;font-family:'Drukaatie burti';-inkscape-font-specification:'Drukaatie burti';text-align:center;text-anchor:middle;fill:#ffffff;fill-opacity:1"
         id="flowPara1005-9">Sans doute causé</flowPara><flowPara
         style="font-style:normal;font-variant:normal;font-weight:normal;font-stretch:normal;font-size:48px;line-height:1.25;font-family:'Drukaatie burti';-inkscape-font-specification:'Drukaatie burti';text-align:center;text-anchor:middle;fill:#ffffff;fill-opacity:1"
         id="flowPara1086">par un alignement</flowPara><flowPara
         style="font-style:normal;font-variant:normal;font-weight:normal;font-stretch:normal;font-size:48px;line-height:1.25;font-family:'Drukaatie burti';-inkscape-font-specification:'Drukaatie burti';text-align:center;text-anchor:middle;fill:#ffffff;fill-opacity:1"
         id="flowPara1088">d'astre ou un grand</flowPara><flowPara
         style="font-style:normal;font-variant:normal;font-weight:normal;font-stretch:normal;font-size:48px;line-height:1.25;font-family:'Drukaatie burti';-inkscape-font-specification:'Drukaatie burti';text-align:center;text-anchor:middle;fill:#ffffff;fill-opacity:1"
         id="flowPara1090">événement !</flowPara></flowRoot>    <flowRoot
       xml:space="preserve"
       id="flowRoot2987-4-9-3-6-6-2"
       style="font-style:normal;font-variant:normal;font-weight:normal;font-stretch:normal;line-height:0.01%;font-family:Lavi;-inkscape-font-specification:Lavi;text-align:center;letter-spacing:0px;word-spacing:0px;text-anchor:middle;opacity:1;fill:#000000;fill-opacity:1;stroke:none"
       transform="matrix(1.1000385,0,0,1.1857741,-195.67082,2047.8482)"><flowRegion
         id="flowRegion2989-5-4-5-0-1-8"><rect
           id="rect2991-7-9-6-6-8-9"
           width="602.40173"
           height="310.73996"
           x="120.55251"
           y="265.53046"
           style="font-style:normal;font-variant:normal;font-weight:normal;font-stretch:normal;font-family:Lavi;-inkscape-font-specification:Lavi;text-align:center;text-anchor:middle" /></flowRegion><flowPara
         style="font-style:normal;font-variant:normal;font-weight:normal;font-stretch:normal;font-size:48px;line-height:1.25;font-family:'Drukaatie burti';-inkscape-font-specification:'Drukaatie burti';text-align:center;text-anchor:middle;fill:#ffffff;fill-opacity:1"
         id="flowPara1090-1">Grandis…</flowPara><flowPara
         style="font-style:normal;font-variant:normal;font-weight:normal;font-stretch:normal;font-size:48px;line-height:1.25;font-family:'Drukaatie burti';-inkscape-font-specification:'Drukaatie burti';text-align:center;text-anchor:middle;fill:#ffffff;fill-opacity:1"
         id="flowPara1212">Grandis,</flowPara><flowPara
         style="font-style:normal;font-variant:normal;font-weight:normal;font-stretch:normal;font-size:48px;line-height:1.25;font-family:'Drukaatie burti';-inkscape-font-specification:'Drukaatie burti';text-align:center;text-anchor:middle;fill:#ffffff;fill-opacity:1"
         id="flowPara1214">petite faille !</flowPara></flowRoot>    <flowRoot
       xml:space="preserve"
       id="flowRoot2987-4-9-3-6-6-2-8"
       style="font-style:normal;font-variant:normal;font-weight:normal;font-stretch:normal;line-height:0.01%;font-family:Lavi;-inkscape-font-specification:Lavi;text-align:center;letter-spacing:0px;word-spacing:0px;text-anchor:middle;opacity:1;fill:#000000;fill-opacity:1;stroke:none"
       transform="matrix(1.1000385,0,0,1.1857741,220.29464,2049.1857)"><flowRegion
         id="flowRegion2989-5-4-5-0-1-8-4"><rect
           id="rect2991-7-9-6-6-8-9-5"
           width="615.85046"
           height="407.77811"
           x="120.55251"
           y="265.53046"
           style="font-style:normal;font-variant:normal;font-weight:normal;font-stretch:normal;font-family:Lavi;-inkscape-font-specification:Lavi;text-align:center;text-anchor:middle" /></flowRegion><flowPara
         style="font-style:normal;font-variant:normal;font-weight:normal;font-stretch:normal;font-size:48px;line-height:1.25;font-family:'Drukaatie burti';-inkscape-font-specification:'Drukaatie burti';text-align:center;text-anchor:middle;fill:#ffffff;fill-opacity:1"
         id="flowPara1311">Et dévoile-moi</flowPara><flowPara
         style="font-style:normal;font-variant:normal;font-weight:normal;font-stretch:normal;font-size:48px;line-height:1.25;font-family:'Drukaatie burti';-inkscape-font-specification:'Drukaatie burti';text-align:center;text-anchor:middle;fill:#ffffff;fill-opacity:1"
         id="flowPara1214-6">ce nouveau monde</flowPara><flowPara
         style="font-style:normal;font-variant:normal;font-weight:normal;font-stretch:normal;font-size:48px;line-height:1.25;font-family:'Drukaatie burti';-inkscape-font-specification:'Drukaatie burti';text-align:center;text-anchor:middle;fill:#ffffff;fill-opacity:1"
         id="flowPara1321">à ASSERVIR</flowPara><flowPara
         style="font-style:normal;font-variant:normal;font-weight:normal;font-stretch:normal;font-size:48px;line-height:1.25;font-family:'Drukaatie burti';-inkscape-font-specification:'Drukaatie burti';text-align:center;text-anchor:middle;fill:#ffffff;fill-opacity:1"
         id="flowPara1323">ET DOMINER !</flowPara></flowRoot>    <flowRoot
       xml:space="preserve"
       id="flowRoot2987-4-9-3-6-6-2-8-6"
       style="font-style:normal;font-variant:normal;font-weight:normal;font-stretch:normal;line-height:0.01%;font-family:Lavi;-inkscape-font-specification:Lavi;text-align:center;letter-spacing:0px;word-spacing:0px;text-anchor:middle;opacity:1;fill:#000000;fill-opacity:1;stroke:none"
       transform="matrix(1.1000385,0,0,1.1857741,820.7871,2125.6308)"><flowRegion
         id="flowRegion2989-5-4-5-0-1-8-4-1"><rect
           id="rect2991-7-9-6-6-8-9-5-5"
           width="615.85046"
           height="407.77811"
           x="120.55251"
           y="265.53046"
           style="font-style:normal;font-variant:normal;font-weight:normal;font-stretch:normal;font-family:Lavi;-inkscape-font-specification:Lavi;text-align:center;text-anchor:middle" /></flowRegion><flowPara
         style="font-style:normal;font-variant:normal;font-weight:normal;font-stretch:normal;font-size:48px;line-height:1.25;font-family:'Drukaatie burti';-inkscape-font-specification:'Drukaatie burti';text-align:center;text-anchor:middle;fill:#ffffff;fill-opacity:1"
         id="flowPara1323-6">Oh oh…</flowPara></flowRoot>    <flowRoot
       xml:space="preserve"
       id="flowRoot2987-4-9-3-6-6-2-8-6-5"
       style="font-style:normal;font-variant:normal;font-weight:normal;font-stretch:normal;line-height:0.01%;font-family:Lavi;-inkscape-font-specification:Lavi;text-align:center;letter-spacing:0px;word-spacing:0px;text-anchor:middle;opacity:1;fill:#000000;fill-opacity:1;stroke:none"
       transform="matrix(1.1000385,0,0,1.1857741,878.03386,2890.9144)"><flowRegion
         id="flowRegion2989-5-4-5-0-1-8-4-1-2"><rect
           id="rect2991-7-9-6-6-8-9-5-5-5"
           width="615.85046"
           height="407.77811"
           x="120.55251"
           y="265.53046"
           style="font-style:normal;font-variant:normal;font-weight:normal;font-stretch:normal;font-family:Lavi;-inkscape-font-specification:Lavi;text-align:center;text-anchor:middle" /></flowRegion><flowPara
         style="font-style:normal;font-variant:normal;font-weight:normal;font-stretch:normal;font-size:48px;line-height:1.25;font-family:'Drukaatie burti';-inkscape-font-specification:'Drukaatie burti';text-align:center;text-anchor:middle;fill:#ffffff;fill-opacity:1"
         id="flowPara1323-6-4">Voilà quelque chose de</flowPara><flowPara
         style="font-style:normal;font-variant:normal;font-weight:normal;font-stretch:normal;font-size:48px;line-height:1.25;font-family:'Drukaatie burti';-inkscape-font-specification:'Drukaatie burti';text-align:center;text-anchor:middle;fill:#ffffff;fill-opacity:1"
         id="flowPara1513">bien intéressant.</flowPara></flowRoot>    <flowRoot
       xml:space="preserve"
       id="flowRoot2987-4-9-3-6-6-2-8-6-5-4"
       style="font-style:normal;font-variant:normal;font-weight:normal;font-stretch:normal;line-height:0.01%;font-family:Lavi;-inkscape-font-specification:Lavi;text-align:center;letter-spacing:0px;word-spacing:0px;text-anchor:middle;opacity:1;fill:#000000;fill-opacity:1;stroke:none"
       transform="matrix(1.1000385,0,0,1.1857741,1618.0127,2759.8542)"><flowRegion
         id="flowRegion2989-5-4-5-0-1-8-4-1-2-9"><rect
           id="rect2991-7-9-6-6-8-9-5-5-5-2"
           width="615.85046"
           height="407.77811"
           x="120.55251"
           y="265.53046"
           style="font-style:normal;font-variant:normal;font-weight:normal;font-stretch:normal;font-family:Lavi;-inkscape-font-specification:Lavi;text-align:center;text-anchor:middle" /></flowRegion><flowPara
         style="font-style:normal;font-variant:normal;font-weight:normal;font-stretch:normal;font-size:48px;line-height:1.25;font-family:'Drukaatie burti';-inkscape-font-specification:'Drukaatie burti';text-align:center;text-anchor:middle;fill:#ffffff;fill-opacity:1"
         id="flowPara1513-6">On peut même</flowPara><flowPara
         style="font-style:normal;font-variant:normal;font-weight:normal;font-stretch:normal;font-size:48px;line-height:1.25;font-family:'Drukaatie burti';-inkscape-font-specification:'Drukaatie burti';text-align:center;text-anchor:middle;fill:#ffffff;fill-opacity:1"
         id="flowPara1634">dire que c'est</flowPara><flowPara
         style="font-style:normal;font-variant:normal;font-weight:normal;font-stretch:normal;font-size:48px;line-height:1.25;font-family:'Drukaatie burti';-inkscape-font-specification:'Drukaatie burti';text-align:center;text-anchor:middle;fill:#ffffff;fill-opacity:1"
         id="flowPara1636">mon jour de</flowPara><flowPara
         style="font-style:normal;font-variant:normal;font-weight:normal;font-stretch:normal;font-size:48px;line-height:1.25;font-family:'Drukaatie burti';-inkscape-font-specification:'Drukaatie burti';text-align:center;text-anchor:middle;fill:#ffffff;fill-opacity:1"
         id="flowPara1638">chance…</flowPara></flowRoot>  </g>
</svg>
