<?xml version="1.0" encoding="UTF-8" standalone="no"?>
<!-- Created with Inkscape (http://www.inkscape.org/) -->

<svg
   xmlns:dc="http://purl.org/dc/elements/1.1/"
   xmlns:cc="http://creativecommons.org/ns#"
   xmlns:rdf="http://www.w3.org/1999/02/22-rdf-syntax-ns#"
   xmlns:svg="http://www.w3.org/2000/svg"
   xmlns="http://www.w3.org/2000/svg"
   xmlns:xlink="http://www.w3.org/1999/xlink"
   xmlns:sodipodi="http://sodipodi.sourceforge.net/DTD/sodipodi-0.dtd"
   xmlns:inkscape="http://www.inkscape.org/namespaces/inkscape"
   id="svg2"
   version="1.1"
   inkscape:version="0.92.2 2405546, 2018-03-11"
   width="2481"
   height="5350"
   sodipodi:docname="E26P07.svg">
  <metadata
     id="metadata8">
    <rdf:RDF>
      <cc:Work
         rdf:about="">
        <dc:format>image/svg+xml</dc:format>
        <dc:type
           rdf:resource="http://purl.org/dc/dcmitype/StillImage" />
        <dc:title></dc:title>
      </cc:Work>
    </rdf:RDF>
  </metadata>
  <defs
     id="defs6">
    <filter
       inkscape:label="Drop Shadow"
       id="filter5546"
       style="color-interpolation-filters:sRGB">
      <feFlood
         flood-opacity="1"
         flood-color="rgb(0,0,0)"
         result="flood"
         id="feFlood5548" />
      <feComposite
         in="flood"
         in2="SourceGraphic"
         operator="in"
         result="composite1"
         id="feComposite5550" />
      <feGaussianBlur
         in="composite1"
         stdDeviation="1"
         result="blur"
         id="feGaussianBlur5552" />
      <feOffset
         dx="2.5"
         dy="2.5"
         result="offset"
         id="feOffset5554" />
      <feComposite
         in="SourceGraphic"
         in2="offset"
         operator="over"
         result="composite2"
         id="feComposite5556" />
    </filter>
  </defs>
  <sodipodi:namedview
     pagecolor="#ffffff"
     bordercolor="#666666"
     borderopacity="1"
     objecttolerance="10"
     gridtolerance="10"
     guidetolerance="10"
     inkscape:pageopacity="0"
     inkscape:pageshadow="2"
     inkscape:window-width="1438"
     inkscape:window-height="836"
     id="namedview4"
     showgrid="false"
     inkscape:zoom="0.27"
     inkscape:cx="1237.9225"
     inkscape:cy="8124.9145"
     inkscape:window-x="0"
     inkscape:window-y="0"
     inkscape:window-maximized="0"
     inkscape:current-layer="layer2"
     inkscape:object-nodes="true"
     showguides="true"
     inkscape:guide-bbox="true">
    <sodipodi:guide
       position="1663.7082,5257.4089"
       orientation="0,1"
       id="guide4214"
       inkscape:locked="false" />
  </sodipodi:namedview>
  <g
     inkscape:groupmode="layer"
     id="layer1"
     inkscape:label="artwork"
     style="display:inline"
     transform="translate(0,1374)"
     sodipodi:insensitive="true">
    <image
       sodipodi:absref="/home/midgard/git/peppercarrot/comics/ep26_Books-Are-Great/lang/eo/../gfx_Pepper-and-Carrot_by-David-Revoy_E26P07.png"
       xlink:href="../gfx_Pepper-and-Carrot_by-David-Revoy_E26P07.png"
       width="2481"
       height="5350"
       preserveAspectRatio="none"
       style="image-rendering:optimizeQuality"
       id="image4223"
       x="0.54707891"
       y="-1373.3771" />
  </g>
  <g
     inkscape:groupmode="layer"
     id="layer3"
     inkscape:label="speechbubbles"
     style="display:inline"
     transform="translate(0,1374)" />
  <g
     inkscape:groupmode="layer"
     id="layer2"
     inkscape:label="text"
     style="display:inline;opacity:0.85500004"
     transform="translate(0,1374)">
    <text
       xml:space="preserve"
       style="font-style:normal;font-variant:normal;font-weight:normal;font-stretch:normal;line-height:0%;font-family:Lavi;-inkscape-font-specification:Lavi;text-align:center;letter-spacing:0px;word-spacing:0px;text-anchor:middle;fill:#000000;fill-opacity:1;stroke:none"
       x="1258.3041"
       y="-504.4682"
       id="text4246-42"><tspan
         sodipodi:role="line"
         style="font-style:normal;font-variant:normal;font-weight:bold;font-stretch:normal;font-size:36.73472214px;line-height:1.25;font-family:Lavi;-inkscape-font-specification:'Lavi Bold';fill:#000000;fill-opacity:1;stroke:none"
         x="1264.0438"
         y="-504.4682"
         id="tspan873"> </tspan></text>
    <text
       id="text4151"
       y="-1282.7114"
       x="1258.21"
       style="color:#000000;font-style:normal;font-variant:normal;font-weight:normal;font-stretch:normal;line-height:0%;font-family:Lavi;-inkscape-font-specification:Lavi;text-indent:0;text-align:center;text-decoration:none;text-decoration-line:none;letter-spacing:0px;word-spacing:0px;text-transform:none;writing-mode:lr-tb;direction:ltr;baseline-shift:baseline;text-anchor:middle;display:inline;overflow:visible;visibility:visible;opacity:0.85500004;fill:#060404;fill-opacity:1;fill-rule:nonzero;stroke:none;stroke-width:1.11318684;enable-background:accumulate"
       xml:space="preserve"><tspan
         y="-1279.214"
         x="1258.21"
         style="color:#000000;font-style:normal;font-variant:normal;font-weight:normal;font-stretch:normal;font-size:37.70225906px;line-height:125%;font-family:Lavi;-inkscape-font-specification:Lavi;text-indent:0;text-align:center;text-decoration:none;text-decoration-line:none;letter-spacing:0px;word-spacing:0px;text-transform:none;writing-mode:lr-tb;direction:ltr;baseline-shift:baseline;text-anchor:middle;display:inline;overflow:visible;visibility:visible;fill:#060404;fill-opacity:1;fill-rule:nonzero;stroke:none;stroke-width:1.11318684;enable-background:accumulate"
         sodipodi:role="line"
         id="tspan1042" /><tspan
         y="-1248.1591"
         x="1258.21"
         style="color:#000000;font-style:normal;font-variant:normal;font-weight:normal;font-stretch:normal;font-size:37.70225906px;line-height:125%;font-family:Lavi;-inkscape-font-specification:Lavi;text-indent:0;text-align:center;text-decoration:none;text-decoration-line:none;letter-spacing:0px;word-spacing:0px;text-transform:none;writing-mode:lr-tb;direction:ltr;baseline-shift:baseline;text-anchor:middle;display:inline;overflow:visible;visibility:visible;fill:#060404;fill-opacity:1;fill-rule:nonzero;stroke:none;stroke-width:1.11318684;enable-background:accumulate"
         sodipodi:role="line"
         id="tspan1046"><tspan
   style="font-style:normal;font-variant:normal;font-weight:bold;font-stretch:normal;font-size:37.70225906px;font-family:Lavi;-inkscape-font-specification:'Lavi Bold';fill:#060404;fill-opacity:1;stroke-width:1.11318684"
   id="tspan1048">Licenco: </tspan>Creative Commons Attribution 4.0.</tspan><tspan
         y="-1201.0311"
         x="1258.21"
         style="color:#000000;font-style:normal;font-variant:normal;font-weight:normal;font-stretch:normal;font-size:37.70225906px;line-height:125%;font-family:Lavi;-inkscape-font-specification:Lavi;text-indent:0;text-align:center;text-decoration:none;text-decoration-line:none;letter-spacing:0px;word-spacing:0px;text-transform:none;writing-mode:lr-tb;direction:ltr;baseline-shift:baseline;text-anchor:middle;display:inline;overflow:visible;visibility:visible;fill:#060404;fill-opacity:1;fill-rule:nonzero;stroke:none;stroke-width:1.11318684;enable-background:accumulate"
         sodipodi:role="line"
         id="tspan1097"><tspan
   style="font-weight:bold;stroke-width:1.11318684"
   id="tspan283">Programaro:</tspan> Krita 4.1, Inkscape 0.92.3 on Kubuntu 17.10.</tspan><tspan
         y="-1153.9033"
         x="1264.101"
         style="color:#000000;font-style:normal;font-variant:normal;font-weight:normal;font-stretch:normal;font-size:37.70225906px;line-height:125%;font-family:Lavi;-inkscape-font-specification:Lavi;text-indent:0;text-align:center;text-decoration:none;text-decoration-line:none;letter-spacing:0px;word-spacing:0px;text-transform:none;writing-mode:lr-tb;direction:ltr;baseline-shift:baseline;text-anchor:middle;display:inline;overflow:visible;visibility:visible;fill:#060404;fill-opacity:1;fill-rule:nonzero;stroke:none;stroke-width:1.11318684;enable-background:accumulate"
         sodipodi:role="line"
         id="tspan938"> </tspan><tspan
         y="-1106.7755"
         x="1258.21"
         style="color:#000000;font-style:normal;font-variant:normal;font-weight:normal;font-stretch:normal;font-size:37.70225906px;line-height:125%;font-family:Lavi;-inkscape-font-specification:Lavi;text-indent:0;text-align:center;text-decoration:none;text-decoration-line:none;letter-spacing:0px;word-spacing:0px;text-transform:none;writing-mode:lr-tb;direction:ltr;baseline-shift:baseline;text-anchor:middle;display:inline;overflow:visible;visibility:visible;fill:#060404;fill-opacity:1;fill-rule:nonzero;stroke:none;stroke-width:1.11318684;enable-background:accumulate"
         sodipodi:role="line"
         id="tspan1101"><tspan
   style="font-style:normal;font-variant:normal;font-weight:bold;font-stretch:normal;font-size:37.70225906px;font-family:Lavi;-inkscape-font-specification:'Lavi Bold';fill:#060404;fill-opacity:1;stroke-width:1.11318684"
   id="tspan1103">Arto kaj scenaro: </tspan>David Revoy.</tspan><tspan
         y="-1059.6477"
         x="1258.21"
         style="color:#000000;font-style:normal;font-variant:normal;font-weight:normal;font-stretch:normal;font-size:37.70225906px;line-height:125%;font-family:Lavi;-inkscape-font-specification:Lavi;text-indent:0;text-align:center;text-decoration:none;text-decoration-line:none;letter-spacing:0px;word-spacing:0px;text-transform:none;writing-mode:lr-tb;direction:ltr;baseline-shift:baseline;text-anchor:middle;display:inline;overflow:visible;visibility:visible;fill:#060404;fill-opacity:1;fill-rule:nonzero;stroke:none;stroke-width:1.11318684;enable-background:accumulate"
         sodipodi:role="line"
         id="tspan943"><tspan
   style="font-style:normal;font-variant:normal;font-weight:bold;font-stretch:normal;font-size:37.70225906px;font-family:Lavi;-inkscape-font-specification:'Lavi Bold';fill:#060404;fill-opacity:1;stroke-width:1.11318684"
   id="tspan945">Dialoga pliboneĝo:</tspan> Craig Maloney.</tspan><tspan
         y="-1012.5199"
         x="1258.21"
         style="color:#000000;font-style:normal;font-variant:normal;font-weight:normal;font-stretch:normal;font-size:37.70225906px;line-height:125%;font-family:Lavi;-inkscape-font-specification:Lavi;text-indent:0;text-align:center;text-decoration:none;text-decoration-line:none;letter-spacing:0px;word-spacing:0px;text-transform:none;writing-mode:lr-tb;direction:ltr;baseline-shift:baseline;text-anchor:middle;display:inline;overflow:visible;visibility:visible;fill:#060404;fill-opacity:1;fill-rule:nonzero;stroke:none;stroke-width:1.11318684;enable-background:accumulate"
         sodipodi:role="line"
         id="tspan290"><tspan
   style="font-weight:bold;stroke-width:1.11318684"
   id="tspan292">Beta leganto:</tspan> Ambernite, Craig Maloney, CalimeroTeknik, Jookia, Midgard, Nartance, Popolon, Quiralta, Valvin, xHire, Zeograd.</tspan><tspan
         y="-982.31433"
         x="1261.2158"
         style="color:#000000;font-style:normal;font-variant:normal;font-weight:normal;font-stretch:normal;font-size:19.23734093px;line-height:125%;font-family:Lavi;-inkscape-font-specification:Lavi;text-indent:0;text-align:center;text-decoration:none;text-decoration-line:none;letter-spacing:0px;word-spacing:0px;text-transform:none;writing-mode:lr-tb;direction:ltr;baseline-shift:baseline;text-anchor:middle;display:inline;overflow:visible;visibility:visible;fill:#060404;fill-opacity:1;fill-rule:nonzero;stroke:none;stroke-width:1.11318684;enable-background:accumulate"
         sodipodi:role="line"
         id="tspan285"> </tspan><tspan
         y="-941.3454"
         x="1258.21"
         style="color:#000000;font-style:normal;font-variant:normal;font-weight:bold;font-stretch:normal;font-size:37.70225906px;line-height:125%;font-family:Lavi;-inkscape-font-specification:Lavi;text-indent:0;text-align:center;text-decoration:none;text-decoration-line:none;letter-spacing:0px;word-spacing:0px;text-transform:none;writing-mode:lr-tb;direction:ltr;baseline-shift:baseline;text-anchor:middle;display:inline;overflow:visible;visibility:visible;fill:#060404;fill-opacity:1;fill-rule:nonzero;stroke:none;stroke-width:1.11318684;enable-background:accumulate"
         sodipodi:role="line"
         id="tspan1018">Esperanta versiono</tspan><tspan
         y="-894.21759"
         x="1258.21"
         style="color:#000000;font-style:normal;font-variant:normal;font-weight:normal;font-stretch:normal;font-size:37.70225906px;line-height:125%;font-family:Lavi;-inkscape-font-specification:Lavi;text-indent:0;text-align:center;text-decoration:none;text-decoration-line:none;letter-spacing:0px;word-spacing:0px;text-transform:none;writing-mode:lr-tb;direction:ltr;baseline-shift:baseline;text-anchor:middle;display:inline;overflow:visible;visibility:visible;fill:#060404;fill-opacity:1;fill-rule:nonzero;stroke:none;stroke-width:1.11318684;enable-background:accumulate"
         sodipodi:role="line"
         id="tspan4056">Jorge Maldonado Ventura.</tspan><tspan
         y="-847.08972"
         x="1264.101"
         style="color:#000000;font-style:normal;font-variant:normal;font-weight:bold;font-stretch:normal;font-size:37.70225906px;line-height:125%;font-family:Lavi;-inkscape-font-specification:'Lavi Bold';text-indent:0;text-align:center;text-decoration:none;text-decoration-line:none;letter-spacing:0px;word-spacing:0px;text-transform:none;writing-mode:lr-tb;direction:ltr;baseline-shift:baseline;text-anchor:middle;display:inline;overflow:visible;visibility:visible;fill:#060404;fill-opacity:1;fill-rule:nonzero;stroke:none;stroke-width:1.11318684;enable-background:accumulate"
         sodipodi:role="line"
         id="tspan1026"> </tspan><tspan
         y="-799.96191"
         x="1258.21"
         style="color:#000000;font-style:normal;font-variant:normal;font-weight:bold;font-stretch:normal;font-size:37.70225906px;line-height:125%;font-family:Lavi;-inkscape-font-specification:'Lavi Bold';text-indent:0;text-align:center;text-decoration:none;text-decoration-line:none;letter-spacing:0px;word-spacing:0px;text-transform:none;writing-mode:lr-tb;direction:ltr;baseline-shift:baseline;text-anchor:middle;display:inline;overflow:visible;visibility:visible;fill:#060404;fill-opacity:1;fill-rule:nonzero;stroke:none;stroke-width:1.11318684;enable-background:accumulate"
         sodipodi:role="line"
         id="tspan1028">Surbaze de la universo de Hereva</tspan><tspan
         y="-752.83411"
         x="1258.21"
         style="color:#000000;font-style:normal;font-variant:normal;font-weight:normal;font-stretch:normal;font-size:37.70225906px;line-height:125%;font-family:Lavi;-inkscape-font-specification:Lavi;text-indent:0;text-align:center;text-decoration:none;text-decoration-line:none;letter-spacing:0px;word-spacing:0px;text-transform:none;writing-mode:lr-tb;direction:ltr;baseline-shift:baseline;text-anchor:middle;display:inline;overflow:visible;visibility:visible;fill:#060404;fill-opacity:1;fill-rule:nonzero;stroke:none;stroke-width:1.11318684;enable-background:accumulate"
         sodipodi:role="line"
         id="tspan979"><tspan
   style="font-weight:bold;font-size:37.70225906px;stroke-width:1.11318684"
   id="tspan987">Estigo:</tspan> David Revoy.</tspan><tspan
         y="-705.7063"
         x="1258.21"
         style="color:#000000;font-style:normal;font-variant:normal;font-weight:normal;font-stretch:normal;font-size:37.70225906px;line-height:125%;font-family:Lavi;-inkscape-font-specification:Lavi;text-indent:0;text-align:center;text-decoration:none;text-decoration-line:none;letter-spacing:0px;word-spacing:0px;text-transform:none;writing-mode:lr-tb;direction:ltr;baseline-shift:baseline;text-anchor:middle;display:inline;overflow:visible;visibility:visible;fill:#060404;fill-opacity:1;fill-rule:nonzero;stroke:none;stroke-width:1.11318684;enable-background:accumulate"
         sodipodi:role="line"
         id="tspan981"><tspan
   style="font-weight:bold;font-size:37.70225906px;stroke-width:1.11318684"
   id="tspan989">Ĉefa daŭriganto:</tspan> Craig Maloney.</tspan><tspan
         y="-658.57843"
         x="1258.21"
         style="color:#000000;font-style:normal;font-variant:normal;font-weight:normal;font-stretch:normal;font-size:37.70225906px;line-height:125%;font-family:Lavi;-inkscape-font-specification:Lavi;text-indent:0;text-align:center;text-decoration:none;text-decoration-line:none;letter-spacing:0px;word-spacing:0px;text-transform:none;writing-mode:lr-tb;direction:ltr;baseline-shift:baseline;text-anchor:middle;display:inline;overflow:visible;visibility:visible;fill:#060404;fill-opacity:1;fill-rule:nonzero;stroke:none;stroke-width:1.11318684;enable-background:accumulate"
         sodipodi:role="line"
         id="tspan983"><tspan
   style="font-weight:bold;font-size:37.70225906px;stroke-width:1.11318684"
   id="tspan991">Skribistoj:</tspan> Craig Maloney, Nartance, Scribblemaniac, Valvin.</tspan><tspan
         y="-611.45062"
         x="1258.21"
         style="color:#000000;font-style:normal;font-variant:normal;font-weight:normal;font-stretch:normal;font-size:37.70225906px;line-height:125%;font-family:Lavi;-inkscape-font-specification:Lavi;text-indent:0;text-align:center;text-decoration:none;text-decoration-line:none;letter-spacing:0px;word-spacing:0px;text-transform:none;writing-mode:lr-tb;direction:ltr;baseline-shift:baseline;text-anchor:middle;display:inline;overflow:visible;visibility:visible;fill:#060404;fill-opacity:1;fill-rule:nonzero;stroke:none;stroke-width:1.11318684;enable-background:accumulate"
         sodipodi:role="line"
         id="tspan985"><tspan
   style="font-weight:bold;font-size:37.70225906px;stroke-width:1.11318684"
   id="tspan993">Korektistoj:</tspan> Willem Sonke, Moini, Hali, CGand, Alex Gryson.</tspan><tspan
         y="-581.24506"
         x="1261.2158"
         style="color:#000000;font-style:normal;font-variant:normal;font-weight:normal;font-stretch:normal;font-size:19.23734093px;line-height:125%;font-family:Lavi;-inkscape-font-specification:Lavi;text-indent:0;text-align:center;text-decoration:none;text-decoration-line:none;letter-spacing:0px;word-spacing:0px;text-transform:none;writing-mode:lr-tb;direction:ltr;baseline-shift:baseline;text-anchor:middle;display:inline;overflow:visible;visibility:visible;fill:#060404;fill-opacity:1;fill-rule:nonzero;stroke:none;stroke-width:1.11318684;enable-background:accumulate"
         sodipodi:role="line"
         id="tspan1052"> </tspan><tspan
         y="-540.27612"
         x="1258.21"
         style="color:#000000;font-style:normal;font-variant:normal;font-weight:bold;font-stretch:normal;font-size:37.70225906px;line-height:125%;font-family:Lavi;-inkscape-font-specification:'Lavi Bold';text-indent:0;text-align:center;text-decoration:none;text-decoration-line:none;letter-spacing:0px;word-spacing:0px;text-transform:none;writing-mode:lr-tb;direction:ltr;baseline-shift:baseline;text-anchor:middle;display:inline;overflow:visible;visibility:visible;fill:#060404;fill-opacity:1;fill-rule:nonzero;stroke:none;stroke-width:1.11318684;enable-background:accumulate"
         sodipodi:role="line"
         id="tspan995">28 Julio 2018</tspan><tspan
         y="-493.14832"
         x="1264.101"
         style="color:#000000;font-style:normal;font-variant:normal;font-weight:normal;font-stretch:normal;font-size:37.70225906px;line-height:125%;font-family:Lavi;-inkscape-font-specification:Lavi;text-indent:0;text-align:center;text-decoration:none;text-decoration-line:none;letter-spacing:0px;word-spacing:0px;text-transform:none;writing-mode:lr-tb;direction:ltr;baseline-shift:baseline;text-anchor:middle;display:inline;overflow:visible;visibility:visible;fill:#060404;fill-opacity:1;fill-rule:nonzero;stroke:none;stroke-width:1.11318684;enable-background:accumulate"
         sodipodi:role="line"
         id="tspan842"><tspan
   id="tspan19888"
   style="color:#000000;font-style:normal;font-variant:normal;font-weight:bold;font-stretch:normal;font-size:37.70225906px;line-height:125%;font-family:Lavi;-inkscape-font-specification:'Lavi Bold';text-indent:0;text-align:center;text-decoration:none;text-decoration-line:none;letter-spacing:0px;word-spacing:0px;text-transform:none;writing-mode:lr-tb;direction:ltr;baseline-shift:baseline;text-anchor:middle;display:inline;overflow:visible;visibility:visible;fill:#060404;fill-opacity:1;fill-rule:nonzero;stroke:none;stroke-width:1.11318684;enable-background:accumulate">www.peppercarrot.com</tspan> </tspan></text>
    <text
       xml:space="preserve"
       style="color:#000000;font-style:normal;font-variant:normal;font-weight:normal;font-stretch:normal;line-height:0%;font-family:Lavi;-inkscape-font-specification:Lavi;text-indent:0;text-align:center;text-decoration:none;text-decoration-line:none;letter-spacing:0px;word-spacing:0px;text-transform:none;writing-mode:lr-tb;direction:ltr;baseline-shift:baseline;text-anchor:middle;display:inline;overflow:visible;visibility:visible;opacity:0.85500004;fill:#020101;fill-opacity:1;fill-rule:nonzero;stroke:none;enable-background:accumulate"
       x="1991.2159"
       y="-910.79004"
       id="text4246-42-4"><tspan
         sodipodi:role="line"
         style="color:#000000;font-style:normal;font-variant:normal;font-weight:normal;font-stretch:normal;font-size:37.33333206px;line-height:125%;font-family:Lavi;-inkscape-font-specification:Lavi;text-indent:0;text-align:center;text-decoration:none;text-decoration-line:none;letter-spacing:0px;word-spacing:0px;text-transform:none;writing-mode:lr-tb;direction:ltr;baseline-shift:baseline;text-anchor:middle;display:inline;overflow:visible;visibility:visible;fill:#020101;fill-opacity:1;fill-rule:nonzero;stroke:none;enable-background:accumulate"
         x="1997.0493"
         y="-910.79004"
         id="tspan927"> </tspan></text>
    <text
       xml:space="preserve"
       style="font-style:normal;font-variant:normal;font-weight:normal;font-stretch:normal;line-height:0%;font-family:Arial;-inkscape-font-specification:Arial;text-align:center;letter-spacing:0px;word-spacing:0px;text-anchor:middle;display:inline;opacity:0.85500004;fill:#000000;fill-opacity:1;stroke:none"
       x="1261.562"
       y="-551.26312"
       id="text4229"><tspan
         sodipodi:role="line"
         x="1267.3954"
         y="-551.26312"
         style="font-style:normal;font-variant:normal;font-weight:bold;font-stretch:normal;font-size:37.33333206px;line-height:1.25;font-family:Lavi;-inkscape-font-specification:'Lavi Bold';fill:#000000;fill-opacity:1;stroke:none"
         id="tspan4169"> </tspan></text>
    <text
       id="text4179"
       y="-1150.819"
       x="1280.0332"
       style="font-style:normal;font-variant:normal;font-weight:normal;font-stretch:normal;line-height:0%;font-family:Arial;-inkscape-font-specification:Arial;text-align:center;letter-spacing:0px;word-spacing:0px;text-anchor:middle;display:inline;opacity:0.85500004;fill:#241c1c;fill-opacity:1;stroke:none"
       xml:space="preserve"><tspan
         id="tspan4181"
         style="font-style:normal;font-variant:normal;font-weight:bold;font-stretch:normal;font-size:35px;line-height:1.25;font-family:Lavi;-inkscape-font-specification:'Lavi Bold';fill:#241c1c;stroke:none"
         y="-1150.819"
         x="1285.502"
         sodipodi:role="line"> </tspan></text>
    <text
       xml:space="preserve"
       style="font-style:normal;font-variant:normal;font-weight:normal;font-stretch:normal;line-height:0%;font-family:Arial;-inkscape-font-specification:Arial;text-align:center;letter-spacing:0px;word-spacing:0px;text-anchor:middle;display:inline;opacity:0.85500004;fill:#483e37;fill-opacity:1;stroke:none;filter:url(#filter4155)"
       x="1240.1191"
       y="3863.2971"
       id="text4221-3"><tspan
         sodipodi:role="line"
         id="tspan4223-6"
         x="1240.1191"
         y="3863.2971"
         style="font-style:normal;font-variant:normal;font-weight:normal;font-stretch:normal;font-size:40px;line-height:1.25;font-family:Lavi;-inkscape-font-specification:Lavi;fill:#483e37">Vi ankaŭ povas iĝi mecenanto el Pepper&amp;Carrot en www.patreon.com/davidrevoy</tspan></text>
    <text
       xml:space="preserve"
       style="font-style:normal;font-variant:normal;font-weight:normal;font-stretch:normal;line-height:0%;font-family:Arial;-inkscape-font-specification:Arial;text-align:center;letter-spacing:0px;word-spacing:0px;text-anchor:middle;display:inline;opacity:0.85500004;fill:#483e37;fill-opacity:1;stroke:none;filter:url(#filter4155)"
       x="1243.3711"
       y="-375.95468"
       id="text4162-7"><tspan
         sodipodi:role="line"
         x="1243.3711"
         y="-375.95468"
         style="font-style:normal;font-variant:normal;font-weight:normal;font-stretch:normal;font-size:40px;line-height:1.25;font-family:Lavi;-inkscape-font-specification:Lavi;fill:#483e37"
         id="tspan3384">Pepper&amp;Carrot estas tute senpaga, libera</tspan><tspan
         sodipodi:role="line"
         x="1243.3711"
         y="-325.95468"
         style="font-style:normal;font-variant:normal;font-weight:normal;font-stretch:normal;font-size:40px;line-height:1.25;font-family:Lavi;-inkscape-font-specification:Lavi;fill:#483e37"
         id="tspan3403">kaj subtenita de siaj mecenantaj legantoj.</tspan><tspan
         sodipodi:role="line"
         x="1243.3711"
         y="-275.95468"
         style="font-style:normal;font-variant:normal;font-weight:normal;font-stretch:normal;font-size:40px;line-height:1.25;font-family:Lavi;-inkscape-font-specification:Lavi;fill:#483e37"
         id="tspan862">Por ĉi tiu rakonto, dankon al la 1098 Mecenantoj:</tspan></text>
  </g>
  <g
     inkscape:groupmode="layer"
     id="layer4"
     inkscape:label="notes"
     sodipodi:insensitive="true">
    <path
       transform="translate(0,1374)"
       style="color:#000000;clip-rule:nonzero;display:inline;overflow:visible;visibility:visible;opacity:0.481;isolation:auto;mix-blend-mode:normal;color-interpolation:sRGB;color-interpolation-filters:linearRGB;solid-color:#000000;solid-opacity:1;fill:#ffe680;fill-opacity:1;fill-rule:nonzero;stroke:#565656;stroke-width:1.20000005;stroke-linecap:butt;stroke-linejoin:miter;stroke-miterlimit:4;stroke-dasharray:none;stroke-dashoffset:0;stroke-opacity:1;marker:none;color-rendering:auto;image-rendering:auto;shape-rendering:auto;text-rendering:auto;enable-background:accumulate"
       d="m -1036.4092,-1026.4079 v 295.55649 H -48.424149 V -918.9249 h 10 v 15.6308 l 30.9825,-26.9824 -30.9825,-26.9804 v 16.6171 h -10 v -85.7681 z"
       id="rect4191-6"
       inkscape:connector-curvature="0"
       sodipodi:nodetypes="cccccccccccc" />
    <flowRoot
       xml:space="preserve"
       id="flowRoot4212-7"
       style="font-style:normal;font-variant:normal;font-weight:normal;font-stretch:normal;line-height:0.01%;font-family:Lavi;-inkscape-font-specification:'Lavi, Normal';text-align:center;letter-spacing:0px;word-spacing:0px;writing-mode:lr-tb;text-anchor:middle;display:inline;opacity:0.68900003;fill:#000000;fill-opacity:1;stroke:none;stroke-width:0.79958946px;stroke-linecap:butt;stroke-linejoin:miter;stroke-opacity:1"
       transform="matrix(1.2506418,0,0,1.2506418,-671.18097,-956.9049)"><flowRegion
         id="flowRegion4214-5"
         style="stroke-width:0.79958946px"><rect
           id="rect4216-3"
           width="756.58167"
           height="267.66235"
           x="-275.14545"
           y="1061.6674"
           style="stroke-width:0.79958946px" /></flowRegion><flowPara
         style="font-size:25.3241539px;line-height:1.25;stroke-width:0.79958946px"
         id="flowPara920">Remove the names of the people who helped to create the English version and create this section for your language. You can credit translators, proofreaders, whatever categories you want.</flowPara><flowPara
         style="font-size:25.3241539px;line-height:1.25;stroke-width:0.79958946px"
         id="flowPara915"> </flowPara><flowPara
         style="font-size:25.3241539px;line-height:1.25;stroke-width:0.79958946px"
         id="flowPara913">N.B.: In Inkscape, if you press Enter to create a new line, it will not push down text below it until the line has text. So to create a whiteline, type a space on its own line.</flowPara></flowRoot>  </g>
</svg>
