<?xml version="1.0" encoding="UTF-8" standalone="no"?>
<!-- Created with Inkscape (http://www.inkscape.org/) -->

<svg
   xmlns:dc="http://purl.org/dc/elements/1.1/"
   xmlns:cc="http://creativecommons.org/ns#"
   xmlns:rdf="http://www.w3.org/1999/02/22-rdf-syntax-ns#"
   xmlns:svg="http://www.w3.org/2000/svg"
   xmlns="http://www.w3.org/2000/svg"
   xmlns:xlink="http://www.w3.org/1999/xlink"
   xmlns:sodipodi="http://sodipodi.sourceforge.net/DTD/sodipodi-0.dtd"
   xmlns:inkscape="http://www.inkscape.org/namespaces/inkscape"
   id="svg2"
   version="1.1"
   inkscape:version="0.92.2 2405546, 2018-03-11"
   width="2481"
   height="3503"
   sodipodi:docname="E21P05.svg">
  <metadata
     id="metadata8">
    <rdf:RDF>
      <cc:Work
         rdf:about="">
        <dc:format>image/svg+xml</dc:format>
        <dc:type
           rdf:resource="http://purl.org/dc/dcmitype/StillImage" />
        <dc:title></dc:title>
      </cc:Work>
    </rdf:RDF>
  </metadata>
  <defs
     id="defs6">
    <filter
       style="color-interpolation-filters:sRGB"
       id="filter4375-4-1-1-1-9-6-9-2-2"
       inkscape:label="deevad outline effect">
      <feFlood
         id="feFlood4377-7-9-0-8-1-0-2-2-0"
         flood-opacity="1"
         flood-color="rgb(0,0,0)"
         result="flood" />
      <feComposite
         id="feComposite4379-3-8-8-2-77-6-0-8-6"
         in2="SourceGraphic"
         in="flood"
         operator="in"
         result="composite1" />
      <feMorphology
         id="feMorphology4393-1-0-49-8-9-2-2-9-1"
         operator="dilate"
         radius="4"
         result="result3" />
      <feComposite
         id="feComposite4385-9-5-7-0-8-6-3-7-5"
         in2="result3"
         in="SourceGraphic"
         operator="over"
         result="composite2" />
    </filter>
    <filter
       style="color-interpolation-filters:sRGB"
       id="filter4375-4-1-1-1-9-6-9-2"
       inkscape:label="deevad outline effect">
      <feFlood
         id="feFlood4377-7-9-0-8-1-0-2-2"
         flood-opacity="1"
         flood-color="rgb(0,0,0)"
         result="flood" />
      <feComposite
         id="feComposite4379-3-8-8-2-77-6-0-8"
         in2="SourceGraphic"
         in="flood"
         operator="in"
         result="composite1" />
      <feMorphology
         id="feMorphology4393-1-0-49-8-9-2-2-9"
         operator="dilate"
         radius="4"
         result="result3" />
      <feComposite
         id="feComposite4385-9-5-7-0-8-6-3-7"
         in2="result3"
         in="SourceGraphic"
         operator="over"
         result="composite2" />
    </filter>
    <filter
       style="color-interpolation-filters:sRGB"
       id="filter4375-4-1-1-1-9-6-9"
       inkscape:label="deevad outline effect">
      <feFlood
         id="feFlood4377-7-9-0-8-1-0-2"
         flood-opacity="1"
         flood-color="rgb(0,0,0)"
         result="flood" />
      <feComposite
         id="feComposite4379-3-8-8-2-77-6-0"
         in2="SourceGraphic"
         in="flood"
         operator="in"
         result="composite1" />
      <feMorphology
         id="feMorphology4393-1-0-49-8-9-2-2"
         operator="dilate"
         radius="4"
         result="result3" />
      <feComposite
         id="feComposite4385-9-5-7-0-8-6-3"
         in2="result3"
         in="SourceGraphic"
         operator="over"
         result="composite2" />
    </filter>
    <filter
       style="color-interpolation-filters:sRGB"
       id="filter4375-4-1-1-1-9"
       inkscape:label="deevad outline effect">
      <feFlood
         id="feFlood4377-7-9-0-8-1"
         flood-opacity="1"
         flood-color="rgb(0,0,0)"
         result="flood" />
      <feComposite
         id="feComposite4379-3-8-8-2-77"
         in2="SourceGraphic"
         in="flood"
         operator="in"
         result="composite1" />
      <feMorphology
         id="feMorphology4393-1-0-49-8-9"
         operator="dilate"
         radius="4"
         result="result3" />
      <feComposite
         id="feComposite4385-9-5-7-0-8"
         in2="result3"
         in="SourceGraphic"
         operator="over"
         result="composite2" />
    </filter>
    <filter
       style="color-interpolation-filters:sRGB"
       id="filter4375-4-1-1-1-9-6-9-2-3"
       inkscape:label="deevad outline effect">
      <feFlood
         id="feFlood4377-7-9-0-8-1-0-2-2-6"
         flood-opacity="1"
         flood-color="rgb(0,0,0)"
         result="flood" />
      <feComposite
         id="feComposite4379-3-8-8-2-77-6-0-8-7"
         in2="SourceGraphic"
         in="flood"
         operator="in"
         result="composite1" />
      <feMorphology
         id="feMorphology4393-1-0-49-8-9-2-2-9-5"
         operator="dilate"
         radius="4"
         result="result3" />
      <feComposite
         id="feComposite4385-9-5-7-0-8-6-3-7-3"
         in2="result3"
         in="SourceGraphic"
         operator="over"
         result="composite2" />
    </filter>
    <filter
       style="color-interpolation-filters:sRGB"
       id="filter4375-4-1-1-1-9-6-9-2-1"
       inkscape:label="deevad outline effect">
      <feFlood
         id="feFlood4377-7-9-0-8-1-0-2-2-2"
         flood-opacity="1"
         flood-color="rgb(0,0,0)"
         result="flood" />
      <feComposite
         id="feComposite4379-3-8-8-2-77-6-0-8-70"
         in2="SourceGraphic"
         in="flood"
         operator="in"
         result="composite1" />
      <feMorphology
         id="feMorphology4393-1-0-49-8-9-2-2-9-9"
         operator="dilate"
         radius="4"
         result="result3" />
      <feComposite
         id="feComposite4385-9-5-7-0-8-6-3-7-36"
         in2="result3"
         in="SourceGraphic"
         operator="over"
         result="composite2" />
    </filter>
    <filter
       style="color-interpolation-filters:sRGB"
       id="filter4375-4-1-1-1-9-6-9-2-2-0"
       inkscape:label="deevad outline effect">
      <feFlood
         id="feFlood4377-7-9-0-8-1-0-2-2-0-6"
         flood-opacity="1"
         flood-color="rgb(0,0,0)"
         result="flood" />
      <feComposite
         id="feComposite4379-3-8-8-2-77-6-0-8-6-2"
         in2="SourceGraphic"
         in="flood"
         operator="in"
         result="composite1" />
      <feMorphology
         id="feMorphology4393-1-0-49-8-9-2-2-9-1-6"
         operator="dilate"
         radius="4"
         result="result3" />
      <feComposite
         id="feComposite4385-9-5-7-0-8-6-3-7-5-1"
         in2="result3"
         in="SourceGraphic"
         operator="over"
         result="composite2" />
    </filter>
    <filter
       style="color-interpolation-filters:sRGB"
       id="filter4375-4-1-1-1-9-6-9-8"
       inkscape:label="deevad outline effect">
      <feFlood
         id="feFlood4377-7-9-0-8-1-0-2-7"
         flood-opacity="1"
         flood-color="rgb(0,0,0)"
         result="flood" />
      <feComposite
         id="feComposite4379-3-8-8-2-77-6-0-9"
         in2="SourceGraphic"
         in="flood"
         operator="in"
         result="composite1" />
      <feMorphology
         id="feMorphology4393-1-0-49-8-9-2-2-2"
         operator="dilate"
         radius="4"
         result="result3" />
      <feComposite
         id="feComposite4385-9-5-7-0-8-6-3-0"
         in2="result3"
         in="SourceGraphic"
         operator="over"
         result="composite2" />
    </filter>
    <filter
       style="color-interpolation-filters:sRGB"
       id="filter4375-4-1-1-1-9-6-9-2-3-2"
       inkscape:label="deevad outline effect">
      <feFlood
         id="feFlood4377-7-9-0-8-1-0-2-2-6-3"
         flood-opacity="1"
         flood-color="rgb(0,0,0)"
         result="flood" />
      <feComposite
         id="feComposite4379-3-8-8-2-77-6-0-8-7-7"
         in2="SourceGraphic"
         in="flood"
         operator="in"
         result="composite1" />
      <feMorphology
         id="feMorphology4393-1-0-49-8-9-2-2-9-5-5"
         operator="dilate"
         radius="4"
         result="result3" />
      <feComposite
         id="feComposite4385-9-5-7-0-8-6-3-7-3-9"
         in2="result3"
         in="SourceGraphic"
         operator="over"
         result="composite2" />
    </filter>
    <filter
       style="color-interpolation-filters:sRGB"
       id="filter4375-4-1-1-1-9-6-9-2-1-3"
       inkscape:label="deevad outline effect">
      <feFlood
         id="feFlood4377-7-9-0-8-1-0-2-2-06"
         flood-opacity="1"
         flood-color="rgb(0,0,0)"
         result="flood" />
      <feComposite
         id="feComposite4379-3-8-8-2-77-6-0-8-3"
         in2="SourceGraphic"
         in="flood"
         operator="in"
         result="composite1" />
      <feMorphology
         id="feMorphology4393-1-0-49-8-9-2-2-9-2"
         operator="dilate"
         radius="4"
         result="result3" />
      <feComposite
         id="feComposite4385-9-5-7-0-8-6-3-7-0"
         in2="result3"
         in="SourceGraphic"
         operator="over"
         result="composite2" />
    </filter>
  </defs>
  <sodipodi:namedview
     pagecolor="#ffffff"
     bordercolor="#666666"
     borderopacity="1"
     objecttolerance="10"
     gridtolerance="10"
     guidetolerance="10"
     inkscape:pageopacity="0"
     inkscape:pageshadow="2"
     inkscape:window-width="1920"
     inkscape:window-height="1033"
     id="namedview4"
     showgrid="false"
     inkscape:zoom="0.68781832"
     inkscape:cx="1421.4564"
     inkscape:cy="2984.2429"
     inkscape:window-x="0"
     inkscape:window-y="47"
     inkscape:window-maximized="0"
     inkscape:current-layer="layer1"
     showguides="false" />
  <g
     inkscape:groupmode="layer"
     id="layer2"
     inkscape:label="artwork"
     sodipodi:insensitive="true">
    <image
       sodipodi:absref="/home/midgard/git/peppercarrot/comics/ep21_The-Magic-Contest/lang/nl/../gfx_Pepper-and-Carrot_by-David-Revoy_E21P05.png"
       xlink:href="../gfx_Pepper-and-Carrot_by-David-Revoy_E21P05.png"
       width="2481"
       height="3503"
       id="image10"
       x="0"
       y="0" />
  </g>
  <g
     inkscape:groupmode="layer"
     id="layer4"
     inkscape:label="transla-notes">
    <path
       style="color:#000000;clip-rule:nonzero;display:inline;overflow:visible;visibility:visible;opacity:0.481;isolation:auto;mix-blend-mode:normal;color-interpolation:sRGB;color-interpolation-filters:linearRGB;solid-color:#000000;solid-opacity:1;fill:#ffe680;fill-opacity:1;fill-rule:nonzero;stroke:#565656;stroke-width:1.20000005;stroke-linecap:butt;stroke-linejoin:miter;stroke-miterlimit:4;stroke-dasharray:none;stroke-dashoffset:0;stroke-opacity:1;marker:none;color-rendering:auto;image-rendering:auto;shape-rendering:auto;text-rendering:auto;enable-background:accumulate"
       d="m -465.52729,1467.3488 0,189.0351 203.83,0 0,-90.9805 10,0 0,15.6308 30.9825,-26.9824 -30.9825,-26.9804 0,16.6171 -10,0 0,-76.3397 -203.83,0 z"
       id="rect4191-6"
       inkscape:connector-curvature="0" />
    <flowRoot
       xml:space="preserve"
       id="flowRoot4212-7"
       style="font-style:normal;font-variant:normal;font-weight:normal;font-stretch:normal;line-height:0.01%;font-family:Lavi;-inkscape-font-specification:'Lavi, Normal';text-align:center;letter-spacing:0px;word-spacing:0px;writing-mode:lr-tb;text-anchor:middle;display:inline;opacity:0.481;fill:#000000;fill-opacity:1;stroke:none;stroke-width:1px;stroke-linecap:butt;stroke-linejoin:miter;stroke-opacity:1"
       transform="translate(-235.83689,459.1052)"><flowRegion
         id="flowRegion4214-5"><rect
           id="rect4216-3"
           width="291.95547"
           height="247.52747"
           x="-275.14545"
           y="1061.6674" /></flowRegion><flowPara
         id="flowPara4218-5"
         style="font-size:25.3241539px;line-height:1.25">Edit this one,</flowPara><flowPara
         id="flowPara4562"
         style="font-size:25.3241539px;line-height:1.25">all other one</flowPara><flowPara
         id="flowPara4564"
         style="font-size:25.3241539px;line-height:1.25">are linked</flowPara></flowRoot>    <text
       xml:space="preserve"
       style="font-style:normal;font-variant:normal;font-weight:normal;font-stretch:normal;line-height:0%;font-family:Lavi;-inkscape-font-specification:Lavi;letter-spacing:0px;word-spacing:0px;display:inline;fill:#000000;fill-opacity:1;stroke:#000000;stroke-width:0.99236238;stroke-miterlimit:4;stroke-dasharray:none;stroke-opacity:1;filter:url(#filter4375-4-1-1-1-9-6-9-2-1-3)"
       x="787.65729"
       y="1584.5073"
       id="text4580-1-7-3-6"
       transform="matrix(0.96380061,-0.56217228,-0.1779318,1.4896521,-681.35295,-300.2468)"><tspan
         sodipodi:role="line"
         id="tspan4582-8-5-6-1"
         x="787.65729"
         y="1584.5073"
         style="font-size:70px;line-height:1.25;fill:#ffffff">Klap</tspan></text>
  </g>
  <g
     inkscape:groupmode="layer"
     id="layer3"
     inkscape:label="speechbubbles"
     style="display:inline">
    <path
       style="fill:#ffffff;stroke:none"
       d="m 736.51191,1188.4171 c -45.48157,-7.8653 -49.80145,-21.3317 -53.4388,-37.0835 -3.6374,-15.7517 -5.16203,-30.4687 -14.32474,-35.8289 -9.16272,-5.3602 -23.37699,-6.6454 -34.06986,-6.2062 -10.69301,0.4392 -13.97989,-8.9853 -18.62286,-19.1174 -4.64306,-10.1321 -41.97641,-56.8354 -41.97641,-56.8354 0,0 -1.20376,45.2512 2.94367,59.0698 4.14744,13.8186 5.59223,18.8919 8.79041,23.9507 3.19826,5.0588 12.93629,16.3762 24.00316,18.7395 11.06682,2.3635 22.61467,-0.7131 31.38172,-0.7856 8.76701,-0.073 19.23906,8.8101 24.59357,20.1638 5.35451,11.3537 21.40439,35.2793 39.65729,37.2326 18.25291,1.9532 31.06285,-3.2994 31.06285,-3.2994 z"
       id="path3023"
       inkscape:connector-curvature="0"
       sodipodi:nodetypes="csssscssssssc" />
    <g
       transform="matrix(1.7927593,-0.49837586,0.59120619,1.6370034,-2718.3033,-2671.4408)"
       id="g3487">
      <g
         style="display:inline;opacity:1;fill:#ffffff;fill-opacity:1"
         transform="matrix(1.1175556,0.1528418,-0.22733454,1.1392281,200.31774,-1231.9554)"
         id="g5381">
        <path
           sodipodi:nodetypes="csccccccccsccccssccccccsssssscssscc"
           style="color:#000000;display:inline;overflow:visible;visibility:visible;fill:#ffffff;fill-opacity:1;fill-rule:nonzero;stroke:none;stroke-width:1px;marker:none;enable-background:accumulate"
           d="m 1225.2771,3157.962 c -4.7051,-6.6655 -4.7051,-15.2915 -4.7051,-16.8598 0,-1.5684 0.3921,-7.4497 0.3921,-7.4497 l -3.1367,-1.1763 2.7446,-5.0971 -3.1367,0.3921 c 0,0 7.4497,-9.0181 9.018,-11.7627 1.5684,-2.7446 4.313,-9.018 4.313,-9.018 0,0 14.5073,-1.9605 17.644,-3.1368 3.1367,-1.1762 12.5468,-11.3705 12.5468,-11.3705 0,0 11.3706,5.4892 15.6836,6.2734 4.3129,0.7842 24.3095,1.9604 27.8383,0 3.5288,-1.9605 7.0576,-4.7051 7.0576,-4.7051 0,0 9.018,-0.7841 11.3705,-1.9604 2.3526,-1.1763 6.6655,-3.9209 6.6655,-3.9209 0,0 7.4497,0.7842 10.5864,0.3921 3.1367,-0.3921 17.644,0 19.2124,0 1.5683,0 12.5468,6.6655 12.5468,6.6655 l 7.0576,6.6655 c 0,0 5.8813,-0.3921 8.626,-1.1763 2.7446,-0.7841 5.0971,3.1367 5.0971,3.1367 0,0 10.5864,23.9175 12.1548,28.6225 1.5683,4.7051 2.3525,14.1152 2.3525,14.1152 0,0 -4.313,7.4497 -6.6655,10.5864 -2.3525,3.1367 -9.018,10.5864 -12.5468,13.331 -3.5288,2.7446 -7.8418,7.0576 -12.1548,4.313 -4.313,-2.7446 -8.6259,-2.3525 -10.1943,-0.3921 -1.5684,1.9604 -11.8039,13.5779 -15.7248,12.0095 -3.9209,-1.5684 -10.9988,-3.9226 -14.9197,-7.4514 -3.9209,-3.5288 -17.5824,6.8125 -20.327,4.4599 -2.7446,-2.3525 -6.6655,-6.6655 -9.4102,-6.6655 -2.7446,0 -35.68,9.8023 -39.6009,8.2339 -3.9209,-1.5684 -24.7016,-14.5073 -27.0541,-16.0756 -2.3526,-1.5684 -8.2339,-10.9785 -8.2339,-10.9785 z"
           id="path5263"
           inkscape:connector-curvature="0" />
        <path
           sodipodi:nodetypes="cccccccccc"
           style="color:#000000;font-style:normal;font-variant:normal;font-weight:normal;font-stretch:normal;font-size:medium;line-height:normal;font-family:Sans;-inkscape-font-specification:Sans;text-indent:0;text-align:start;text-decoration:none;text-decoration-line:none;letter-spacing:normal;word-spacing:normal;text-transform:none;direction:ltr;block-progression:tb;writing-mode:lr-tb;baseline-shift:baseline;text-anchor:start;display:inline;overflow:visible;visibility:visible;fill:#ffffff;fill-opacity:1;fill-rule:nonzero;stroke:none;stroke-width:1px;marker:none;enable-background:accumulate"
           d="m 1236.8125,3095.4062 c -0.053,0.01 -0.1046,0.019 -0.1563,0.031 l -9.875,1.375 c -0.5664,0.074 -1.0819,0.3653 -1.4374,0.8125 l -12.9688,16.3438 c -1.8333,2.3125 1.6355,5.0625 3.4688,2.75 l 12.375,-15.6876 9.111,-3.4944 c 2.7893,-0.3937 2.2948,-2.297 -0.5173,-2.1306 z"
           id="path5271"
           inkscape:connector-curvature="0" />
        <path
           sodipodi:nodetypes="cccccccccccc"
           style="color:#000000;font-style:normal;font-variant:normal;font-weight:normal;font-stretch:normal;font-size:medium;line-height:normal;font-family:Sans;-inkscape-font-specification:Sans;text-indent:0;text-align:start;text-decoration:none;text-decoration-line:none;letter-spacing:normal;word-spacing:normal;text-transform:none;direction:ltr;block-progression:tb;writing-mode:lr-tb;baseline-shift:baseline;text-anchor:start;display:inline;overflow:visible;visibility:visible;fill:#ffffff;fill-opacity:1;fill-rule:nonzero;stroke:none;stroke-width:1px;marker:none;enable-background:accumulate"
           d="m 1252.1562,3077.3125 c -0.649,0.047 -1.244,0.3788 -1.625,0.9063 l -7.8124,10.5312 -11.3438,-5.0625 c -0.7671,-0.3468 -1.6649,-0.2255 -2.3125,0.3125 l -14.6563,12.2812 c -2.4947,1.8493 0.5439,5.4954 2.8126,3.375 l 13.5937,-11.4062 11.7187,5.25 c 0.9445,0.412 2.0484,0.1133 2.6563,-0.7188 l 8.037,-13.4205 c 1.1526,-1.5067 0.8237,-2.1851 -1.0683,-2.0482 z"
           id="path5273"
           inkscape:connector-curvature="0" />
        <path
           sodipodi:nodetypes="cccccccccccc"
           style="color:#000000;font-style:normal;font-variant:normal;font-weight:normal;font-stretch:normal;font-size:medium;line-height:normal;font-family:Sans;-inkscape-font-specification:Sans;text-indent:0;text-align:start;text-decoration:none;text-decoration-line:none;letter-spacing:normal;word-spacing:normal;text-transform:none;direction:ltr;block-progression:tb;writing-mode:lr-tb;baseline-shift:baseline;text-anchor:start;display:inline;overflow:visible;visibility:visible;fill:#ffffff;fill-opacity:1;fill-rule:nonzero;stroke:none;stroke-width:1px;marker:none;enable-background:accumulate"
           d="m 1267.9375,3079.7188 c -0.351,0.013 -0.6939,0.109 -1,0.2812 l -10.2187,5.4375 c -2.8742,1.2804 -0.605,5.544 2.0624,3.875 l 8.8126,-4.6563 6.3437,6.3438 c 0.3294,0.3327 0.7563,0.5516 1.2187,0.625 l 3.1345,-1.3807 c 3.0849,0.6795 3.0481,-2.4327 -0.1032,-2.6505 l -1.6875,-0.25 -6.9688,-6.9688 c -0.4199,-0.4264 -0.9953,-0.6633 -1.5937,-0.6562 z"
           id="path5275"
           inkscape:connector-curvature="0" />
        <path
           sodipodi:nodetypes="cccccccccc"
           style="color:#000000;font-style:normal;font-variant:normal;font-weight:normal;font-stretch:normal;font-size:medium;line-height:normal;font-family:Sans;-inkscape-font-specification:Sans;text-indent:0;text-align:start;text-decoration:none;text-decoration-line:none;letter-spacing:normal;word-spacing:normal;text-transform:none;direction:ltr;block-progression:tb;writing-mode:lr-tb;baseline-shift:baseline;text-anchor:start;display:inline;overflow:visible;visibility:visible;fill:#ffffff;fill-opacity:1;fill-rule:nonzero;stroke:none;stroke-width:1px;marker:none;enable-background:accumulate"
           d="m 1265.2812,3072.9062 c -2.5126,0.2333 -2.7193,3.8238 -0.25,4.3438 l 14.375,3.8438 6.8551,8.543 c 1.3125,2.6249 3.0824,1.4256 1.7699,-1.1993 l -5.125,-10.2187 c -0.2798,-0.5704 -0.7925,-0.992 -1.4062,-1.1563 L 1266.1562,3073 c -0.2824,-0.09 -0.58,-0.1219 -0.875,-0.094 z"
           id="path5277"
           inkscape:connector-curvature="0" />
        <path
           sodipodi:nodetypes="cccccc"
           style="color:#000000;font-style:normal;font-variant:normal;font-weight:normal;font-stretch:normal;font-size:medium;line-height:normal;font-family:Sans;-inkscape-font-specification:Sans;text-indent:0;text-align:start;text-decoration:none;text-decoration-line:none;letter-spacing:normal;word-spacing:normal;text-transform:none;direction:ltr;block-progression:tb;writing-mode:lr-tb;baseline-shift:baseline;text-anchor:start;display:inline;overflow:visible;visibility:visible;fill:#ffffff;fill-opacity:1;fill-rule:nonzero;stroke:none;stroke-width:1px;marker:none;enable-background:accumulate"
           d="m 1343.875,3078.6875 c -0.2717,0.024 -0.5366,0.098 -0.7812,0.2187 l -4.4376,2.0626 c -3.0843,1.0553 -1.8531,3.8515 0.9426,2.175 l 5.3387,-0.2376 c 2.3246,-0.9763 1.4472,-4.46 -1.0625,-4.2187 z"
           id="path5279"
           inkscape:connector-curvature="0" />
        <path
           sodipodi:nodetypes="sscccccs"
           style="color:#000000;font-style:normal;font-variant:normal;font-weight:normal;font-stretch:normal;font-size:medium;line-height:normal;font-family:Sans;-inkscape-font-specification:Sans;text-indent:0;text-align:start;text-decoration:none;text-decoration-line:none;letter-spacing:normal;word-spacing:normal;text-transform:none;direction:ltr;block-progression:tb;writing-mode:lr-tb;baseline-shift:baseline;text-anchor:start;display:inline;overflow:visible;visibility:visible;fill:#ffffff;fill-opacity:1;fill-rule:nonzero;stroke:none;stroke-width:1px;marker:none;enable-background:accumulate"
           d="m 1353.5625,3079.375 c -2.9375,0 -3.1534,5.1954 -0.2229,5.0779 l 16.7542,-0.6717 9.7927,7.1201 c 2.1875,1.9588 4.2702,-0.4741 2.0823,-2.4325 l -9.5626,-8.5313 c -0.4035,-0.362 -0.9266,-0.5624 -1.4687,-0.5625 z"
           id="path5281"
           inkscape:connector-curvature="0" />
        <path
           sodipodi:nodetypes="cccccccccc"
           style="color:#000000;font-style:normal;font-variant:normal;font-weight:normal;font-stretch:normal;font-size:medium;line-height:normal;font-family:Sans;-inkscape-font-specification:Sans;text-indent:0;text-align:start;text-decoration:none;text-decoration-line:none;letter-spacing:normal;word-spacing:normal;text-transform:none;direction:ltr;block-progression:tb;writing-mode:lr-tb;baseline-shift:baseline;text-anchor:start;display:inline;overflow:visible;visibility:visible;fill:#ffffff;fill-opacity:1;fill-rule:nonzero;stroke:none;stroke-width:1px;marker:none;enable-background:accumulate"
           d="m 1365,3069.8438 c -2.9378,0.062 -2.8438,4.4693 0.094,4.4062 l 10,0.3125 6.2206,4.1383 c 1.998,2.1997 3.8644,0.1343 1.8106,-2.0133 l -5.4688,-5.8125 c -0.3995,-0.4225 -0.95,-0.6697 -1.5312,-0.6875 l -10.9062,-0.3437 c -0.073,0 -0.1459,0 -0.2188,0 z"
           id="path5283"
           inkscape:connector-curvature="0" />
        <path
           sodipodi:nodetypes="cccccccccc"
           style="color:#000000;font-style:normal;font-variant:normal;font-weight:normal;font-stretch:normal;font-size:medium;line-height:normal;font-family:Sans;-inkscape-font-specification:Sans;text-indent:0;text-align:start;text-decoration:none;text-decoration-line:none;letter-spacing:normal;word-spacing:normal;text-transform:none;direction:ltr;block-progression:tb;writing-mode:lr-tb;baseline-shift:baseline;text-anchor:start;display:inline;overflow:visible;visibility:visible;fill:#ffffff;fill-opacity:1;fill-rule:nonzero;stroke:none;stroke-width:1px;marker:none;enable-background:accumulate"
           d="m 1397.4375,3095.0625 c -2.6759,0.091 -2.5495,2.1775 0.099,2.5732 l 15.1514,4.3018 2.125,12.0937 c 0.5208,2.8958 4.8645,2.1146 4.3437,-0.7812 l -2.4062,-13.625 c -0.1656,-0.9179 -0.8919,-1.6317 -1.8125,-1.7812 l -17.0625,-2.75 c -0.1444,-0.025 -0.291,-0.035 -0.4375,-0.031 z"
           id="path5285"
           inkscape:connector-curvature="0" />
        <path
           sodipodi:nodetypes="ccccccccc"
           style="color:#000000;font-style:normal;font-variant:normal;font-weight:normal;font-stretch:normal;font-size:medium;line-height:normal;font-family:Sans;-inkscape-font-specification:Sans;text-indent:0;text-align:start;text-decoration:none;text-decoration-line:none;letter-spacing:normal;word-spacing:normal;text-transform:none;direction:ltr;block-progression:tb;writing-mode:lr-tb;baseline-shift:baseline;text-anchor:start;display:inline;overflow:visible;visibility:visible;fill:#ffffff;fill-opacity:1;fill-rule:nonzero;stroke:none;stroke-width:1px;marker:none;enable-background:accumulate"
           d="m 1397.875,3101.1875 c -2.3206,-0.025 -3.0946,3.0941 -1.0312,4.1563 l 3.5937,1.9062 5.875,22.9688 c 0.7292,2.8542 3.3019,2.1492 2.5727,-0.705 l -4.4477,-24.2638 c -0.1578,-0.5903 -0.554,-1.0884 -1.0937,-1.375 l -4.4063,-2.4062 c -0.3247,-0.1821 -0.6902,-0.2789 -1.0625,-0.2813 z"
           id="path5287"
           inkscape:connector-curvature="0" />
        <path
           sodipodi:nodetypes="ccccccccc"
           style="color:#000000;font-style:normal;font-variant:normal;font-weight:normal;font-stretch:normal;font-size:medium;line-height:normal;font-family:Sans;-inkscape-font-specification:Sans;text-indent:0;text-align:start;text-decoration:none;text-decoration-line:none;letter-spacing:normal;word-spacing:normal;text-transform:none;direction:ltr;block-progression:tb;writing-mode:lr-tb;baseline-shift:baseline;text-anchor:start;display:inline;overflow:visible;visibility:visible;fill:#ffffff;fill-opacity:1;fill-rule:nonzero;stroke:none;stroke-width:1px;marker:none;enable-background:accumulate"
           d="m 1412.125,3144.4688 c -0.9591,0.041 -1.7811,0.6982 -2.0312,1.625 l -2.9688,10.1874 -3.875,5.5313 c -1.8826,2.4274 0.2658,3.9104 1.9173,1.3203 l 5.7702,-4.5703 c 0.1398,-0.1999 0.2454,-0.4217 0.3125,-0.6563 l 3.0625,-10.5937 c 0.4441,-1.4482 -0.6739,-2.9015 -2.1875,-2.8437 z"
           id="path5289"
           inkscape:connector-curvature="0" />
        <path
           sodipodi:nodetypes="ccccccccc"
           style="color:#000000;font-style:normal;font-variant:normal;font-weight:normal;font-stretch:normal;font-size:medium;line-height:normal;font-family:Sans;-inkscape-font-specification:Sans;text-indent:0;text-align:start;text-decoration:none;text-decoration-line:none;letter-spacing:normal;word-spacing:normal;text-transform:none;direction:ltr;block-progression:tb;writing-mode:lr-tb;baseline-shift:baseline;text-anchor:start;display:inline;overflow:visible;visibility:visible;fill:#ffffff;fill-opacity:1;fill-rule:nonzero;stroke:none;stroke-width:1px;marker:none;enable-background:accumulate"
           d="m 1417.4062,3142.0938 c -1.0392,0.1213 -1.8492,0.9575 -1.9374,2 l -1,9.5624 -3.2813,7.9063 c -1.2238,2.7484 0.9066,3.9744 1.9903,1.1678 l 5.4784,-7.6678 c 0.083,-0.1995 0.1351,-0.4101 0.1563,-0.625 l 1.0313,-9.875 c 0.1844,-1.4201 -1.0153,-2.6351 -2.4376,-2.4687 z"
           id="path5291"
           inkscape:connector-curvature="0" />
        <path
           sodipodi:nodetypes="ccccccccc"
           style="color:#000000;font-style:normal;font-variant:normal;font-weight:normal;font-stretch:normal;font-size:medium;line-height:normal;font-family:Sans;-inkscape-font-specification:Sans;text-indent:0;text-align:start;text-decoration:none;text-decoration-line:none;letter-spacing:normal;word-spacing:normal;text-transform:none;direction:ltr;block-progression:tb;writing-mode:lr-tb;baseline-shift:baseline;text-anchor:start;display:inline;overflow:visible;visibility:visible;fill:#ffffff;fill-opacity:1;fill-rule:nonzero;stroke:none;stroke-width:1px;marker:none;enable-background:accumulate"
           d="m 1390.5662,3179.5714 c -0.351,0.013 -1,0.2813 -1,0.2813 l -7.125,3.875 -7.3437,0.6562 c -3.1313,0.063 -2.7214,4.8457 0.375,4.375 l 7.8437,-0.6875 c 0.3059,-0.021 0.6039,-0.1066 0.875,-0.25 l 8.0065,-5.119 c 2.1196,-1.0821 0.7445,-3.2657 -1.6315,-3.131 z"
           id="path5293"
           inkscape:connector-curvature="0" />
        <path
           sodipodi:nodetypes="cccccccccccc"
           style="color:#000000;font-style:normal;font-variant:normal;font-weight:normal;font-stretch:normal;font-size:medium;line-height:normal;font-family:Sans;-inkscape-font-specification:Sans;text-indent:0;text-align:start;text-decoration:none;text-decoration-line:none;letter-spacing:normal;word-spacing:normal;text-transform:none;direction:ltr;block-progression:tb;writing-mode:lr-tb;baseline-shift:baseline;text-anchor:start;display:inline;overflow:visible;visibility:visible;fill:#ffffff;fill-opacity:1;fill-rule:nonzero;stroke:none;stroke-width:1px;marker:none;enable-background:accumulate"
           d="m 1280.7221,3188.5748 c -0.4982,-0.2647 -1.0898,0.1011 -1.6873,0.2377 l -9.4568,5.0098 -11.166,-4.9199 -7.8481,-7.3221 c -0.8757,-2.5874 -2.2771,-0.2485 -1.4013,2.3389 l 5.8014,8.0075 c 0.108,0.3279 0.5511,0.4423 0.829,0.6681 l 12.6908,5.6184 c 0.5337,0.4324 1.3256,0.06 2.0722,-0.1113 3.6662,-1.0699 3.4682,-3.4305 9.9622,-6.6196 2.0978,-0.4518 1.9543,-1.9874 0.2039,-2.9075 z"
           id="path5295"
           inkscape:connector-curvature="0" />
        <path
           sodipodi:nodetypes="cccccccccccc"
           style="color:#000000;font-style:normal;font-variant:normal;font-weight:normal;font-stretch:normal;font-size:medium;line-height:normal;font-family:Sans;-inkscape-font-specification:Sans;text-indent:0;text-align:start;text-decoration:none;text-decoration-line:none;letter-spacing:normal;word-spacing:normal;text-transform:none;direction:ltr;block-progression:tb;writing-mode:lr-tb;baseline-shift:baseline;text-anchor:start;display:inline;overflow:visible;visibility:visible;fill:#ffffff;fill-opacity:1;fill-rule:nonzero;stroke:none;stroke-width:1px;marker:none;enable-background:accumulate"
           d="m 1299.0938,3181.6562 c -1.9894,0.1923 -2.7125,2.7233 -1.125,3.9376 l 11.9374,9.5312 c 0.4208,0.3468 0.9553,0.525 1.5,0.5 l 5.4688,-0.3438 c 0.5905,-0.034 1.1423,-0.3044 1.5312,-0.75 l 2.375,-2.7187 c 1.9375,-2.2083 -0.191,-3.9463 -2.1285,-1.7381 l -2.9652,0.8631 -3.6875,0.2187 -11.2812,-9 c -0.4528,-0.3777 -1.0382,-0.5578 -1.625,-0.5 z"
           id="path5297"
           inkscape:connector-curvature="0" />
        <path
           style="color:#000000;font-style:normal;font-variant:normal;font-weight:normal;font-stretch:normal;font-size:medium;line-height:normal;font-family:Sans;-inkscape-font-specification:Sans;text-indent:0;text-align:start;text-decoration:none;text-decoration-line:none;letter-spacing:normal;word-spacing:normal;text-transform:none;direction:ltr;block-progression:tb;writing-mode:lr-tb;baseline-shift:baseline;text-anchor:start;display:inline;overflow:visible;visibility:visible;fill:#ffffff;fill-opacity:1;fill-rule:nonzero;stroke:none;stroke-width:1px;marker:none;enable-background:accumulate"
           d="m 1229.0625,3164.9375 a 2.20022,2.20022 0 0 0 -1.3125,3.9375 l 3.4062,2.75 a 2.201074,2.201074 0 1 0 2.75,-3.4375 l -3.4062,-2.75 a 2.20022,2.20022 0 0 0 -1.4375,-0.5 z"
           id="path5301"
           inkscape:connector-curvature="0" />
      </g>
      <path
         inkscape:connector-curvature="0"
         id="path4295"
         d="m 1040.7186,2593.0113 c -5.5317,9.4907 -18.0351,11.6413 -21.4746,15.2859 5.7949,6.8978 14.8495,-2.0477 20.5137,-5.6272 2.9757,-2.0944 5.2706,-7.1056 0.9609,-9.6587 z"
         style="color:#000000;clip-rule:nonzero;display:inline;overflow:visible;visibility:visible;opacity:1;isolation:auto;mix-blend-mode:normal;color-interpolation:sRGB;color-interpolation-filters:linearRGB;solid-color:#000000;solid-opacity:1;fill:#ffffff;fill-opacity:1;fill-rule:nonzero;stroke:none;stroke-width:2.80699992;stroke-linecap:round;stroke-linejoin:round;stroke-miterlimit:4;stroke-dasharray:none;stroke-dashoffset:0;stroke-opacity:1;marker:none;color-rendering:auto;image-rendering:auto;shape-rendering:auto;text-rendering:auto;enable-background:accumulate"
         sodipodi:nodetypes="cccc" />
      <path
         inkscape:connector-curvature="0"
         id="path4297"
         d="m 838.01363,2551.4901 c -3.91523,-6.7821 -5.95361,-15.045 -3.86702,-22.5868 2.65752,-5.6153 5.33509,-2.5587 4.02293,2.0566 0.10065,6.6089 1.23208,13.1512 1.85409,19.7253 -0.67001,0.2683 -1.34,0.5365 -2.01,0.8049 z"
         style="color:#000000;clip-rule:nonzero;display:inline;overflow:visible;visibility:visible;opacity:1;isolation:auto;mix-blend-mode:normal;color-interpolation:sRGB;color-interpolation-filters:linearRGB;solid-color:#000000;solid-opacity:1;fill:#ffffff;fill-opacity:1;fill-rule:nonzero;stroke:none;stroke-width:2.80699992;stroke-linecap:round;stroke-linejoin:round;stroke-miterlimit:4;stroke-dasharray:none;stroke-dashoffset:0;stroke-opacity:1;marker:none;color-rendering:auto;image-rendering:auto;shape-rendering:auto;text-rendering:auto;enable-background:accumulate" />
    </g>
    <path
       style="fill:#ffffff;fill-rule:evenodd;stroke:none;stroke-width:1px;stroke-linecap:butt;stroke-linejoin:miter;stroke-opacity:1"
       d="m 1317.7454,324.90247 c 24.0845,10.18346 45.8554,16.5148 38.4537,-25.72278 42.6314,57.3438 36.5159,18.07108 43.2606,4.2871 25.3459,40.50746 47.154,34.73485 66.0925,-8.5742 10.7062,62.47127 33.11,32.20352 52.874,22.86468 -0.049,17.5679 -5.4446,37.71261 52.874,27.15187 -16.6748,15.86684 -22.8946,30.27091 14.4201,38.58426 -25.9204,12.75745 -40.1556,26.33235 -12.0168,42.87143 -14.9485,24.09351 -4.9503,38.4122 15.6219,48.58755 -48.1682,1.40909 -36.5681,14.66425 -28.8404,27.15186 -41.01,-25.67448 -46.7478,-15.39537 -43.2605,4.28711 -19.0878,-11.29084 -33.1961,-37.97783 -67.2941,-2.85801 -10.1412,-11.65572 -19.4891,-26.37698 -42.0589,10.00329 -1.5921,-31.73359 -18.0935,-30.5398 -42.0589,-12.86139 -6.321,-29.76022 -30.0566,-14.64997 -55.2774,4.28719 20.5859,-29.04661 22.0777,-53.31269 -18.0252,-67.16521 38.8631,-16.61677 31.7864,-30.01997 16.8235,-42.87135 14.7829,-12.08489 24.4215,-25.24919 -14.4201,-48.58763 22.7097,3.62828 46.8903,8.30607 22.832,-21.43577 z"
       id="path4582-1"
       inkscape:connector-curvature="0"
       sodipodi:nodetypes="ccccccccccccccccccc" />
    <path
       style="fill:#ffffff;fill-rule:evenodd;stroke:none;stroke-width:1px;stroke-linecap:butt;stroke-linejoin:miter;stroke-opacity:1"
       d="m 1299.4613,215.01893 c 29.7678,10.61214 47.2775,12.2152 38.1293,-31.8004 52.6911,59.75774 45.1326,18.83179 53.4688,4.46757 31.3268,42.21265 58.281,36.19704 81.6884,-8.93514 13.2326,65.10105 40.923,33.55915 65.3507,23.82719 -0.06,18.30744 -6.7293,39.30015 65.3507,28.29485 -20.6095,16.53476 -28.297,31.54519 17.8229,40.20849 -32.0369,13.29449 -55.2703,29.10577 -20.4915,46.34108 -41.3111,20.06645 -25.188,34.79409 1.4512,46.47054 -29.4595,3.96581 -14.1824,21.94128 -4.6311,34.95457 -50.6872,-26.75527 -65.2976,-20.20577 -60.9874,0.30525 -23.592,-11.76614 -41.0295,-39.57654 -83.1736,-2.97832 -12.5342,-12.14638 -24.0879,-27.48734 -51.9836,10.42439 -1.9678,-33.06944 -22.363,-31.8254 -51.9835,-13.4028 -7.8126,-31.013 -37.1491,-15.26668 -68.3213,4.46766 25.4436,-30.26935 27.2874,-55.55693 -22.2786,-69.99259 48.0336,-17.31626 39.2871,-31.28368 20.7934,-44.67605 18.2712,-12.59361 30.1842,-26.31207 -17.8229,-50.63297 28.0686,3.78102 67.3535,13.65053 37.6181,-17.34332 z"
       id="path4582"
       inkscape:connector-curvature="0"
       sodipodi:nodetypes="ccccccccccccccccccc" />
    <path
       style="fill:#ffffff;fill-rule:evenodd;stroke:none;stroke-width:1px;stroke-linecap:butt;stroke-linejoin:miter;stroke-opacity:1"
       d="m 1579.8986,270.17442 c -23.3254,-14.72923 -29.2814,-33.21063 -1.7675,-34.48626 -25.1189,-8.21068 -14.5573,-13.93282 -0.3094,-16.75651 -25.9567,-36.03276 -7.2798,-44.35372 8.5993,-64.52815 -39.1617,6.90555 -35.9919,-11.79441 -42.0928,-24.88682 -14.4423,24.10046 -14.4383,7.9425 -10.4035,-19.44892 -16.4797,31.29925 -22.9019,33.39455 -20.1525,8.85862 -13.0652,19.60003 -25.2699,26.57591 -36.4854,19.04098 -29.1885,16.96396 -31.7254,-9.5373 -42.8766,-21.98988 -11.4229,20.66849 -22.7139,20.45244 -33.9626,13.57803 -8.5442,8.45939 -16.7533,21.08969 -27.6133,0.72767 -8.5826,17.1288 -13.2912,4.18247 -19.1903,0.47835 5.514,10.49802 -9.6319,12.19614 -48.5422,3.77197 14.1825,6.3488 11.0492,13.06576 -12.5207,20.21737 20.9407,10.93678 17.6817,21.66308 1.7097,32.27876 21.9907,19.33311 -1.1453,21.74542 -31.5874,36.6093 35.1595,0.63013 54.9967,9.05595 52.7146,34.87787 47.018,-16.73379 37.7681,-6.32232 31.0835,2.8516 32.4591,-21.96511 25.0015,-1.0881 29.4302,7.03144 78.8151,-24.18834 67.6917,5.69995 77.6087,22.93735 15.6561,-34.03174 26.6823,-19.69435 37.6894,-5.15698 7.7992,-29.15617 14.3547,-20.05599 20.9363,-11.75551 4.731,-12.48286 14.5087,-15.5314 31.0908,-5.85965 -10.5959,-11.24828 -1.718,-12.43538 36.6417,1.60943 z"
       id="path4289"
       inkscape:connector-curvature="0"
       sodipodi:nodetypes="ccccccccccccccccccccccccc"
       inkscape:transform-center-x="69.241177"
       inkscape:transform-center-y="40.171308" />
    <path
       style="fill:#ffffff;fill-rule:evenodd;stroke:none;stroke-width:1px;stroke-linecap:butt;stroke-linejoin:miter;stroke-opacity:1"
       d="m 1290.9202,660.61595 c 21.962,2.70381 43.8293,-21.26525 27.4743,-70.05715 60.7076,46.0444 76.4347,21.52273 151.0137,-27.54653 -6.1975,68.36955 28.9347,49.90226 53.3308,42.9444 -28.8399,23.00686 22.2617,52.75063 50.1089,54.04298 -24.7313,30.03664 -42.188,76.16549 -18.9763,94.90808 -38.5753,-4.0041 -29.0315,15.87376 -35.9463,31.76189 -49.663,-35.99851 -85.7796,-27.45483 -114.3127,6.02364 -14.9231,-18.20654 -19.6074,-55.8362 -74.6207,2.00784 20.2297,-49.93606 -6.2869,-44.6946 -49.218,-20.07865 6.7283,-17.0089 46.7171,-42.87337 -20.6397,-40.15754 42.0723,-16.16955 45.5328,-49.86566 31.786,-73.84896 z"
       id="path4584"
       inkscape:connector-curvature="0"
       sodipodi:nodetypes="cccccccccccc" />
    <path
       style="color:#000000;display:inline;overflow:visible;visibility:visible;fill:#ffffff;fill-opacity:1;fill-rule:nonzero;stroke:none;stroke-width:1px;marker:none;enable-background:accumulate"
       d="m 1340.0223,644.85441 c 29.6841,-8.38599 58.9922,-40.898 55.0768,-3.098 42.7673,-43.6161 83.7086,-15.17993 122.3411,-9.9131 -9.7273,-25.94553 24.4982,-32.63303 51.3684,-23.17793 -24.0116,-17.92505 -20.0301,-19.88517 1.8566,-22.71817 -26.7445,-13.0401 -30.607,-22.9407 22.7085,-24.9964 -39.3966,-6.8651 -76.011,-14.3367 -24.9691,-40.915 -14.4366,-2.988 -52.8488,19.8163 -25.3602,-59.6234 -28.6662,22.459 -57.3623,32.9257 -83.1963,-26.9701 -13.3053,20.1327 -30.7199,32.4653 -56.1986,-1.5323 -9.3243,20.5642 -45.2838,17.001 -57.8176,10.6621 23.1421,28.0281 20.1511,42.8398 -16.1408,39.7796 94.6774,49.62175 10.413,52.14804 -5.3538,48.0242 45.2818,22.0328 34.2752,42.81461 5.1175,49.98793 46.2844,20.20765 35.7609,27.73665 10.5675,64.49057 z"
       id="path3549-3"
       inkscape:connector-curvature="0"
       sodipodi:nodetypes="ccccccccccccccc" />
    <path
       style="color:#000000;display:inline;overflow:visible;visibility:visible;fill:#ffffff;fill-opacity:1;fill-rule:nonzero;stroke:none;stroke-width:1px;marker:none;enable-background:accumulate"
       d="m 1342.1099,624.44177 c -24.799,-19.38207 -51.6203,-44.8622 -57.3837,-51.43281 10.7696,-2.65715 19.694,-6.82543 26.7223,-9.95499 -11.8306,-11.35372 -70.0488,-61.24849 -88.6803,-67.43551 46.6169,13.55518 93.6115,48.5209 111.4329,68.48268 -8.4189,5.6927 -14.3598,8.04667 -18.7084,11.14923 8.3672,10.36876 43.1768,38.31839 43.1768,38.31839 z"
       id="path5066"
       inkscape:connector-curvature="0" />
    <path
       style="color:#000000;clip-rule:nonzero;display:inline;overflow:visible;visibility:visible;opacity:1;isolation:auto;mix-blend-mode:normal;color-interpolation:sRGB;color-interpolation-filters:linearRGB;solid-color:#000000;solid-opacity:1;fill:#fff6d5;fill-opacity:1;fill-rule:nonzero;stroke:none;stroke-width:2.5999999;stroke-linecap:butt;stroke-linejoin:miter;stroke-miterlimit:4;stroke-dasharray:none;stroke-dashoffset:0;stroke-opacity:1;marker:none;color-rendering:auto;image-rendering:auto;shape-rendering:auto;text-rendering:auto;enable-background:accumulate"
       d="m 2381.0898,102.25091 0,150.21104 c 0,30.12035 -24.2485,54.36887 -54.3689,54.36887 h -628.2613 c -30.1204,0 -54.3689,-24.24852 -54.3689,-54.36887 l 0,-150.21104 z"
       id="rect4632-8"
       inkscape:connector-curvature="0"
       sodipodi:nodetypes="csssscc" />
    <path
       style="color:#000000;display:inline;overflow:visible;visibility:visible;fill:#fff6d5;fill-opacity:1;fill-rule:nonzero;stroke:none;stroke-width:1px;marker:none;enable-background:accumulate"
       d="m 1886.862,270.78042 c -7.7341,16.23212 -51.3553,17.59325 -67.4135,14.29379 32.3696,18.15861 31.2411,29.44085 -12.7076,31.19263 73.7027,32.72657 13.4738,27.77427 1.594,36.0728 57.8704,11.27829 31.9786,25.31442 21.6758,39.28713 66.5161,0.47994 44.7484,22.87774 47.552,40.71615 5.6389,-8.37058 32.4281,-33.85431 34.04,-5.47988 43.9966,-27.07074 96.9894,-44.55708 101.1972,2.81681 17.7269,-23.83251 35.4007,-33.9051 34.0401,-5.47988 43.9219,-36.97058 96.5496,-32.12149 140.0128,-4.75505 -22.4665,-20.55702 -5.2741,-36.76001 28.4629,-32.74268 -4.7303,-11.06017 6.6607,-18.66289 32.3855,-23.1777 -34.1841,-6.68113 -40.4841,-13.57256 22.9881,-20.9888 -48.2987,-0.71736 -93.3375,-2.18707 -36.6727,-27.47863 -17.7773,-0.61198 -59.9558,20.49198 -40.2906,-41.26923 -30.5691,19.77192 -63.1835,30.68462 -104.0851,-10.73251 -19.3566,20.69118 -52.9303,30.93 -67.5366,5.08507 -5.2497,11.01815 -27.0182,15.1619 -45.4978,15.66442 -7.1461,-4.37663 -14.5166,-10.32118 -22.208,-18.10951 -12.5708,16.35342 -31.3755,27.3978 -67.5365,5.08507 z"
       id="path3549-3-7"
       inkscape:connector-curvature="0"
       sodipodi:nodetypes="cccccccccccccccccccc" />
    <path
       style="display:inline;fill:#ffffff;fill-rule:evenodd;stroke:none;stroke-width:1px;stroke-linecap:butt;stroke-linejoin:miter;stroke-opacity:1"
       d="m 1187.6654,2113.9995 c 37.9735,30.4274 44.007,12.941 12.8148,-47.4432 43.363,57.509 52.6605,60.1719 60.1167,22.5146 23.9856,32.3681 38.9666,23.2885 50.8605,0 4.4332,29.9507 13.9402,17.8646 22.1679,16.3769 2.7099,6.7761 -6.5975,23.611 31.0044,1.181 2.4357,8.9688 5.7168,16.6927 27.7421,-3.1923 5.7061,36.4038 24.0138,-2.0176 42.7691,-43.0966 -11.6851,50.5031 -6.8397,57.6364 8.0915,38.3079 -6.8265,20.7977 -10.9094,36.8974 15.0269,1.5963 -8.8793,38.3882 14.4155,12.0387 52.0165,-43.0964 -18.8086,40.7555 -68.6847,109.4459 -35.8336,103.7508 -4.5812,12.0148 -20.9225,22.4832 27.7421,41.5004 -27.0172,-4.4937 -58.2718,-2.0265 -7.4696,18.2082 -55.7641,-14.5104 -21.7113,4.8228 6.3137,29.6767 -52.1192,-27.2383 -69.3669,-30.4592 -8.0915,17.5578 -49.7343,-28.5131 -13.3566,15.658 2.312,36.7118 -65.8347,-61.2189 -50.2139,-34.4371 -33.5219,-6.3846 -38.7342,-36.8185 -59.6872,-29.9688 -53.7083,-11.2345 -12.1556,-16.3114 -30.2885,-10.6726 -49.1686,30.3886 -4.9445,-25.5389 -14.8575,-45.1974 -56.6401,-27.1349 18.3458,-32.4901 -7.7535,-11.7904 -27.742,1.5962 10.9461,-40.588 -16.8338,-13.9503 -52.0166,25.5387 19.7023,-44.8208 -2.6748,-28.6304 -35.8335,3.1923 21.6545,-54.7588 11.2185,-87.7693 -56.6402,-67.0391 39.1667,-20.0682 59.535,-41.8435 12.7153,-71.8276 27.3207,10.5877 35.4702,0.7532 16.1828,-38.3078 29.7997,32.061 54.9164,12.4007 28.7896,-29.3412 z"
       id="path4508"
       inkscape:connector-curvature="0"
       sodipodi:nodetypes="cccccccccccccccccccccccccccc" />
    <path
       style="display:inline;fill:#ffffff;fill-rule:evenodd;stroke:none;stroke-width:1px;stroke-linecap:butt;stroke-linejoin:miter;stroke-opacity:1"
       d="m 1616.2662,2393.3738 -82.1467,-100.338 -11.5302,24.9569 -58.2718,-67.6007 -15.4563,18.9483 76.7395,76.6314 14.3318,-27.9374 z"
       id="path4667"
       inkscape:connector-curvature="0" />
    <path
       style="color:#000000;display:inline;overflow:visible;visibility:visible;fill:#fff6d5;fill-opacity:1;fill-rule:nonzero;stroke:none;stroke-width:1px;marker:none;enable-background:accumulate"
       d="m 1642.4379,332.65222 c 25.5976,-6.24589 31.2912,-12.86185 40.1634,-18.5179 -3.4513,-0.92732 -11.7678,-5.06676 -11.7678,-5.06676 0,0 34.4713,-17.92982 38.1302,-23.38411 3.6593,-5.45436 -14.4691,-9.50373 -14.4691,-9.50373 0,0 -32.3622,23.77029 -46.4224,30.3366 2.4635,2.48427 10.2324,6.85233 15.7201,9.67037 0,0 -4.4966,11.9823 -21.3544,16.46553 z"
       id="path4456-3-7-5"
       inkscape:connector-curvature="0"
       sodipodi:nodetypes="cccscccc" />
  </g>
  <g
     inkscape:groupmode="layer"
     id="layer1"
     inkscape:label="txt"
     style="display:inline">
    <text
       xml:space="preserve"
       style="color:#000000;font-style:normal;font-variant:normal;font-weight:normal;font-stretch:normal;line-height:0%;font-family:Arial;-inkscape-font-specification:Arial;letter-spacing:0px;word-spacing:0px;display:inline;overflow:visible;visibility:visible;opacity:1;fill:#000000;fill-opacity:1;fill-rule:nonzero;stroke:#000000;stroke-width:5.04432487;stroke-miterlimit:4;stroke-dasharray:none;stroke-opacity:1;marker:none;enable-background:accumulate"
       x="577.47418"
       y="1102.7402"
       id="text4190-8"
       transform="matrix(0.95367168,-0.22417593,-0.04967286,1.0602553,0,0)"><tspan
         sodipodi:role="line"
         id="tspan4192-5"
         x="581.39874"
         y="1102.7402"
         style="font-style:normal;font-variant:normal;font-weight:normal;font-stretch:normal;font-size:98.82511902px;line-height:1.25;font-family:Lavi;-inkscape-font-specification:Lavi;text-align:center;letter-spacing:7.84904623px;text-anchor:middle;fill:#000000;fill-opacity:1;stroke:#000000;stroke-width:5.04432487;stroke-miterlimit:4;stroke-dasharray:none;stroke-opacity:1">Gro<tspan
   style="font-size:81.25px"
   id="tspan4479">o</tspan><tspan
   id="tspan4483"
   style="font-size:62.5px">o</tspan><tspan
   id="tspan4487"
   style="font-size:50px">o</tspan></tspan></text>
    <text
       xml:space="preserve"
       style="font-style:normal;font-variant:normal;font-weight:normal;font-stretch:normal;line-height:0%;font-family:Lavi;-inkscape-font-specification:Lavi;text-align:center;letter-spacing:0px;word-spacing:0px;text-anchor:middle;fill:#000000;fill-opacity:1;stroke:#000000;stroke-width:3.29278421;stroke-miterlimit:4;stroke-dasharray:none;stroke-opacity:1"
       x="1596.9203"
       y="187.8098"
       id="text4246-2-3-1-3-9-3-7-9-9"
       transform="matrix(0.91522609,0,-0.12030087,1.0926262,0,0)"><tspan
         sodipodi:role="line"
         style="font-size:56.9905014px;line-height:1.25;stroke:#000000;stroke-width:3.29278421;stroke-miterlimit:4;stroke-dasharray:none;stroke-opacity:1"
         x="1596.9203"
         y="187.8098"
         id="tspan4814-3-4">Carrot!</tspan></text>
    <text
       xml:space="preserve"
       style="font-style:normal;font-variant:normal;font-weight:normal;font-stretch:normal;line-height:0%;font-family:Lavi;-inkscape-font-specification:Lavi;text-align:center;letter-spacing:0px;word-spacing:0px;text-anchor:middle;fill:#000000;fill-opacity:1;stroke:none;stroke-width:2.4000001;stroke-miterlimit:4;stroke-dasharray:none"
       x="1441.5325"
       y="275.64645"
       id="text4246-2-3-1-3-9-3-7-6-7"><tspan
         sodipodi:role="line"
         style="font-size:45px;line-height:1.25;stroke-width:2.4000001;stroke-miterlimit:4;stroke-dasharray:none"
         x="1441.5325"
         y="275.64645"
         id="tspan4556">In <tspan
   style="letter-spacing:-7.1px"
   id="tspan1135">'</tspan>s hemels</tspan><tspan
         sodipodi:role="line"
         style="font-size:45px;line-height:1.25;stroke-width:2.4000001;stroke-miterlimit:4;stroke-dasharray:none"
         x="1441.5325"
         y="331.89645"
         id="tspan158">naam!</tspan></text>
    <text
       xml:space="preserve"
       style="font-style:normal;font-variant:normal;font-weight:normal;font-stretch:normal;line-height:0%;font-family:Lavi;-inkscape-font-specification:Lavi;text-align:center;letter-spacing:0px;word-spacing:0px;text-anchor:middle;fill:#000000;fill-opacity:1;stroke:none;stroke-width:2.4000001;stroke-miterlimit:4;stroke-dasharray:none"
       x="1440.6204"
       y="400.04684"
       id="text4246-2-3-1-3-9-3-7-6-7-0"><tspan
         sodipodi:role="line"
         style="font-size:45px;line-height:1.25;stroke-width:2.4000001;stroke-miterlimit:4;stroke-dasharray:none"
         x="1440.6204"
         y="400.04684"
         id="tspan144">Het is zo</tspan><tspan
         sodipodi:role="line"
         style="font-size:45px;line-height:1.25;stroke-width:2.4000001;stroke-miterlimit:4;stroke-dasharray:none"
         x="1440.6204"
         y="456.29684"
         id="tspan162">aan ons!</tspan></text>
    <text
       xml:space="preserve"
       style="font-style:normal;font-variant:normal;font-weight:normal;font-stretch:normal;line-height:0%;font-family:Lavi;-inkscape-font-specification:Lavi;text-align:center;letter-spacing:0px;word-spacing:0px;text-anchor:middle;fill:#000000;fill-opacity:1;stroke:none;stroke-width:2.4000001;stroke-miterlimit:4;stroke-dasharray:none"
       x="1450.4399"
       y="530.78882"
       id="text4246-2-3-1-3-9-3-7-6-7-0-0"><tspan
         sodipodi:role="line"
         style="font-size:45px;line-height:1.25;stroke-width:2.4000001;stroke-miterlimit:4;stroke-dasharray:none"
         x="1450.4399"
         y="530.78882"
         id="tspan4556-1-2">Doe</tspan><tspan
         sodipodi:role="line"
         style="font-size:45px;line-height:1.25;stroke-width:2.4000001;stroke-miterlimit:4;stroke-dasharray:none"
         x="1450.4399"
         y="587.03882"
         id="tspan151">normaal!</tspan></text>
    <text
       xml:space="preserve"
       style="font-style:normal;font-variant:normal;font-weight:normal;font-stretch:normal;line-height:0%;font-family:Lavi;-inkscape-font-specification:Lavi;text-align:center;letter-spacing:0px;word-spacing:0px;text-anchor:middle;fill:#000000;fill-opacity:1;stroke:#000000;stroke-width:2.78762341;stroke-miterlimit:4;stroke-dasharray:none;stroke-opacity:1"
       x="1526.8387"
       y="664.30994"
       id="text4246-2-3-1-3-9-3-7-9-9-0"
       transform="matrix(0.98883458,0,-0.12997626,1.0112915,0,0)"><tspan
         sodipodi:role="line"
         style="font-size:48.24732971px;line-height:1.25;stroke:#000000;stroke-width:2.78762341;stroke-miterlimit:4;stroke-dasharray:none;stroke-opacity:1"
         x="1526.8387"
         y="664.30994"
         id="tspan4814-3-4-6">Alleen</tspan><tspan
         sodipodi:role="line"
         style="font-size:48.24732971px;line-height:1.25;stroke:#000000;stroke-width:2.78762341;stroke-miterlimit:4;stroke-dasharray:none;stroke-opacity:1"
         x="1526.8387"
         y="724.61908"
         id="tspan4638">vandaag!</tspan></text>
    <text
       xml:space="preserve"
       style="font-style:normal;font-variant:normal;font-weight:normal;font-stretch:normal;line-height:0%;font-family:Lavi;-inkscape-font-specification:Lavi;text-align:center;letter-spacing:0px;word-spacing:0px;text-anchor:middle;fill:#000000;fill-opacity:1;stroke:none;stroke-width:2.4000001;stroke-miterlimit:4;stroke-dasharray:none"
       x="2012.0189"
       y="160.92317"
       id="text4246-2-3-1-3-9-3-7-6"><tspan
         sodipodi:role="line"
         style="font-size:45px;line-height:1.25;stroke-width:2.4000001;stroke-miterlimit:4;stroke-dasharray:none"
         x="2012.0189"
         y="160.92317"
         id="tspan4187">Het is ons een genoegen deze heks</tspan><tspan
         sodipodi:role="line"
         style="font-size:45px;line-height:1.25;stroke-width:2.4000001;stroke-miterlimit:4;stroke-dasharray:none"
         x="2012.0189"
         y="217.17317"
         id="tspan3470">van de spirituele en ascetische</tspan><tspan
         sodipodi:role="line"
         style="font-size:45px;line-height:1.25;stroke-width:2.4000001;stroke-miterlimit:4;stroke-dasharray:none"
         x="2012.0189"
         y="273.42316"
         id="tspan4189">magie van &quot;Ah&quot; te verwelkomen …</tspan></text>
    <text
       xml:space="preserve"
       style="font-style:normal;font-variant:normal;font-weight:normal;font-stretch:normal;line-height:0%;font-family:Lavi;-inkscape-font-specification:Lavi;text-align:center;letter-spacing:0px;word-spacing:0px;text-anchor:middle;fill:#000000;fill-opacity:1;stroke:#000000;stroke-width:3.5321846;stroke-miterlimit:4;stroke-dasharray:none;stroke-opacity:1"
       x="2199.7664"
       y="347.50238"
       id="text4246-2-3-1-3-9-3-7-9"
       transform="matrix(0.93835319,0,-0.12334078,1.0656968,0,0)"><tspan
         sodipodi:role="line"
         style="font-size:61.13397217px;line-height:1.25;stroke:#000000;stroke-width:3.5321846;stroke-miterlimit:4;stroke-dasharray:none;stroke-opacity:1"
         x="2199.7664"
         y="347.50238"
         id="tspan4814-3">SHICHIMI!</tspan></text>
    <use
       x="0"
       y="0"
       xlink:href="#text4580-1-7-3-6"
       id="use4348"
       transform="matrix(0.76815873,-8.499295e-5,9.2939206e-5,0.83999533,328.18729,191.98041)"
       width="100%"
       height="100%" />
    <use
       x="0"
       y="0"
       xlink:href="#use4348"
       id="use4352"
       transform="matrix(1.2869892,-0.13005214,0.1168656,1.1564957,-95.028073,-226.53505)"
       width="100%"
       height="100%" />
    <use
       x="0"
       y="0"
       xlink:href="#use4352"
       id="use4354"
       transform="matrix(0.90888933,0,0,0.92156478,-21.137187,247.94912)"
       width="100%"
       height="100%" />
    <use
       x="0"
       y="0"
       xlink:href="#use4354"
       id="use4356"
       transform="matrix(0.83539183,0,0,0.82928292,195.10667,199.84211)"
       width="100%"
       height="100%" />
    <use
       x="0"
       y="0"
       xlink:href="#use4356"
       id="use4358"
       transform="matrix(0.79958346,0,0,0.84858719,850.96564,377.52491)"
       width="100%"
       height="100%" />
    <use
       x="0"
       y="0"
       xlink:href="#use4358"
       id="use4360"
       transform="matrix(1.1302563,0,0,1.1533505,-87.515462,-230.41211)"
       width="100%"
       height="100%" />
    <text
       xml:space="preserve"
       style="font-style:normal;font-variant:normal;font-weight:normal;font-stretch:normal;line-height:0%;font-family:Lavi;-inkscape-font-specification:Lavi;text-align:center;letter-spacing:0px;word-spacing:0px;text-anchor:middle;fill:#000000;fill-opacity:1;stroke:#000000;stroke-width:3.16285157;stroke-miterlimit:4;stroke-dasharray:none;stroke-opacity:1"
       x="1674.0513"
       y="2058.1064"
       id="text4246-2-3-1-3-9-3-7-9-9-3"
       transform="matrix(0.94298727,0,-0.12394991,1.0604597,0,0)"><tspan
         sodipodi:role="line"
         style="font-size:54.74166489px;line-height:1.25;stroke:#000000;stroke-width:3.16285157;stroke-miterlimit:4;stroke-dasharray:none;stroke-opacity:1"
         x="1674.0513"
         y="2058.1064"
         id="tspan4814-3-4-7">Carrot!</tspan><tspan
         sodipodi:role="line"
         style="font-size:54.74166489px;line-height:1.25;stroke:#000000;stroke-width:3.16285157;stroke-miterlimit:4;stroke-dasharray:none;stroke-opacity:1"
         x="1674.0513"
         y="2126.5334"
         id="tspan4769">NEE!!!</tspan></text>
  </g>
</svg>
