<?xml version="1.0" encoding="UTF-8" standalone="no"?>
<svg
   xmlns:dc="http://purl.org/dc/elements/1.1/"
   xmlns:cc="http://creativecommons.org/ns#"
   xmlns:rdf="http://www.w3.org/1999/02/22-rdf-syntax-ns#"
   xmlns:svg="http://www.w3.org/2000/svg"
   xmlns="http://www.w3.org/2000/svg"
   xmlns:xlink="http://www.w3.org/1999/xlink"
   height="765"
   width="1100"
   version="1.1"
   id="svg2">
  <metadata
     id="metadata8">
    <rdf:RDF>
      <cc:Work
         rdf:about="">
        <dc:format>image/svg+xml</dc:format>
        <dc:type
           rdf:resource="http://purl.org/dc/dcmitype/StillImage" />
        <dc:title></dc:title>
      </cc:Work>
    </rdf:RDF>
  </metadata>
  <defs
     id="defs6">
    <filter
       style="color-interpolation-filters:sRGB;"
       id="filter3797">
      <feFlood
         result="flood"
         flood-color="rgb(0,0,0)"
         flood-opacity="0.8"
         id="feFlood3799" />
      <feComposite
         result="composite1"
         operator="in"
         in="flood"
         in2="SourceGraphic"
         id="feComposite3801" />
      <feGaussianBlur
         result="blur"
         stdDeviation="10"
         in="composite"
         id="feGaussianBlur3803" />
      <feOffset
         result="offset"
         dy="10"
         dx="8"
         id="feOffset3805" />
      <feComposite
         result="composite2"
         operator="over"
         in="SourceGraphic"
         in2="offset"
         id="feComposite3807" />
    </filter>
    <filter
       style="color-interpolation-filters:sRGB;"
       id="filter3836">
      <feFlood
         result="flood"
         flood-color="rgb(0,0,0)"
         flood-opacity="0.94664031620553357"
         id="feFlood3838" />
      <feComposite
         result="composite1"
         operator="in"
         in="flood"
         in2="SourceGraphic"
         id="feComposite3840" />
      <feGaussianBlur
         result="blur"
         stdDeviation="5"
         in="composite"
         id="feGaussianBlur3842" />
      <feOffset
         result="offset"
         dy="4.4534412955465683"
         dx="2.0242914979757103"
         id="feOffset3844" />
      <feComposite
         result="composite2"
         operator="over"
         in="SourceGraphic"
         in2="offset"
         id="feComposite3846" />
    </filter>
    <filter
       id="filter3836-3"
       color-interpolation-filters="sRGB">
      <feFlood
         result="flood"
         flood-color="rgb(0,0,0)"
         flood-opacity="0.94664031620553357"
         id="feFlood3838-1" />
      <feComposite
         result="composite1"
         operator="in"
         in="flood"
         in2="SourceGraphic"
         id="feComposite3840-8" />
      <feGaussianBlur
         result="blur"
         stdDeviation="5"
         id="feGaussianBlur3842-0" />
      <feOffset
         result="offset"
         dy="4.4534412955465683"
         dx="2.0242914979757103"
         id="feOffset3844-5" />
      <feComposite
         result="composite2"
         operator="over"
         in="SourceGraphic"
         in2="offset"
         id="feComposite3846-7" />
    </filter>
  </defs>
  <g
     id="layer1" />
  <image
     xlink:href="../gfx_Pepper-and-Carrot_by-David-Revoy_E08.png"
     y="0"
     x="0"
     id="image10"
     height="765"
     width="1100" />
  <g
     id="layer2">
    <flowRoot
       transform="matrix(0.69723552,0,0,0.69723552,-803.6953,243.62529)"
       style="font-style:normal;font-variant:normal;font-weight:normal;font-stretch:normal;line-height:0.01%;font-family:Arial;-inkscape-font-specification:Arial;letter-spacing:0px;word-spacing:0px;display:inline;fill:#ffffff;fill-opacity:1;stroke:none;filter:url(#filter3836-3)"
       id="episode-title"
       xml:space="preserve"><flowRegion
         id="flowRegion2989-0"><rect
           style="fill:#ffffff;fill-opacity:1"
           y="644.36664"
           x="739.22333"
           height="107.55731"
           width="2405.8"
           id="rect2991-9" /></flowRegion><flowPara
         style="font-style:normal;font-variant:normal;font-weight:normal;font-stretch:normal;font-size:68.8433075px;line-height:1.25;font-family:Lavi;-inkscape-font-specification:Lavi;text-align:center;text-anchor:middle;fill:#ffffff;fill-opacity:1"
         id="flowPara2993-2">8. díl: Feferončina narozeninová párty</flowPara></flowRoot>  </g>
</svg>
