<?xml version="1.0" encoding="UTF-8" standalone="no"?>
<!-- Created with Inkscape (http://www.inkscape.org/) -->

<svg
   xmlns:dc="http://purl.org/dc/elements/1.1/"
   xmlns:cc="http://creativecommons.org/ns#"
   xmlns:rdf="http://www.w3.org/1999/02/22-rdf-syntax-ns#"
   xmlns:svg="http://www.w3.org/2000/svg"
   xmlns="http://www.w3.org/2000/svg"
   xmlns:xlink="http://www.w3.org/1999/xlink"
   xmlns:sodipodi="http://sodipodi.sourceforge.net/DTD/sodipodi-0.dtd"
   xmlns:inkscape="http://www.inkscape.org/namespaces/inkscape"
   id="svg2"
   version="1.1"
   inkscape:version="0.92.3 (2405546, 2018-03-11)"
   width="2481"
   height="3503"
   sodipodi:docname="E12P04.svg">
  <sodipodi:namedview
     pagecolor="#ffffff"
     bordercolor="#666666"
     inkscape:pageopacity="0"
     inkscape:pageshadow="2"
     inkscape:window-width="1813"
     inkscape:window-height="955"
     id="namedview70"
     showgrid="false"
     inkscape:zoom="0.30245747"
     inkscape:cx="845.85267"
     inkscape:cy="250.16923"
     inkscape:current-layer="layer1"
     inkscape:window-x="0"
     inkscape:window-y="26"
     inkscape:window-maximized="0" />
  <metadata
     id="metadata8">
    <rdf:RDF>
      <cc:Work
         rdf:about="">
        <dc:format>image/svg+xml</dc:format>
        <dc:type
           rdf:resource="http://purl.org/dc/dcmitype/StillImage" />
        <dc:title />
      </cc:Work>
    </rdf:RDF>
  </metadata>
  <defs
     id="defs6">
    <linearGradient
       id="linearGradient4240"
       inkscape:collect="always">
      <stop
         id="stop4282"
         offset="0"
         style="stop-color:#507e72;stop-opacity:1;" />
      <stop
         id="stop4284"
         offset="1"
         style="stop-color:#507e72;stop-opacity:0;" />
    </linearGradient>
    <filter
       style="color-interpolation-filters:sRGB"
       id="filter3018"
       inkscape:label="Lapping"
       inkscape:menu="Distort"
       inkscape:menu-tooltip="Something like a water noise"
       height="1.3"
       y="-0.15000001"
       width="1.3"
       x="-0.15000001">
      <feTurbulence
         id="feTurbulence3020"
         numOctaves="5"
         seed="0"
         type="fractalNoise"
         baseFrequency="0.045999999999999999"
         result="result1" />
      <feGaussianBlur
         id="feGaussianBlur3022"
         stdDeviation="2"
         result="result2" />
      <feDisplacementMap
         id="feDisplacementMap3024"
         in2="result2"
         scale="50"
         yChannelSelector="B"
         xChannelSelector="R"
         in="SourceGraphic" />
    </filter>
    <filter
       style="color-interpolation-filters:sRGB"
       id="filter4375-4-1-1-15-1-3-3"
       inkscape:label="deevad outline effect">
      <feFlood
         id="feFlood4377-7-9-0-4-4-4-7"
         flood-opacity="1"
         flood-color="rgb(255,255,255)"
         result="flood" />
      <feComposite
         id="feComposite4379-3-8-8-6-0-7-4"
         in2="SourceGraphic"
         in="flood"
         operator="in"
         result="composite1" />
      <feMorphology
         id="feMorphology4393-1-0-49-8-2-7-3"
         operator="dilate"
         radius="0.69999999999999996"
         result="result3" />
      <feComposite
         id="feComposite4385-9-5-7-2-1-2-9"
         in2="result3"
         in="SourceGraphic"
         operator="over"
         result="composite2" />
    </filter>
    <filter
       style="color-interpolation-filters:sRGB"
       id="filter5376"
       inkscape:label="deevad outline effect">
      <feFlood
         id="feFlood5378"
         flood-opacity="1"
         flood-color="rgb(0,0,0)"
         result="flood" />
      <feComposite
         id="feComposite5380"
         in2="SourceGraphic"
         in="flood"
         operator="in"
         result="composite1" />
      <feMorphology
         id="feMorphology5382"
         operator="dilate"
         radius="0.69999999999999996"
         result="result3" />
      <feComposite
         id="feComposite5384"
         in2="result3"
         in="SourceGraphic"
         operator="over"
         result="composite2" />
    </filter>
    <filter
       style="color-interpolation-filters:sRGB"
       id="filter5386"
       inkscape:label="deevad outline effect">
      <feFlood
         id="feFlood5388"
         flood-opacity="1"
         flood-color="rgb(0,0,0)"
         result="flood" />
      <feComposite
         id="feComposite5390"
         in2="SourceGraphic"
         in="flood"
         operator="in"
         result="composite1" />
      <feMorphology
         id="feMorphology5392"
         operator="dilate"
         radius="0.69999999999999996"
         result="result3" />
      <feComposite
         id="feComposite5394"
         in2="result3"
         in="SourceGraphic"
         operator="over"
         result="composite2" />
    </filter>
    <linearGradient
       inkscape:collect="always"
       xlink:href="#linearGradient4240"
       id="linearGradient4248"
       x1="1115.3353"
       y1="1088.5996"
       x2="1246.5587"
       y2="1088.5996"
       gradientUnits="userSpaceOnUse"
       gradientTransform="translate(0.52409995,-2.5629152)" />
    <linearGradient
       inkscape:collect="always"
       xlink:href="#linearGradient4240"
       id="linearGradient4254"
       gradientUnits="userSpaceOnUse"
       x1="1115.3353"
       y1="1088.5996"
       x2="1246.5587"
       y2="1088.5996"
       gradientTransform="matrix(1.032694,-0.0861706,0.45074766,0.74987318,-518.89465,372.51642)" />
  </defs>
  <sodipodi:namedview
     pagecolor="#ffffff"
     bordercolor="#666666"
     borderopacity="1"
     objecttolerance="10"
     gridtolerance="10"
     guidetolerance="10"
     inkscape:pageopacity="0"
     inkscape:pageshadow="2"
     inkscape:window-width="1920"
     inkscape:window-height="1025"
     id="namedview4"
     showgrid="false"
     inkscape:zoom="0.34980126"
     inkscape:cx="1454.7204"
     inkscape:cy="2296.6629"
     inkscape:window-x="0"
     inkscape:window-y="26"
     inkscape:window-maximized="1"
     inkscape:current-layer="layer1" />
  <g
     inkscape:groupmode="layer"
     id="layer2"
     inkscape:label="artwork"
     sodipodi:insensitive="true">
    <image
       sodipodi:absref="/home/deevad/peppercarrot/webcomics/ep12_Autumn-Clearout/lang/vi/../gfx_Pepper-and-Carrot_by-David-Revoy_E12P04.png"
       xlink:href="../gfx_Pepper-and-Carrot_by-David-Revoy_E12P04.png"
       y="0"
       x="0"
       id="image10"
       height="3503"
       width="2481" />
  </g>
  <g
     inkscape:groupmode="layer"
     id="layer3"
     inkscape:label="speechbubbles" />
  <g
     inkscape:groupmode="layer"
     id="layer1"
     inkscape:label="txt">
    <path
       style="color:#000000;display:inline;overflow:visible;visibility:visible;fill:#ffffff;fill-opacity:1;fill-rule:nonzero;stroke:none;stroke-width:1px;marker:none;enable-background:accumulate"
       d="m 1730.9721,3021.9343 c 52.1772,-10.4222 63.6945,26.403 70.7317,35.906 7.0371,9.5028 32.2156,44.088 74.1582,32.9357 41.9427,-11.1521 77.5382,21.6044 77.5382,21.6044 l -62.3655,18.0534 c 0,0 -50.3055,-6.8032 -71.4618,-25.6713 -21.1563,-18.8682 -37.1056,-56.6525 -49.4426,-63.9617 -12.3371,-7.3094 -22.4357,-18.9595 -39.1582,-18.8665 z"
       id="path4018-2"
       inkscape:connector-curvature="0" />
    <path
       style="color:#000000;display:inline;overflow:visible;visibility:visible;fill:#0f0f0f;fill-opacity:1;fill-rule:nonzero;stroke:none;stroke-width:1px;marker:none;filter:url(#filter3018);enable-background:accumulate"
       d="m 168.28312,242.56886 c 0,-59.7361 29.8086,-90.5375 118.2404,-96.1379 88.4319,-5.6002 342.7586,-13.9748 381.5097,5.6261 38.751,19.601 38.7901,48.5099 40.7774,87.7117 1.9872,39.2018 -86.4447,99.8714 -174.8765,97.0713 -88.4319,-2.8002 -223.7312,5.5744 -271.4248,-8.4263 -47.6936,-14.0007 -90.2517,-38.2427 -94.2262,-85.8449 z"
       id="path3986"
       inkscape:connector-curvature="0"
       sodipodi:nodetypes="csssssc"
       transform="matrix(0.73842201,0,0,0.76517214,1847.7207,12.051165)" />
    <path
       style="fill:#0a0a0a;fill-opacity:1;stroke:none"
       d="m 1882.748,241.11233 c 12.8769,-20.79824 21.8584,-33.68646 30.8495,-34.42048 8.9909,-0.73404 19.5302,-2.45451 26.2874,6.26895 6.757,8.72348 20.3744,16.55036 26.0431,12.72173 5.6686,-3.82881 26.2408,-18.67303 32.7826,-38.69233 6.5418,-20.01935 23.0868,17.86225 23.0868,17.86225 0,0 -19.2869,31.83101 -23.8762,36.05781 -4.5893,4.22693 -16.5837,20.9888 -37.2869,8.9907 -20.703,-11.99834 -30.9794,-28.25116 -41.6877,-30.33144 -10.7083,-2.08042 -27.3574,5.48716 -36.1986,21.54281 z"
       id="path3137"
       inkscape:connector-curvature="0" />
    <flowRoot
       xml:space="preserve"
       id="flowRoot4133-6-9-4-8-5-3"
       style="color:#000000;font-style:normal;font-variant:normal;font-weight:500;font-stretch:normal;line-height:0.01%;font-family:ComicSpice;-inkscape-font-specification:'ComicSpice Medium';letter-spacing:0.00204969px;word-spacing:0px;display:inline;overflow:visible;visibility:visible;fill:#000000;fill-opacity:1;fill-rule:nonzero;stroke:none;stroke-width:0.09584508;stroke-linecap:butt;stroke-linejoin:miter;stroke-miterlimit:4;stroke-dasharray:none;stroke-dashoffset:0;stroke-opacity:1;marker:none;filter:url(#filter4375-4-1-1-15-1-3-3);enable-background:accumulate"
       transform="matrix(8.04379,-2.1886972,-8.357211,22.607177,565.14675,-21139.188)"><flowRegion
         id="flowRegion4135-2-9-3-5-2-6"
         style="fill:url(#linearGradient4254);fill-opacity:1;stroke-width:0.75773036"><rect
           id="rect4137-1-7-1-2-1-4"
           width="200.00224"
           height="39.051064"
           x="1125.3193"
           y="1078.5308"
           style="color:#000000;font-style:normal;font-variant:normal;font-weight:500;font-stretch:normal;font-family:ComicSpice;-inkscape-font-specification:'ComicSpice Medium';letter-spacing:0.00204969px;display:inline;overflow:visible;visibility:visible;fill:#000000;fill-opacity:1;fill-rule:nonzero;stroke:none;stroke-width:0.09584508;stroke-linecap:butt;stroke-linejoin:miter;stroke-miterlimit:4;stroke-dasharray:none;stroke-dashoffset:0;stroke-opacity:1;marker:none;enable-background:accumulate" /></flowRegion><flowPara
         id="flowPara4139-2-8-6-8-6-3"
         style="color:#000000;font-style:normal;font-variant:normal;font-weight:500;font-stretch:normal;font-size:17.85409164px;line-height:125%;font-family:ComicSpice;-inkscape-font-specification:'ComicSpice Medium';letter-spacing:0.00204969px;word-spacing:0.00204969px;display:inline;overflow:visible;visibility:visible;fill:#000000;fill-opacity:1;fill-rule:nonzero;stroke:none;stroke-width:0.09584508;stroke-linecap:butt;stroke-linejoin:miter;stroke-miterlimit:4;stroke-dasharray:none;stroke-dashoffset:0;stroke-opacity:1;marker:none;enable-background:accumulate">VRO<flowSpan
   style="font-style:normal;font-variant:normal;font-weight:500;font-stretch:normal;font-size:15.68638802px;font-family:ComicSpice;-inkscape-font-specification:'ComicSpice Medium';fill:#000000;fill-opacity:1;stroke-width:0.09584508"
   id="flowSpan4250">O</flowSpan>oo<flowSpan
   style="font-style:normal;font-variant:normal;font-weight:500;font-stretch:normal;font-size:15.71809769px;font-family:ComicSpice;-inkscape-font-specification:'ComicSpice Medium';fill:#000000;fill-opacity:1;stroke:none;stroke-width:0.09584508;stroke-miterlimit:4;stroke-dasharray:none"
   id="flowSpan3145">oo</flowSpan><flowSpan
   style="font-style:normal;font-variant:normal;font-weight:500;font-stretch:normal;font-size:10.73411274px;font-family:ComicSpice;-inkscape-font-specification:'ComicSpice Medium';fill:#000000;fill-opacity:1;stroke:none;stroke-width:0.09584508;stroke-miterlimit:4;stroke-dasharray:none"
   id="flowSpan3137">oo</flowSpan><flowSpan
   style="font-style:normal;font-variant:normal;font-weight:500;font-stretch:normal;font-size:7.88612223px;font-family:ComicSpice;-inkscape-font-specification:'ComicSpice Medium';fill:#000000;fill-opacity:1;stroke:none;stroke-width:0.09584508;stroke-miterlimit:4;stroke-dasharray:none"
   id="flowSpan3133">oo</flowSpan><flowSpan
   style="font-style:normal;font-variant:normal;font-weight:500;font-stretch:normal;font-size:6.46212626px;font-family:ComicSpice;-inkscape-font-specification:'ComicSpice Medium';fill:#000000;fill-opacity:1;stroke:none;stroke-width:0.09584508;stroke-miterlimit:4;stroke-dasharray:none"
   id="flowSpan3127">oo</flowSpan></flowPara></flowRoot>    <path
       style="color:#000000;display:inline;overflow:visible;visibility:visible;fill:#ffffff;fill-opacity:1;fill-rule:nonzero;stroke:none;stroke-width:1px;marker:none;enable-background:accumulate"
       d="m 1024.9937,2365.3234 c 2.868,-38.0963 27.3292,-70.7903 56.1708,-78.061 28.8417,-7.2712 270.0389,-5.3527 288.7566,3.2578 18.7175,8.6103 47.0354,14.5388 42.5529,79.8308 -4.4828,65.2921 -38.3865,80.5036 -72.9409,83.3345 -34.5544,2.8307 -240.0586,19.7476 -271.0968,-14.7665 -31.038,-34.5142 -42.4207,-30.9914 -43.4426,-73.5956 z"
       id="path4010"
       inkscape:connector-curvature="0" />
    <path
       style="color:#000000;display:inline;overflow:visible;visibility:visible;fill:#ffffff;fill-opacity:1;fill-rule:nonzero;stroke:none;stroke-width:1px;marker:none;enable-background:accumulate"
       d="m 1287.4054,2417.7862 c -0.7634,37.3627 13.0436,89.1002 26.3742,97.6848 25.3924,-11.066 67.4464,-38.6593 70.377,-34.6699 2.9305,3.9895 18.0855,86.5962 25.0189,88.0952 6.9333,1.4989 30.9521,-2.304 39.1027,-7.8595 -25.2937,13.3153 -45.3376,21.4267 -54.6793,16.0976 -6.4984,-3.2227 -17.7346,-67.9228 -18.2864,-72.4234 -19.9567,9.9946 -58.9409,35.2187 -67.4984,35.699 -8.9035,-7.0578 -66.3464,-77.2823 -81.4648,-106.9032 -25.9387,-50.8205 61.0561,-15.7206 61.0561,-15.7206 z"
       id="path5901"
       inkscape:connector-curvature="0"
       sodipodi:nodetypes="ccccccccsc" />
    <flowRoot
       xml:space="preserve"
       id="flowRoot2987-4-9-3-1"
       style="font-style:normal;font-variant:normal;font-weight:500;font-stretch:normal;line-height:0.01%;font-family:ComicSpice;-inkscape-font-specification:'ComicSpice Medium';text-align:center;letter-spacing:0px;word-spacing:0px;text-anchor:middle;fill:#000000;fill-opacity:1;stroke:#000000;stroke-width:0.69999999;stroke-miterlimit:4;stroke-dasharray:none;stroke-opacity:1"
       transform="translate(789.11515,2049.8991)"><flowRegion
         id="flowRegion2989-5-4-5-6"><rect
           id="rect2991-7-9-6-4"
           width="602.40173"
           height="310.73996"
           x="120.55251"
           y="265.53046"
           style="font-style:normal;font-variant:normal;font-weight:500;font-stretch:normal;font-family:ComicSpice;-inkscape-font-specification:'ComicSpice Medium';text-align:center;text-anchor:middle;stroke:#000000;stroke-width:0.69999999;stroke-miterlimit:4;stroke-dasharray:none;stroke-opacity:1" /></flowRegion><flowPara
         style="font-style:normal;font-variant:normal;font-weight:500;font-stretch:normal;font-size:48px;line-height:1.25;font-family:ComicSpice;-inkscape-font-specification:'ComicSpice Medium';text-align:center;text-anchor:middle;stroke:#000000;stroke-width:0.69999999;stroke-miterlimit:4;stroke-dasharray:none;stroke-opacity:1"
         id="flowPara3601">... Một hố đen</flowPara><flowPara
         style="font-style:normal;font-variant:normal;font-weight:500;font-stretch:normal;font-size:48px;line-height:1.25;font-family:ComicSpice;-inkscape-font-specification:'ComicSpice Medium';text-align:center;text-anchor:middle;stroke:#000000;stroke-width:0.69999999;stroke-miterlimit:4;stroke-dasharray:none;stroke-opacity:1"
         id="flowPara3415">Chaosad?!...</flowPara></flowRoot>    <path
       style="color:#000000;display:inline;overflow:visible;visibility:visible;fill:#ffffff;fill-opacity:1;fill-rule:nonzero;stroke:none;stroke-width:1px;marker:none;enable-background:accumulate"
       d="m 1070.982,2568.5839 c 8.7637,5.2154 141.7779,86.5711 61.3807,61.0441 36.3964,35.5915 16.5811,59.2682 -0.039,83.622 11.329,8.8746 30.5258,12.7497 21.8913,34.3101 13.0598,-1.152 20.2591,7.7065 22.2295,25.4972 11.6959,-21.3808 20.2372,-24.2944 20.8958,18.9382 6.679,-31.7638 13.819,-61.2606 35.4832,-19.3367 2.8511,-11.6293 -15.8477,-43.2407 51.4805,-19.247 -18.6045,-23.709 -26.9588,-47.1817 24.7644,-66.8065 -16.9327,-11.2154 -27.1142,-25.59 2.4674,-45.49 -17.3835,-8.0001 -13.5974,-37.0514 -7.9216,-47.0666 -24.4314,18.1369 -37.0289,15.3922 -33.6658,-13.9394 -45.899,42.8326 -33.0105,3.9428 -40.9345,-5.3806 -19.7635,36.2015 -32.4396,16.606 -46.9604,7.3124 6.6292,51.3875 -90.5942,-12.1289 -111.0714,-13.4572 z"
       id="path3549-3"
       inkscape:connector-curvature="0"
       sodipodi:nodetypes="ccccccccccccccc" />
    <flowRoot
       transform="matrix(1.3554975,-0.28883354,-0.33025212,2.1576154,612.80142,2190.2629)"
       style="font-style:normal;font-variant:normal;font-weight:500;font-stretch:normal;line-height:0.01%;font-family:ComicSpice;-inkscape-font-specification:'ComicSpice Medium';text-align:center;letter-spacing:0px;word-spacing:0px;text-anchor:middle;fill:#000000;fill-opacity:1;stroke:#000000;stroke-width:1.42624533;stroke-miterlimit:4;stroke-dasharray:none;stroke-opacity:1"
       id="flowRoot4212-3-7-8-6"
       xml:space="preserve"><flowRegion
         id="flowRegion4214-6-7-8-3"
         style="stroke-width:1.42624533"><rect
           style="font-style:normal;font-variant:normal;font-weight:500;font-stretch:normal;font-family:ComicSpice;-inkscape-font-specification:'ComicSpice Medium';text-align:center;text-anchor:middle;stroke:#000000;stroke-width:1.42624533;stroke-miterlimit:4;stroke-dasharray:none;stroke-opacity:1"
           y="265.53046"
           x="120.55251"
           height="355.03918"
           width="798.1947"
           id="rect4216-4-0-26-5" /></flowRegion><flowPara
         style="font-style:normal;font-variant:normal;font-weight:500;font-stretch:normal;font-size:48px;line-height:1.25;font-family:ComicSpice;-inkscape-font-specification:'ComicSpice Medium';text-align:center;letter-spacing:5.20896292px;text-anchor:middle;stroke:#000000;stroke-width:1.42624533;stroke-miterlimit:4;stroke-dasharray:none;stroke-opacity:1"
         id="flowPara4358-7-1">?!</flowPara></flowRoot>    <path
       style="color:#000000;display:inline;overflow:visible;visibility:visible;fill:#ffffff;fill-opacity:1;fill-rule:nonzero;stroke:none;stroke-width:1px;marker:none;enable-background:accumulate"
       d="m 1931.0268,2519.4899 c 66.0039,-56.3705 384.2102,-38.0867 421.026,10.7062 36.8159,48.7928 61.199,163.4855 1.8241,196.1715 -59.3749,32.6859 -407.6811,21.4798 -440.255,-35.9064 -32.574,-57.3863 -48.5989,-114.6009 17.4049,-170.9713 z"
       id="path4008-8"
       inkscape:connector-curvature="0"
       sodipodi:nodetypes="zsssz"
       inkscape:transform-center-x="-424.24175"
       inkscape:transform-center-y="-131.38925" />
    <path
       style="color:#000000;display:inline;overflow:visible;visibility:visible;fill:#ffffff;fill-opacity:1;fill-rule:nonzero;stroke:none;stroke-width:1px;marker:none;enable-background:accumulate"
       d="m 1805.17,2612.9729 c 26.3008,-46.2531 68.2461,-47.2733 80.0361,-46.3664 11.79,0.9069 47.8403,20.9725 66.8857,-18.0252 19.0455,-38.9978 67.1125,-44.4393 67.1125,-44.4393 l -27.2078,58.9501 c 0,0 -38.0908,33.5562 -66.2055,37.1839 -28.1147,3.6277 -67.1124,-9.0693 -80.7163,-4.5346 -13.6039,4.5346 -29.0216,4.5346 -39.9047,17.2315 z"
       id="path4018"
       inkscape:connector-curvature="0"
       sodipodi:nodetypes="cssccssc" />
    <flowRoot
       xml:space="preserve"
       id="flowRoot2987-4-9-3-1-0"
       style="font-style:normal;font-variant:normal;font-weight:500;font-stretch:normal;line-height:0.01%;font-family:ComicSpice;-inkscape-font-specification:'ComicSpice Medium';text-align:center;letter-spacing:0px;word-spacing:0px;text-anchor:middle;fill:#000000;fill-opacity:1;stroke:none"
       transform="translate(1790.3328,2236.5395)"><flowRegion
         id="flowRegion2989-5-4-5-6-5"><rect
           id="rect2991-7-9-6-4-5"
           width="464.9017"
           height="345.73993"
           x="120.55251"
           y="265.53046"
           style="font-style:normal;font-variant:normal;font-weight:500;font-stretch:normal;font-family:ComicSpice;-inkscape-font-specification:'ComicSpice Medium';text-align:center;text-anchor:middle;stroke:none" /></flowRegion><flowPara
         style="font-style:normal;font-variant:normal;font-weight:500;font-stretch:normal;font-size:48px;line-height:1.25;font-family:ComicSpice;-inkscape-font-specification:'ComicSpice Medium';text-align:center;text-anchor:middle;stroke:none"
         id="flowPara3607">... Cô có thực sự </flowPara><flowPara
         style="font-style:normal;font-variant:normal;font-weight:500;font-stretch:normal;font-size:48px;line-height:1.25;font-family:ComicSpice;-inkscape-font-specification:'ComicSpice Medium';text-align:center;text-anchor:middle;stroke:none"
         id="flowPara3419">hiểu câu nói:</flowPara><flowPara
         style="font-style:normal;font-variant:normal;font-weight:500;font-stretch:normal;font-size:48px;line-height:1.25;font-family:ComicSpice;-inkscape-font-specification:'ComicSpice Medium';text-align:center;text-anchor:middle;stroke:none"
         id="flowPara4392">&quot;không dùng ma thuật&quot; không hả?</flowPara></flowRoot>    <path
       style="fill:#ffffff;fill-opacity:1;stroke:none;stroke-width:0.99999994"
       d="m 63.957614,3003.8766 c -6.285506,-107.2128 60.340796,-142.5442 235.077706,-137.6709 174.73689,4.8733 216.22117,67.008 228.79219,104.776 12.57101,37.7682 -13.18047,136.2078 -123.19577,173.0024 -133.67495,44.7076 -373.986541,-47.7649 -355.467726,-52.2536 49.814388,-12.0742 16.050683,-59.8325 14.7936,-87.8539 z"
       id="path3238"
       inkscape:connector-curvature="0"
       sodipodi:nodetypes="cssssc" />
    <flowRoot
       xml:space="preserve"
       id="flowRoot2987-4-9-3-1-0-2"
       style="font-style:normal;font-variant:normal;font-weight:500;font-stretch:normal;line-height:0.01%;font-family:ComicSpice;-inkscape-font-specification:'ComicSpice Medium';text-align:center;letter-spacing:0px;word-spacing:0px;text-anchor:middle;fill:#000000;fill-opacity:1;stroke:none"
       transform="translate(-115.08816,2664.4146)"><flowRegion
         id="flowRegion2989-5-4-5-6-5-0"><rect
           id="rect2991-7-9-6-4-5-0"
           width="602.40173"
           height="310.73996"
           x="120.55251"
           y="265.53046"
           style="font-style:normal;font-variant:normal;font-weight:500;font-stretch:normal;font-family:ComicSpice;-inkscape-font-specification:'ComicSpice Medium';text-align:center;text-anchor:middle;stroke:none" /></flowRegion><flowPara
         style="font-style:normal;font-variant:normal;font-weight:500;font-stretch:normal;font-size:48px;line-height:1.25;font-family:ComicSpice;-inkscape-font-specification:'ComicSpice Medium';text-align:center;text-anchor:middle;stroke:none"
         id="flowPara4444">... Ơ... Chẳng phải </flowPara><flowPara
         style="font-style:normal;font-variant:normal;font-weight:500;font-stretch:normal;font-size:48px;line-height:1.25;font-family:ComicSpice;-inkscape-font-specification:'ComicSpice Medium';text-align:center;text-anchor:middle;stroke:none"
         id="flowPara3425">người đang ở</flowPara><flowPara
         style="font-style:normal;font-variant:normal;font-weight:500;font-stretch:normal;font-size:48px;line-height:1.25;font-family:ComicSpice;-inkscape-font-specification:'ComicSpice Medium';text-align:center;text-anchor:middle;stroke:none"
         id="flowPara3427">khu chợ sao?</flowPara></flowRoot>    <path
       style="fill:#ffffff;stroke:none"
       d="m 636.26666,3129.887 c -33.54532,-28.5524 -77.21093,-4.4917 -85.00038,-18.6576 -7.78947,-14.1658 -13.26426,-27.9115 -23.54038,-30.5739 -10.27611,-2.6623 -24.30315,-0.028 -34.47231,3.3064 -10.16928,3.3345 -15.89843,-4.8387 -23.12511,-13.3234 -7.22678,-8.4848 -55.86753,-43.2562 -55.86753,-43.2562 0,0 11.16465,43.8687 18.91846,56.0356 7.75381,12.1669 10.52558,16.655 14.98049,20.6516 4.45501,3.9967 16.90701,12.2345 28.1992,11.4948 11.29217,-0.7397 21.56576,-6.8447 29.98174,-9.3019 8.41591,-2.4573 20.91113,3.2379 29.15514,12.7043 8.244,9.4665 15.98967,26.2632 53.85941,10.1947 16.89881,-7.1703 46.91127,0.7256 46.91127,0.7256 z"
       id="path3023"
       inkscape:connector-curvature="0"
       sodipodi:nodetypes="csssscssssssc" />
    <path
       style="color:#000000;display:inline;overflow:visible;visibility:visible;fill:#ffffff;fill-opacity:1;fill-rule:nonzero;stroke:none;stroke-width:1px;marker:none;enable-background:accumulate"
       d="m 2388.1692,3146.6791 c -37.4615,-15.6527 -75.6715,-31.1532 -8.0772,-68.1746 -63.7875,8.7099 -24.5343,-11.7388 -8.7188,-25.555 -114.0805,25.8403 -40.0443,-17.862 -11.7416,-44.6577 -25.4889,10.4221 -66.3103,40.3463 -50.4553,-1.8194 -8.0813,1.8061 -17.6396,7.2242 -21.4978,-1.2957 -10.347,5.6481 -17.9915,7.0082 -22.3933,3.2232 -10.2429,10.4339 -16.8001,13.1113 -16.5746,1.5144 -9.6643,8.5734 -12.5548,5.5103 -14.9197,1.5444 -16.643,18.481 -22.6735,13.0735 -29.0942,8.5443 -9.4327,11.1064 -20.2343,8.357 -32.1851,-6.0242 -12.7345,18.9489 -26.0905,17.5405 -39.7952,4.7227 -4.1519,4.6497 -7.9784,12.5912 -13.3196,5.2015 -5.5538,2.4224 -11.1668,8.7854 -16.5882,2.4213 -58.5894,23.7679 -83.6664,2.3428 -110.648,-16.5135 -15.3206,7.8325 -26.5087,23.3045 -52.3148,11.7527 -2.5982,11.2725 -16.5938,15.6155 -40.759,13.7758 24.6019,14.1056 25.7611,21.9036 -31.6582,13.9403 39.9257,11.9089 76.7061,23.7608 14.3876,33.821 14.4893,4.7032 62.2249,-4.8813 9.2185,47.3332 37.2482,-11.0622 70.948,-13.502 80.5899,34.1109 20.1873,-12.1106 42.424,-17.8887 59.4199,11.0519 16.0745,-13.1254 38.2345,-9.5038 49.6962,-2.7296 3.3489,-14.6328 27.3081,-36.7341 58.6879,4.6894 -6.6703,-23.3424 -0.8004,-60.2236 35.5629,1.55 0.8994,-10.6151 -13.5835,-68.6934 89.3414,2.5226 -12.2691,-46.7534 21.8435,-19.0612 48.8689,-2.7446 -13.0808,-29.4106 7.2998,-31.2982 51.5147,-13.5813 -33.8883,-28.3139 1.2702,-20.03 23.4527,-18.624 z"
       id="path3549"
       inkscape:connector-curvature="0"
       sodipodi:nodetypes="ccccccccccccccccccccccccccccc" />
    <path
       style="color:#000000;display:inline;overflow:visible;visibility:visible;fill:#ffffff;fill-opacity:1;fill-rule:nonzero;stroke:none;stroke-width:1px;marker:none;enable-background:accumulate"
       d="m 1847.1424,3319.7061 c -32.0037,-96.2141 20.4901,-134.0483 63.2519,-164.0178 61.0854,-42.8115 359.9504,-62.032 418.4748,-23.9113 58.5247,38.1213 77.8206,65.3575 83.9665,102.0356 6.1461,36.6781 8.2328,134.5555 -48.1429,165.9991 -56.3757,31.4438 -203.5584,44.0844 -291.3421,43.9195 -103.7346,-0.195 -210.3877,-37.0034 -226.2082,-124.0251 z"
       id="path3517"
       inkscape:connector-curvature="0"
       sodipodi:nodetypes="csssssc" />
    <flowRoot
       xml:space="preserve"
       id="flowRoot2987-4-9-3-1-0-2-0"
       style="font-style:normal;font-variant:normal;font-weight:500;font-stretch:normal;line-height:0.01%;font-family:ComicSpice;-inkscape-font-specification:'ComicSpice Medium';text-align:center;letter-spacing:0px;word-spacing:0px;text-anchor:middle;fill:#000000;fill-opacity:1;stroke:none"
       transform="translate(1689.092,2769.11)"><flowRegion
         id="flowRegion2989-5-4-5-6-5-0-7"><rect
           id="rect2991-7-9-6-4-5-0-3"
           width="599.54297"
           height="152.16039"
           x="120.55251"
           y="265.53046"
           style="font-style:normal;font-variant:normal;font-weight:500;font-stretch:normal;font-family:ComicSpice;-inkscape-font-specification:'ComicSpice Medium';text-align:center;text-anchor:middle;stroke:none" /></flowRegion><flowPara
         style="font-style:normal;font-variant:normal;font-weight:500;font-stretch:normal;font-size:48px;line-height:1.25;font-family:ComicSpice;-inkscape-font-specification:'ComicSpice Medium';text-align:center;text-anchor:middle;stroke:none"
         id="flowPara3429">Đương nhiên là</flowPara><flowPara
         style="font-style:normal;font-variant:normal;font-weight:500;font-stretch:normal;font-size:48px;line-height:1.25;font-family:ComicSpice;-inkscape-font-specification:'ComicSpice Medium';text-align:center;text-anchor:middle;stroke:none"
         id="flowPara3433">không rồi!</flowPara></flowRoot>    <flowRoot
       xml:space="preserve"
       id="flowRoot2987-4-9-3-1-0-2-0-5"
       style="font-style:normal;font-variant:normal;font-weight:500;font-stretch:normal;line-height:0.01%;font-family:ComicSpice;-inkscape-font-specification:'ComicSpice Medium';text-align:center;letter-spacing:0px;word-spacing:0px;text-anchor:middle;fill:#000000;fill-opacity:1;stroke:none"
       transform="translate(1688.2802,2902.1525)"><flowRegion
         id="flowRegion2989-5-4-5-6-5-0-7-2"><rect
           id="rect2991-7-9-6-4-5-0-3-2"
           width="513.27673"
           height="252.61493"
           x="165.55251"
           y="268.03046"
           style="font-style:normal;font-variant:normal;font-weight:500;font-stretch:normal;font-family:ComicSpice;-inkscape-font-specification:'ComicSpice Medium';text-align:center;text-anchor:middle;stroke:none" /></flowRegion><flowPara
         style="font-style:normal;font-variant:normal;font-weight:500;font-stretch:normal;font-size:48px;line-height:1.25;font-family:ComicSpice;-inkscape-font-specification:'ComicSpice Medium';text-align:center;text-anchor:middle;stroke:none"
         id="flowPara4535">và ta đã đúng; </flowPara><flowPara
         style="font-style:normal;font-variant:normal;font-weight:500;font-stretch:normal;font-size:48px;line-height:1.25;font-family:ComicSpice;-inkscape-font-specification:'ComicSpice Medium';text-align:center;text-anchor:middle;stroke:none"
         id="flowPara3620">ta không thể rời mắt</flowPara><flowPara
         style="font-style:normal;font-variant:normal;font-weight:500;font-stretch:normal;font-size:48px;line-height:1.25;font-family:ComicSpice;-inkscape-font-specification:'ComicSpice Medium';text-align:center;text-anchor:middle;stroke:none"
         id="flowPara3435">khỏi con kể cả trong</flowPara><flowPara
         style="font-style:normal;font-variant:normal;font-weight:500;font-stretch:normal;font-size:48px;line-height:1.25;font-family:ComicSpice;-inkscape-font-specification:'ComicSpice Medium';text-align:center;text-anchor:middle;stroke:none"
         id="flowPara3437">vài giây!</flowPara></flowRoot>    <flowRoot
       xml:space="preserve"
       id="flowRoot2987-4-9-3"
       style="font-style:normal;font-variant:normal;font-weight:500;font-stretch:normal;line-height:0.01%;font-family:ComicSpice;-inkscape-font-specification:'ComicSpice Medium';text-align:center;letter-spacing:0px;word-spacing:0px;text-anchor:middle;fill:#000000;fill-opacity:1;stroke:none"
       transform="matrix(1.1828616,0,0,1.2750523,1667.3566,-180.63725)"><flowRegion
         id="flowRegion2989-5-4-5"><rect
           id="rect2991-7-9-6"
           width="602.40173"
           height="310.73996"
           x="120.55251"
           y="265.53046"
           style="font-style:normal;font-variant:normal;font-weight:500;font-stretch:normal;font-family:ComicSpice;-inkscape-font-specification:'ComicSpice Medium';text-align:center;text-anchor:middle" /></flowRegion><flowPara
         style="font-style:normal;font-variant:normal;font-weight:500;font-stretch:normal;font-size:45.80274963px;line-height:1.25;font-family:ComicSpice;-inkscape-font-specification:'ComicSpice Medium';text-align:center;text-anchor:middle;fill:#ffffff;fill-opacity:1"
         id="flowPara3071">GURGES ATER!</flowPara></flowRoot>  </g>
</svg>
