<?xml version="1.0" encoding="UTF-8" standalone="no"?>
<!-- Created with Inkscape (http://www.inkscape.org/) -->

<svg
   xmlns:dc="http://purl.org/dc/elements/1.1/"
   xmlns:cc="http://creativecommons.org/ns#"
   xmlns:rdf="http://www.w3.org/1999/02/22-rdf-syntax-ns#"
   xmlns:svg="http://www.w3.org/2000/svg"
   xmlns="http://www.w3.org/2000/svg"
   xmlns:xlink="http://www.w3.org/1999/xlink"
   xmlns:sodipodi="http://sodipodi.sourceforge.net/DTD/sodipodi-0.dtd"
   xmlns:inkscape="http://www.inkscape.org/namespaces/inkscape"
   id="svg2"
   version="1.1"
   inkscape:version="0.92.4 5da689c313, 2019-01-14"
   width="2481"
   height="3503"
   sodipodi:docname="E28P09.svg">
  <metadata
     id="metadata8">
    <rdf:RDF>
      <cc:Work
         rdf:about="">
        <dc:format>image/svg+xml</dc:format>
        <dc:type
           rdf:resource="http://purl.org/dc/dcmitype/StillImage" />
        <dc:title />
      </cc:Work>
    </rdf:RDF>
  </metadata>
  <defs
     id="defs6" />
  <sodipodi:namedview
     pagecolor="#ffffff"
     bordercolor="#666666"
     borderopacity="1"
     objecttolerance="10"
     gridtolerance="10"
     guidetolerance="10"
     inkscape:pageopacity="0"
     inkscape:pageshadow="2"
     inkscape:window-width="1366"
     inkscape:window-height="713"
     id="namedview4"
     showgrid="false"
     inkscape:zoom="0.36415091"
     inkscape:cx="1366.6919"
     inkscape:cy="322.488"
     inkscape:window-x="0"
     inkscape:window-y="27"
     inkscape:window-maximized="1"
     inkscape:current-layer="layer3" />
  <g
     inkscape:groupmode="layer"
     id="layer2"
     inkscape:label="artwork"
     sodipodi:insensitive="true">
    <image
       sodipodi:absref="/home/midgard/git/peppercarrot/comics/ep28_The-Festivities/lang/es/../gfx_Pepper-and-Carrot_by-David-Revoy_E28P09.png"
       xlink:href="../gfx_Pepper-and-Carrot_by-David-Revoy_E28P09.png"
       y="0"
       x="0"
       id="image10"
       height="3503"
       width="2481" />
  </g>
  <g
     inkscape:groupmode="layer"
     id="layer3"
     inkscape:label="speechbubbles">
    <path
       style="fill:#ffffff;fill-rule:evenodd;stroke:none;stroke-width:1.03049529px;stroke-linecap:butt;stroke-linejoin:miter;stroke-opacity:1"
       d="m 1167.9137,231.14214 c 19.7326,-70.03977 48.5725,-95.76867 83.4841,-101.4862 34.9115,-5.71753 160.8965,-4.28815 203.3973,-2.85876 42.501,1.42938 101.6988,15.72321 110.8061,62.89285 9.1074,47.16964 9.1074,155.80276 -15.179,182.96103 -24.2861,27.15828 -80.4482,44.31088 -136.6102,42.8815 -56.1619,-1.42939 -180.6289,12.86444 -214.0226,-35.73458 -33.3937,-48.59902 -34.9115,-112.92126 -31.8757,-148.65584 z"
       id="path889"
       inkscape:connector-curvature="0" />
    <path
       style="fill:#ffffff;fill-rule:evenodd;stroke:none;stroke-width:1px;stroke-linecap:butt;stroke-linejoin:miter;stroke-opacity:1"
       d="m 1115.0193,506.87426 c 34.1115,-49.03527 51.8779,-64.6697 63.2484,-73.19757 -2.8427,27.00493 -2.8427,32.69017 4.2639,32.69017 7.1066,0 170.5574,-137.15661 170.5574,-137.15661 l -87.4106,23.45165 c 0,0 -32.6902,47.61396 -46.9033,61.11642 -14.2132,13.50246 -29.1369,24.87296 -29.1369,24.87296 0,0 6.3959,-14.92378 4.2639,-19.89837 -2.132,-4.97459 -20.609,-17.7664 -78.8828,88.12135 z"
       id="path891"
       inkscape:connector-curvature="0" />
    <path
       style="fill:#ffffff;fill-rule:evenodd;stroke:none;stroke-width:1px;stroke-linecap:butt;stroke-linejoin:miter;stroke-opacity:1"
       d="m 2062.7502,120.38398 c 9.5915,-36.33592 34.3246,-35.141934 51.487,-35.959188 17.1623,-0.817255 171.6234,-0.817255 196.141,1.634508 24.5177,2.451764 46.5835,16.34509 49.0353,36.77645 2.4517,20.43136 6.761,52.62495 -28.6039,68.64937 -37.8314,17.14205 -187.1513,16.34509 -227.1967,4.90353 -40.0455,-11.44157 -50.4542,-39.66874 -40.8627,-76.00467 z"
       id="path893"
       inkscape:connector-curvature="0"
       sodipodi:nodetypes="zsscssz" />
    <path
       style="fill:#ffffff;fill-rule:evenodd;stroke:none;stroke-width:1px;stroke-linecap:butt;stroke-linejoin:miter;stroke-opacity:1"
       d="m 2267.1497,172.17705 c -25.3365,54.38062 -31.9986,68.79 -36.9423,79.91331 -4.9437,11.12331 1.2237,26.43947 21.9453,22.50245 28.8196,-5.4756 85.7031,8.41081 27.3562,113.25288 42.6394,-101.96369 -1.8539,-98.25592 -18.5389,-93.93019 -16.6849,4.32573 -76.0093,8.65147 -60.5602,-45.11121 15.449,-53.76267 50.0549,-124.2103 50.0549,-124.2103 l 25.9544,16.68497 z"
       id="path895"
       inkscape:connector-curvature="0"
       sodipodi:nodetypes="csscccccc" />
    <path
       style="fill:#ffffff;fill-rule:evenodd;stroke:none;stroke-width:0.87162977px;stroke-linecap:butt;stroke-linejoin:miter;stroke-opacity:1"
       d="m 2002.0926,1018.3127 c 8.7299,-65.50215 83.5295,-85.20122 160.118,-78.39563 76.5886,6.80558 116.0724,49.3144 117.45,86.85223 0.2977,31.1419 -9.6505,78.9591 -88.4302,88.8286 -78.7798,9.8696 -196.1483,-2.882 -189.1378,-97.2852 z"
       id="path912"
       inkscape:connector-curvature="0"
       sodipodi:nodetypes="cscsc" />
    <path
       style="fill:#ffffff;fill-rule:evenodd;stroke:none;stroke-width:1px;stroke-linecap:butt;stroke-linejoin:miter;stroke-opacity:1"
       d="m 2172.6623,824.46041 c 28.5876,33.55943 48.4747,75.81945 -1.243,121.8083 -49.7176,45.98884 31.0736,31.07354 31.0736,31.07354 0,0 72.0906,-75.81945 -29.8306,-152.88184 z"
       id="path914"
       inkscape:connector-curvature="0" />
    <text
       xml:space="preserve"
       style="font-style:normal;font-variant:normal;font-weight:normal;font-stretch:normal;font-size:43.85733414px;line-height:0%;font-family:Lavi;-inkscape-font-specification:'Lavi, Normal';font-variant-ligatures:normal;font-variant-caps:normal;font-variant-numeric:normal;font-feature-settings:normal;text-align:center;letter-spacing:0px;word-spacing:0px;writing-mode:lr-tb;text-anchor:middle;display:inline;fill:#241c1c;fill-opacity:1;stroke:#000000;stroke-width:0.82200003;stroke-miterlimit:4;stroke-dasharray:none;stroke-opacity:1"
       x="2421.6179"
       y="3314.9802"
       id="text4213"
       transform="matrix(0.96049651,0,-0.32716292,1.0411282,0,0)"><tspan
         sodipodi:role="line"
         id="tspan3562"
         x="2421.6179"
         y="3314.9802"
         style="font-style:normal;font-variant:normal;font-weight:normal;font-stretch:normal;font-size:43.85733414px;line-height:1.25;font-family:Lavi;-inkscape-font-specification:'Lavi, Normal';font-variant-ligatures:normal;font-variant-caps:normal;font-variant-numeric:normal;font-feature-settings:normal;text-align:center;writing-mode:lr-tb;text-anchor:middle;stroke-width:0.82200003">CONTINUARÁ...</tspan></text>
  </g>
  <g
     inkscape:groupmode="layer"
     id="layer1"
     inkscape:label="txt">
    <text
       xml:space="preserve"
       style="font-style:normal;font-variant:normal;font-weight:normal;font-stretch:normal;line-height:0%;font-family:Lavi;-inkscape-font-specification:Lavi;text-align:center;letter-spacing:0px;word-spacing:0px;text-anchor:middle;fill:#000000;fill-opacity:1;stroke:none"
       x="1372.3652"
       y="207.29631"
       id="text4246"><tspan
         sodipodi:role="line"
         style="font-size:45px;line-height:1.20000005"
         x="1372.3652"
         y="207.29631"
         id="tspan823">¡Oh! ¿¡Pepper!?</tspan><tspan
         sodipodi:role="line"
         style="font-size:45px;line-height:1.20000005"
         x="1372.3652"
         y="261.29633"
         id="tspan827">¿Hemos dicho</tspan><tspan
         sodipodi:role="line"
         style="font-size:45px;line-height:1.20000005"
         x="1372.3652"
         y="315.29633"
         id="tspan28">algo que te</tspan><tspan
         sodipodi:role="line"
         style="font-size:45px;line-height:1.20000005"
         x="1372.3652"
         y="369.29633"
         id="tspan831">haya molestado?</tspan></text>
    <text
       xml:space="preserve"
       style="font-style:normal;font-variant:normal;font-weight:normal;font-stretch:normal;line-height:0%;font-family:Lavi;-inkscape-font-specification:Lavi;text-align:center;letter-spacing:0px;word-spacing:0px;text-anchor:middle;fill:#000000;fill-opacity:1;stroke:none"
       x="2212.4995"
       y="157.13844"
       id="text4246-3"><tspan
         sodipodi:role="line"
         style="font-size:45px;line-height:1.20000005"
         x="2212.4995"
         y="157.13844"
         id="tspan831-3">¡Para nada!</tspan></text>
    <text
       xml:space="preserve"
       style="font-style:normal;font-variant:normal;font-weight:normal;font-stretch:normal;line-height:0%;font-family:Lavi;-inkscape-font-specification:Lavi;text-align:center;letter-spacing:0px;word-spacing:0px;text-anchor:middle;fill:#000000;fill-opacity:1;stroke:none"
       x="2143.7927"
       y="1017.2151"
       id="text4246-3-5"><tspan
         sodipodi:role="line"
         style="font-size:45px;line-height:1.20000005"
         x="2143.7927"
         y="1017.2151"
         id="tspan831-3-6">¡Gracias,</tspan><tspan
         sodipodi:role="line"
         style="font-size:45px;line-height:1.20000005"
         x="2143.7927"
         y="1071.2151"
         id="tspan887">amigas!</tspan></text>
  </g>
</svg>
