<?xml version="1.0" encoding="UTF-8" standalone="no"?>
<!-- Created with Inkscape (http://www.inkscape.org/) -->

<svg
   xmlns:dc="http://purl.org/dc/elements/1.1/"
   xmlns:cc="http://creativecommons.org/ns#"
   xmlns:rdf="http://www.w3.org/1999/02/22-rdf-syntax-ns#"
   xmlns:svg="http://www.w3.org/2000/svg"
   xmlns="http://www.w3.org/2000/svg"
   xmlns:xlink="http://www.w3.org/1999/xlink"
   xmlns:sodipodi="http://sodipodi.sourceforge.net/DTD/sodipodi-0.dtd"
   xmlns:inkscape="http://www.inkscape.org/namespaces/inkscape"
   id="svg2"
   version="1.1"
   inkscape:version="0.92.2 2405546, 2018-03-11"
   width="2481"
   height="3503"
   sodipodi:docname="E25P09.svg">
  <metadata
     id="metadata8">
    <rdf:RDF>
      <cc:Work
         rdf:about="">
        <dc:format>image/svg+xml</dc:format>
        <dc:type
           rdf:resource="http://purl.org/dc/dcmitype/StillImage" />
        <dc:title />
      </cc:Work>
    </rdf:RDF>
  </metadata>
  <defs
     id="defs6" />
  <sodipodi:namedview
     pagecolor="#ffffff"
     bordercolor="#666666"
     borderopacity="1"
     objecttolerance="10"
     gridtolerance="10"
     guidetolerance="10"
     inkscape:pageopacity="0"
     inkscape:pageshadow="2"
     inkscape:window-width="950"
     inkscape:window-height="1006"
     id="namedview4"
     showgrid="false"
     inkscape:zoom="0.32343249"
     inkscape:cx="724.84213"
     inkscape:cy="-38.972364"
     inkscape:window-x="0"
     inkscape:window-y="41"
     inkscape:window-maximized="0"
     inkscape:current-layer="layer1" />
  <g
     inkscape:groupmode="layer"
     id="layer2"
     inkscape:label="artwork"
     sodipodi:insensitive="true">
    <image
       sodipodi:absref="/home/nightlock/peppercarrot/webcomics/ep25_There-are-no-Shortcuts/lang/kr/../gfx_Pepper-and-Carrot_by-David-Revoy_E25P09.png"
       xlink:href="../gfx_Pepper-and-Carrot_by-David-Revoy_E25P09.png"
       y="0"
       x="0"
       id="image10"
       height="3503"
       width="2481" />
  </g>
  <g
     inkscape:groupmode="layer"
     id="layer3"
     inkscape:label="speechbubbles" />
  <g
     inkscape:groupmode="layer"
     id="layer1"
     inkscape:label="txt">
    <text
       transform="matrix(0.95719015,0,-0.32603671,1.0447245,0,0)"
       id="text90"
       y="3345.2522"
       x="2417.8206"
       style="font-style:normal;font-variant:normal;font-weight:normal;font-stretch:normal;font-size:17.10248184px;line-height:0%;font-family:'Nanum Pen Script OTF';-inkscape-font-specification:'Nanum Pen Script OTF';text-align:center;letter-spacing:0px;word-spacing:0px;text-anchor:middle;display:inline;opacity:1;fill:#241c1c;fill-opacity:1;stroke:#000000;stroke-width:4.04140806;stroke-miterlimit:4;stroke-dasharray:none;stroke-opacity:1"
       xml:space="preserve"><tspan
         style="font-style:normal;font-variant:normal;font-weight:normal;font-stretch:normal;font-size:102.87253571px;line-height:1.25;font-family:'Nanum Pen Script OTF';-inkscape-font-specification:'Nanum Pen Script OTF';stroke-width:4.04140806;stroke-miterlimit:4;stroke-dasharray:none"
         y="3345.2522"
         x="2417.8206"
         id="tspan88"
         sodipodi:role="line">- 끝 -</tspan></text>
    <text
       transform="matrix(1.0166729,0,-0.14474245,0.98360053,0,0)"
       id="text94"
       y="351.97388"
       x="2196.623"
       style="font-style:normal;font-variant:normal;font-weight:normal;font-stretch:normal;font-size:31.63908577px;line-height:0%;font-family:'Nanum Pen Script OTF';-inkscape-font-specification:'Nanum Pen Script OTF';text-align:center;letter-spacing:0px;word-spacing:0px;text-anchor:middle;display:inline;fill:#6c5d53;fill-opacity:1;stroke:none;stroke-width:1.31651533"
       xml:space="preserve"><tspan
         id="tspan92"
         y="351.97388"
         x="2196.623"
         style="font-style:normal;font-variant:normal;font-weight:normal;font-stretch:normal;font-size:118.64657593px;line-height:1.25;font-family:'Nanum Pen Script OTF';-inkscape-font-specification:'Nanum Pen Script OTF';fill:#6c5d53;stroke-width:1.31651533"
         sodipodi:role="line">?</tspan></text>
    <text
       transform="skewX(-8.1026777)"
       id="text98"
       y="218.44362"
       x="2109.9844"
       style="font-style:normal;font-variant:normal;font-weight:normal;font-stretch:normal;font-size:25.04533195px;line-height:0%;font-family:'Nanum Pen Script OTF';-inkscape-font-specification:'Nanum Pen Script OTF';text-align:center;letter-spacing:0px;word-spacing:0px;text-anchor:middle;display:inline;fill:#6c5d53;fill-opacity:1;stroke:none;stroke-width:1.32894158"
       xml:space="preserve"><tspan
         id="tspan96"
         y="218.44362"
         x="2109.9844"
         style="font-style:normal;font-variant:normal;font-weight:normal;font-stretch:normal;font-size:93.91999817px;line-height:1.25;font-family:'Nanum Pen Script OTF';-inkscape-font-specification:'Nanum Pen Script OTF';fill:#6c5d53;stroke-width:1.32894158"
         sodipodi:role="line">?</tspan></text>
    <text
       transform="matrix(1.0268344,0,-0.14618914,0.97386687,0,0)"
       id="text102"
       y="324.46982"
       x="1935.8109"
       style="font-style:normal;font-variant:normal;font-weight:normal;font-stretch:normal;font-size:21.57932663px;line-height:0%;font-family:'Nanum Pen Script OTF';-inkscape-font-specification:'Nanum Pen Script OTF';text-align:center;letter-spacing:0px;word-spacing:0px;text-anchor:middle;display:inline;fill:#6c5d53;fill-opacity:1;stroke:none;stroke-width:1.30468428"
       xml:space="preserve"><tspan
         id="tspan100"
         y="324.46982"
         x="1935.8109"
         style="font-style:normal;font-variant:normal;font-weight:normal;font-stretch:normal;font-size:80.92247009px;line-height:1.25;font-family:'Nanum Pen Script OTF';-inkscape-font-specification:'Nanum Pen Script OTF';fill:#6c5d53;stroke-width:1.30468428"
         sodipodi:role="line">?</tspan></text>
    <text
       transform="skewX(-8.1026777)"
       id="text106"
       y="458.48315"
       x="2119.3125"
       style="font-style:normal;font-variant:normal;font-weight:normal;font-stretch:normal;font-size:24.78702927px;line-height:0%;font-family:'Nanum Pen Script OTF';-inkscape-font-specification:'Nanum Pen Script OTF';text-align:center;letter-spacing:0px;word-spacing:0px;text-anchor:middle;display:inline;fill:#6c5d53;fill-opacity:1;stroke:none;stroke-width:1.31523573"
       xml:space="preserve"><tspan
         id="tspan104"
         y="458.48315"
         x="2119.3125"
         style="font-style:normal;font-variant:normal;font-weight:normal;font-stretch:normal;font-size:92.95136261px;line-height:1.25;font-family:'Nanum Pen Script OTF';-inkscape-font-specification:'Nanum Pen Script OTF';fill:#6c5d53;stroke-width:1.31523573"
         sodipodi:role="line">?</tspan></text>
    <text
       transform="skewX(-8.1026777)"
       id="text110"
       y="937.23615"
       x="1805.5378"
       style="font-style:normal;font-variant:normal;font-weight:normal;font-stretch:normal;font-size:25.02749443px;line-height:0%;font-family:'Nanum Pen Script OTF';-inkscape-font-specification:'Nanum Pen Script OTF';text-align:center;letter-spacing:0px;word-spacing:0px;text-anchor:middle;display:inline;fill:#6c5d53;fill-opacity:1;stroke:none;stroke-width:1.32799506"
       xml:space="preserve"><tspan
         id="tspan108"
         y="937.23615"
         x="1805.5378"
         style="font-style:normal;font-variant:normal;font-weight:normal;font-stretch:normal;font-size:93.85311127px;line-height:1.25;font-family:'Nanum Pen Script OTF';-inkscape-font-specification:'Nanum Pen Script OTF';fill:#6c5d53;stroke-width:1.32799506"
         sodipodi:role="line">?</tspan></text>
    <text
       transform="matrix(1.0166729,0,-0.14474245,0.98360053,0,0)"
       id="text114"
       y="1058.8314"
       x="1910.0605"
       style="font-style:normal;font-variant:normal;font-weight:normal;font-stretch:normal;font-size:31.46015167px;line-height:0%;font-family:'Nanum Pen Script OTF';-inkscape-font-specification:'Nanum Pen Script OTF';text-align:center;letter-spacing:0px;word-spacing:0px;text-anchor:middle;display:inline;fill:#6c5d53;fill-opacity:1;stroke:none;stroke-width:1.30906999"
       xml:space="preserve"><tspan
         id="tspan112"
         y="1058.8314"
         x="1910.0605"
         style="font-style:normal;font-variant:normal;font-weight:normal;font-stretch:normal;font-size:117.97557831px;line-height:1.25;font-family:'Nanum Pen Script OTF';-inkscape-font-specification:'Nanum Pen Script OTF';fill:#6c5d53;stroke-width:1.30906999"
         sodipodi:role="line">?</tspan></text>
    <text
       transform="skewX(-8.1026777)"
       id="text118"
       y="1056.3933"
       x="1703.3873"
       style="font-style:normal;font-variant:normal;font-weight:normal;font-stretch:normal;font-size:25.05608559px;line-height:0%;font-family:'Nanum Pen Script OTF';-inkscape-font-specification:'Nanum Pen Script OTF';text-align:center;letter-spacing:0px;word-spacing:0px;text-anchor:middle;display:inline;fill:#6c5d53;fill-opacity:1;stroke:none;stroke-width:1.32951212"
       xml:space="preserve"><tspan
         id="tspan116"
         y="1056.3933"
         x="1703.3873"
         style="font-style:normal;font-variant:normal;font-weight:normal;font-stretch:normal;font-size:93.96032715px;line-height:1.25;font-family:'Nanum Pen Script OTF';-inkscape-font-specification:'Nanum Pen Script OTF';fill:#6c5d53;stroke-width:1.32951212"
         sodipodi:role="line">?</tspan></text>
    <text
       transform="skewX(-8.1026778)"
       id="text122"
       y="1126.8181"
       x="1806.77"
       style="font-style:normal;font-variant:normal;font-weight:normal;font-stretch:normal;font-size:17.45990562px;line-height:0%;font-family:'Nanum Pen Script OTF';-inkscape-font-specification:'Nanum Pen Script OTF';text-align:center;letter-spacing:0px;word-spacing:0px;text-anchor:middle;display:inline;fill:#6c5d53;fill-opacity:1;stroke:none;stroke-width:1.31683266"
       xml:space="preserve"><tspan
         id="tspan120"
         y="1126.8181"
         x="1806.77"
         style="font-style:normal;font-variant:normal;font-weight:normal;font-stretch:normal;font-size:65.47464752px;line-height:1.25;font-family:'Nanum Pen Script OTF';-inkscape-font-specification:'Nanum Pen Script OTF';fill:#6c5d53;stroke-width:1.31683266"
         sodipodi:role="line">?</tspan></text>
    <text
       transform="skewX(-8.1026777)"
       id="text126"
       y="224.1978"
       x="446.97098"
       style="font-style:normal;font-variant:normal;font-weight:normal;font-stretch:normal;font-size:24.69079208px;line-height:0%;font-family:'Nanum Pen Script OTF';-inkscape-font-specification:'Nanum Pen Script OTF';text-align:center;letter-spacing:0px;word-spacing:0px;text-anchor:middle;display:inline;fill:#6c5d53;fill-opacity:1;stroke:none;stroke-width:1.31012917"
       xml:space="preserve"><tspan
         id="tspan124"
         y="224.1978"
         x="446.97098"
         style="font-style:normal;font-variant:normal;font-weight:normal;font-stretch:normal;font-size:92.59046936px;line-height:1.25;font-family:'Nanum Pen Script OTF';-inkscape-font-specification:'Nanum Pen Script OTF';fill:#6c5d53;stroke-width:1.31012917"
         sodipodi:role="line">?</tspan></text>
    <text
       transform="matrix(0.99162337,0,-0.14117619,1.0084474,0,0)"
       id="text130"
       y="305.39633"
       x="574.04004"
       style="font-style:normal;font-variant:normal;font-weight:normal;font-stretch:normal;font-size:29.82502556px;line-height:0%;font-family:'Nanum Pen Script OTF';-inkscape-font-specification:'Nanum Pen Script OTF';text-align:center;letter-spacing:0px;word-spacing:0px;text-anchor:middle;display:inline;fill:#6c5d53;fill-opacity:1;stroke:none;stroke-width:1.31033087"
       xml:space="preserve"><tspan
         id="tspan128"
         y="305.39633"
         x="574.04004"
         style="font-style:normal;font-variant:normal;font-weight:normal;font-stretch:normal;font-size:111.84384918px;line-height:1.25;font-family:'Nanum Pen Script OTF';-inkscape-font-specification:'Nanum Pen Script OTF';fill:#6c5d53;stroke-width:1.31033087"
         sodipodi:role="line">?</tspan></text>
    <text
       transform="matrix(0.99017187,0,-0.14096954,1.0099257,0,0)"
       id="text134"
       y="305.5925"
       x="363.03754"
       style="font-style:normal;font-variant:normal;font-weight:normal;font-stretch:normal;font-size:19.79276657px;line-height:0%;font-family:'Nanum Pen Script OTF';-inkscape-font-specification:'Nanum Pen Script OTF';text-align:center;letter-spacing:0px;word-spacing:0px;text-anchor:middle;display:inline;fill:#6c5d53;fill-opacity:1;stroke:none;stroke-width:1.29606259"
       xml:space="preserve"><tspan
         id="tspan132"
         y="305.5925"
         x="363.03754"
         style="font-style:normal;font-variant:normal;font-weight:normal;font-stretch:normal;font-size:74.2228775px;line-height:1.25;font-family:'Nanum Pen Script OTF';-inkscape-font-specification:'Nanum Pen Script OTF';fill:#6c5d53;stroke-width:1.29606259"
         sodipodi:role="line">?</tspan></text>
    <text
       transform="matrix(0.97277155,0,-0.13849228,1.0279906,0,0)"
       id="text138"
       y="394.20047"
       x="501.08035"
       style="font-style:normal;font-variant:normal;font-weight:normal;font-stretch:normal;font-size:26.72709656px;line-height:0%;font-family:'Nanum Pen Script OTF';-inkscape-font-specification:'Nanum Pen Script OTF';text-align:center;letter-spacing:0px;word-spacing:0px;text-anchor:middle;display:inline;fill:#6c5d53;fill-opacity:1;stroke:none;stroke-width:1.31460929"
       xml:space="preserve"><tspan
         id="tspan136"
         y="394.20047"
         x="501.08035"
         style="font-style:normal;font-variant:normal;font-weight:normal;font-stretch:normal;font-size:100.22661591px;line-height:1.25;font-family:'Nanum Pen Script OTF';-inkscape-font-specification:'Nanum Pen Script OTF';fill:#6c5d53;stroke-width:1.31460929"
         sodipodi:role="line">?</tspan></text>
  </g>
</svg>
