<?xml version="1.0" encoding="UTF-8" standalone="no"?>
<!-- Created with Inkscape (http://www.inkscape.org/) -->

<svg
   xmlns:dc="http://purl.org/dc/elements/1.1/"
   xmlns:cc="http://creativecommons.org/ns#"
   xmlns:rdf="http://www.w3.org/1999/02/22-rdf-syntax-ns#"
   xmlns:svg="http://www.w3.org/2000/svg"
   xmlns="http://www.w3.org/2000/svg"
   xmlns:xlink="http://www.w3.org/1999/xlink"
   xmlns:sodipodi="http://sodipodi.sourceforge.net/DTD/sodipodi-0.dtd"
   xmlns:inkscape="http://www.inkscape.org/namespaces/inkscape"
   id="svg2"
   version="1.1"
   inkscape:version="0.92.2 2405546, 2018-03-11"
   width="2481"
   height="3503"
   sodipodi:docname="E19P01.svg">
  <metadata
     id="metadata8">
    <rdf:RDF>
      <cc:Work
         rdf:about="">
        <dc:format>image/svg+xml</dc:format>
        <dc:type
           rdf:resource="http://purl.org/dc/dcmitype/StillImage" />
        <dc:title></dc:title>
      </cc:Work>
    </rdf:RDF>
  </metadata>
  <defs
     id="defs6" />
  <sodipodi:namedview
     pagecolor="#ffffff"
     bordercolor="#666666"
     borderopacity="1"
     objecttolerance="10"
     gridtolerance="10"
     guidetolerance="10"
     inkscape:pageopacity="0"
     inkscape:pageshadow="2"
     inkscape:window-width="1920"
     inkscape:window-height="1033"
     id="namedview4"
     showgrid="false"
     inkscape:zoom="0.6388319"
     inkscape:cx="1046.1799"
     inkscape:cy="620.00017"
     inkscape:window-x="0"
     inkscape:window-y="47"
     inkscape:window-maximized="0"
     inkscape:current-layer="layer1"
     showguides="false" />
  <g
     inkscape:groupmode="layer"
     id="layer2"
     inkscape:label="artwork"
     sodipodi:insensitive="true">
    <image
       sodipodi:absref="/home/midgard/git/peppercarrot/comics/ep19_Pollution/lang/ca/../gfx_Pepper-and-Carrot_by-David-Revoy_E19P01.png"
       xlink:href="../gfx_Pepper-and-Carrot_by-David-Revoy_E19P01.png"
       width="2481"
       height="3503"
       id="image10"
       x="0"
       y="0" />
  </g>
  <g
     inkscape:groupmode="layer"
     id="layer3"
     inkscape:label="speechbubbles">
    <path
       style="color:#000000;display:inline;overflow:visible;visibility:visible;fill:#ffffff;fill-opacity:1;fill-rule:nonzero;stroke:none;stroke-width:1px;marker:none;enable-background:accumulate"
       d="m 1029.8393,1944.6884 c -4.0128,-29.8516 27.4228,-65.8653 141.2314,-57.9056 113.8089,7.9598 136.1975,21.984 139.559,60.2936 1.3936,15.8826 -28.9185,40.5945 -45.71,44.5744 -16.7915,3.9798 -86.4023,4.5754 -114.3882,1.3916 -27.9856,-3.1839 -88.0421,-10.1473 -104.8336,-24.4749 -16.7916,-14.3274 -13.9928,-20.6952 -15.8586,-23.8791 z"
       id="path3365"
       inkscape:connector-curvature="0"
       sodipodi:nodetypes="csssssc" />
    <path
       style="color:#000000;display:inline;overflow:visible;visibility:visible;fill:#ffffff;fill-opacity:1;fill-rule:nonzero;stroke:none;stroke-width:1px;marker:none;enable-background:accumulate"
       d="m 1344.769,2076.7025 c -9.1846,64.857 -50.75,93.8512 -85.2423,111.4386 -64.3724,27.8567 -131.8298,13.8748 -196.6854,-1.1599 -33.6488,-10.6876 -68.30949,-56.7634 -64.79125,-118.9775 3.40015,-55.7674 36.02105,-92.1095 67.46255,-97.2899 46.0923,-18.0799 94.1623,-26.8873 141.0277,-11.5059 40.2418,8.7819 83.3395,11.1624 119.1815,45.8482 11.9779,18.3272 16.58,45.7688 19.0472,71.6464 z"
       id="path3365-3"
       inkscape:connector-curvature="0" />
    <path
       style="fill:#ffffff;stroke:none;stroke-width:0.99999994"
       d="m 1017.5351,2279.7271 c 5.6657,-61.6305 49.9232,-94.9797 114.8848,-103.564 79.6413,-18.3183 153.8738,-26.7108 233.3492,-9.1588 51.9707,14.5189 94.6828,16.1672 135.06,57.8418 26.7752,30.565 36.4158,146.2343 -6.9521,176.2126 -45.1465,43.8283 -166.1203,53.5381 -227.3267,52.3401 -88.0963,1.8038 -165.3042,-6.1775 -208.8104,-42.6819 -40.6807,-35.0232 -45.7458,-85.3666 -40.2048,-130.9898 z"
       id="path3065"
       inkscape:connector-curvature="0"
       sodipodi:nodetypes="cccccccc" />
    <path
       style="display:inline;fill:#ffffff;stroke:none"
       d="m 1639.5841,2318.3167 c -21.9558,36.2988 -64.6442,61.9501 -96.7367,35.7869 -19.4449,-15.8524 -29.1134,-28.291 -29.1134,-28.291 l -6.3679,30.9322 20.7854,19.5483 c 0,0 65.508,31.9103 111.4326,-57.9764 z"
       id="path3063-1"
       inkscape:connector-curvature="0"
       sodipodi:nodetypes="cscccc" />
    <path
       style="color:#000000;display:inline;overflow:visible;visibility:visible;fill:#ffffff;fill-opacity:1;fill-rule:nonzero;stroke:none;stroke-width:1px;marker:none;enable-background:accumulate"
       d="m 1906.9962,2238.9614 c 22.449,-12.2628 110.8488,-22.7971 199.138,-21.5108 88.2891,1.2865 172.9083,8.0215 224.637,38.2661 76.2135,44.5601 41.4997,146.4425 2.0263,163.5866 -28.608,12.4252 -114.2303,23.5734 -196.2384,24.827 -82.008,1.2538 -160.4018,-7.3869 -198.7027,-18.6151 -33.0547,-9.6904 -81.2143,-36.0606 -85.1465,-99.8383 -1.6049,-26.0303 9.3886,-62.1894 54.2863,-86.7155 z"
       id="path4040"
       inkscape:connector-curvature="0"
       sodipodi:nodetypes="ssssssss" />
    <path
       style="color:#000000;display:inline;overflow:visible;visibility:visible;fill:#ffffff;fill-opacity:1;fill-rule:nonzero;stroke:none;stroke-width:1px;marker:none;enable-background:accumulate"
       d="m 2091.5868,2234.3356 c -12.6779,-33.6245 -30.9699,-60.7293 -65.977,-55.676 52.3023,-18.546 92.9308,35.3617 103.6224,53.2726 10.6914,17.9109 -37.6454,2.4034 -37.6454,2.4034 z"
       id="path5010"
       inkscape:connector-curvature="0" />
    <path
       style="color:#000000;display:inline;overflow:visible;visibility:visible;fill:#ffffff;fill-opacity:1;fill-rule:nonzero;stroke:none;stroke-width:1px;marker:none;enable-background:accumulate"
       d="m 613.93672,2728.3167 c -1.0467,-26.2147 10.5146,-44.9992 54.47312,-62.119 43.95872,-17.1198 106.3447,-8.9544 122.7135,-8.3896 76.81458,2.6507 102.55286,11.5029 118.25232,30.7629 15.69954,19.2596 19.7104,15.0277 19.15556,48.3859 -0.49673,29.8648 -4.93426,43.8999 -23.77364,50.3197 -18.8395,6.4199 -163.56956,13.7746 -185.85193,13.4885 -21.81614,-0.2801 -49.59281,-3.4908 -71.22233,-14.0069 -20.4188,-9.9274 -32.69999,-32.2268 -33.7466,-58.4415 z"
       id="path3373"
       inkscape:connector-curvature="0"
       sodipodi:nodetypes="zsssssssz" />
    <path
       style="color:#000000;display:inline;overflow:visible;visibility:visible;fill:#ffffff;fill-opacity:1;fill-rule:nonzero;stroke:none;stroke-width:1px;marker:none;enable-background:accumulate"
       d="m 653.17027,2853.9321 c 9.91133,-71.4433 85.33335,-96.2842 300.62391,-100.5518 56.30772,-1.1161 151.16032,7.4337 195.37852,24.0922 44.2183,16.6585 69.3963,73.9993 62.7888,126.3501 -13.2151,104.7015 -151.2975,87.2502 -189.2911,88.4821 -37.99357,1.2319 -299.48532,4.6116 -336.9684,-42.9057 -35.94549,-45.5681 -34.1836,-73.2947 -32.53173,-95.4669 z"
       id="path4546"
       inkscape:connector-curvature="0"
       sodipodi:nodetypes="csssssc" />
    <path
       style="color:#000000;display:inline;overflow:visible;visibility:visible;fill:#ffffff;fill-opacity:1;fill-rule:nonzero;stroke:none;stroke-width:1px;marker:none;enable-background:accumulate"
       d="m 962.2066,2985.8994 c 23.76978,-42.4872 153.056,-38.8602 196.0718,-20.4526 43.0158,18.4073 61.6118,23.4094 61.0224,61.358 -0.5519,35.5277 -14.4237,68.7281 -36.4319,78.9545 -22.0081,10.2263 -73.6085,10.0146 -95.6166,10.0146 -22.0079,0 -92.26253,-6.509 -110.04037,-21.4754 -17.00624,-14.3168 -38.77522,-65.9121 -15.00533,-108.3991 z"
       id="path3330"
       inkscape:connector-curvature="0"
       sodipodi:nodetypes="zsssssz" />
    <path
       style="color:#000000;display:inline;overflow:visible;visibility:visible;fill:#ffffff;fill-opacity:1;fill-rule:nonzero;stroke:none;stroke-width:1px;marker:none;enable-background:accumulate"
       d="m 948.8164,3158.9683 c 39.78505,-10.9584 53.2016,-17.1208 58.4343,-65.1641 5.2327,-48.0433 23.1618,-44.6696 23.1618,-44.6696 l 14.7504,30.3838 c 0,0 -18.3423,101.2684 -96.3465,79.4499 z"
       id="path3072"
       inkscape:connector-curvature="0" />
    <path
       style="fill:#ffffff;fill-rule:evenodd;stroke:none;stroke-width:1px;stroke-linecap:butt;stroke-linejoin:miter;stroke-opacity:1"
       d="m 1891.9758,3239.5273 c 28.7401,2.1524 66.1698,-8.5621 42.9346,-40.9681 41.8176,25.9662 81.4314,30.83 123.1354,2.4031 -6.0963,28.6978 62.0931,30.9119 85.4581,11.9225 -7.129,29.906 25.652,31.0596 53.0446,32.0091 -57.9463,36.5615 -27.518,48.1891 -4.6853,61.9598 -56.9473,-10.1884 -43.1744,10.4551 -49.9763,22.1285 -48.8522,-26.449 -84.3792,-20.1718 -112.4466,4.4257 -14.6794,-13.3768 -19.2871,-41.0242 -73.4024,1.4752 19.8995,-36.6892 -6.1843,-32.8382 -48.4146,-14.7522 9.716,-8.4337 50.6098,-30.9658 -15.6475,-28.9705 10.3464,-2.97 18.6487,-6.2033 24.4999,-9.7524 5.8511,-3.5491 -31.7733,-13.0242 -31.2309,-17.2571 0.5424,-4.2329 39.2518,-3.2235 33.6718,-8.2451 -5.5801,-5.0215 -14.4248,-10.4635 -26.9408,-16.3785 z"
       id="path4584"
       inkscape:connector-curvature="0"
       sodipodi:nodetypes="cccccccccccsssc" />
    <path
       style="color:#000000;display:inline;overflow:visible;visibility:visible;fill:#ffffff;fill-opacity:1;fill-rule:nonzero;stroke:none;stroke-width:1px;marker:none;enable-background:accumulate"
       d="m 1929.0839,3276.1051 c -26.7744,0.1934 -96.6935,-12.0611 -103.8888,-13.0148 6.0705,-5.4371 10.1298,-10.8932 13.4021,-15.1162 -13.7156,-0.9263 -59.5001,-2.596 -79.7676,1.5975 50.7453,-11.4228 73.8083,-12.6417 95.8809,-9.8645 -2.9601,5.998 -5.8701,9.4267 -7.3188,12.6033 18.7307,6.708 117.9634,8.8349 106.078,1.4065 z"
       id="path5066"
       inkscape:connector-curvature="0"
       sodipodi:nodetypes="cccccccc" />
  </g>
  <g
     inkscape:groupmode="layer"
     id="layer1"
     inkscape:label="txt"
     style="display:inline">
    <text
       xml:space="preserve"
       style="font-style:normal;font-variant:normal;font-weight:normal;font-stretch:normal;line-height:0%;font-family:Lavi;-inkscape-font-specification:Lavi;text-align:center;letter-spacing:0px;word-spacing:0px;text-anchor:middle;fill:#000000;fill-opacity:1;stroke:none"
       x="1177.4561"
       y="1950.6425"
       id="text4246-3-9"><tspan
         sodipodi:role="line"
         style="font-size:45px;line-height:1.25"
         x="1177.4561"
         y="1950.6425"
         id="tspan4183-8">Vaig a dins.</tspan></text>
    <text
       xml:space="preserve"
       style="font-style:normal;font-variant:normal;font-weight:normal;font-stretch:normal;line-height:1.25;font-family:Lavi;-inkscape-font-specification:Lavi;text-align:center;letter-spacing:0px;word-spacing:0px;text-anchor:middle;fill:#000000;fill-opacity:1;stroke:none"
       x="2131.0017"
       y="2368.491"
       id="text4246"><text
         xml:space="preserve"
         style="font-style:normal;font-variant:normal;font-weight:normal;font-stretch:normal;line-height:1.25;font-family:Lavi;-inkscape-font-specification:Lavi;text-align:center;letter-spacing:0px;word-spacing:0px;text-anchor:middle;fill:#000000;fill-opacity:1;stroke:none"
         x="1168.7997"
         y="2036.2527"
         id="text4246-3"><tspan
           sodipodi:role="line"
           style="font-size:45px;line-height:1.25"
           x="1168.7997"
           y="2036.2527"
           id="tspan3034">No perdré el</tspan><tspan
           sodipodi:role="line"
           style="font-size:45px;line-height:1.25"
           x="1168.7997"
           y="2092.5027"
           id="tspan868">temps mirant</tspan></text>
<tspan
         sodipodi:role="line"
         style="font-size:45px;line-height:1.25"
         x="1168.7997"
         y="2092.5027"
         id="tspan4252"></tspan><tspan
         sodipodi:role="line"
         style="font-size:45px;line-height:1.25"
         x="1168.7997"
         y="2148.7527"
         id="tspan864">com caves...</tspan></text>
    <text
       xml:space="preserve"
       style="font-style:normal;font-variant:normal;font-weight:normal;font-stretch:normal;line-height:0%;font-family:Lavi;-inkscape-font-specification:Lavi;text-align:center;letter-spacing:0px;word-spacing:0px;text-anchor:middle;fill:#000000;fill-opacity:1;stroke:none"
       x="1266.4561"
       y="2237.5215"
       id="text4246-3-7"><tspan
         sodipodi:role="line"
         style="font-size:45px;line-height:1.25"
         x="1266.4561"
         y="2237.5215"
         id="tspan3968">Enterra aquestes</tspan><tspan
         sodipodi:role="line"
         style="font-size:45px;line-height:1.25"
         x="1266.4561"
         y="2293.7715"
         id="tspan3047">pocions defectuoses i</tspan><tspan
         sodipodi:role="line"
         style="font-size:45px;line-height:1.25"
         x="1266.4561"
         y="2350.0215"
         id="tspan3049">i entra quan acabis.</tspan><tspan
         sodipodi:role="line"
         style="font-size:45px;line-height:1.25"
         x="1274.3662"
         y="2406.2715"
         id="tspan3051">Has de descansar. </tspan></text>
    <text
       xml:space="preserve"
       style="font-style:normal;font-variant:normal;font-weight:normal;font-stretch:normal;line-height:0%;font-family:Lavi;-inkscape-font-specification:Lavi;text-align:center;letter-spacing:0px;word-spacing:0px;text-anchor:middle;fill:#000000;fill-opacity:1;stroke:none"
       x="2120.0659"
       y="2282.4187"
       id="text4246-3-7-6"><tspan
         sodipodi:role="line"
         style="font-size:45px;line-height:1.25"
         x="2120.0659"
         y="2282.4187"
         id="tspan3062">Pensar que demà</tspan><tspan
         sodipodi:role="line"
         style="font-size:45px;line-height:1.25"
         x="2120.0659"
         y="2338.6687"
         id="tspan3068">ho faràs bé, és esperar</tspan><tspan
         sodipodi:role="line"
         style="font-size:45px;line-height:1.25"
         x="2120.0659"
         y="2394.9187"
         id="tspan3064">massa. Però qui sap!</tspan></text>
    <text
       xml:space="preserve"
       style="font-style:normal;font-variant:normal;font-weight:normal;font-stretch:normal;line-height:0%;font-family:Lavi;-inkscape-font-specification:Lavi;text-align:center;letter-spacing:0px;word-spacing:0px;text-anchor:middle;fill:#000000;fill-opacity:1;stroke:none"
       x="775.45044"
       y="2707.4324"
       id="text4246-3-7-6-7"><tspan
         sodipodi:role="line"
         style="font-size:45px;line-height:1.25"
         x="775.45044"
         y="2707.4324"
         id="tspan3987">Molt bé,</tspan><tspan
         sodipodi:role="line"
         style="font-size:45px;line-height:1.25"
         x="783.3606"
         y="2763.6824"
         id="tspan3074">ja m'afanyo! </tspan></text>
    <text
       xml:space="preserve"
       style="font-style:normal;font-variant:normal;font-weight:normal;font-stretch:normal;line-height:0%;font-family:Lavi;-inkscape-font-specification:Lavi;text-align:center;letter-spacing:0px;word-spacing:0px;text-anchor:middle;fill:#000000;fill-opacity:1;stroke:none"
       x="942.81274"
       y="2838.0046"
       id="text4246-3-7-6-7-0"><tspan
         sodipodi:role="line"
         style="font-size:45px;line-height:1.25;-inkscape-font-specification:'Lavi, Normal';font-family:Lavi;font-weight:normal;font-style:normal;font-stretch:normal;font-variant:normal;text-anchor:middle;text-align:center;writing-mode:lr;font-variant-ligatures:normal;font-variant-caps:normal;font-variant-numeric:normal;font-feature-settings:normal"
         x="942.81274"
         y="2838.0046"
         id="tspan4778">Per cert, què passa amb</tspan><tspan
         sodipodi:role="line"
         style="font-size:45px;line-height:1.25;-inkscape-font-specification:'Lavi, Normal';font-family:Lavi;font-weight:normal;font-style:normal;font-stretch:normal;font-variant:normal;text-anchor:middle;text-align:center;writing-mode:lr;font-variant-ligatures:normal;font-variant-caps:normal;font-variant-numeric:normal;font-feature-settings:normal"
         x="942.81274"
         y="2894.2546"
         id="tspan3084">aquest costum que teniu</tspan><tspan
         sodipodi:role="line"
         style="font-size:45px;line-height:1.25;-inkscape-font-specification:'Lavi, Normal';font-family:Lavi;font-weight:normal;font-style:normal;font-stretch:normal;font-variant:normal;text-anchor:middle;text-align:center;writing-mode:lr;font-variant-ligatures:normal;font-variant-caps:normal;font-variant-numeric:normal;font-feature-settings:normal"
         x="950.7229"
         y="2950.5046"
         id="tspan4770">d'<tspan
   id="tspan3033"
   style="font-style:normal;font-variant:normal;font-weight:normal;font-stretch:normal;font-size:45px;line-height:125%;font-family:Lavi;-inkscape-font-specification:'Lavi, Normal';text-align:center;writing-mode:lr;text-anchor:middle;font-variant-ligatures:normal;font-variant-caps:normal;font-variant-numeric:normal;font-feature-settings:normal;stroke:#000000;stroke-opacity:1">enterrar-ho tot</tspan>? </tspan></text>
    <text
       xml:space="preserve"
       style="font-style:normal;font-variant:normal;font-weight:normal;font-stretch:normal;line-height:0%;font-family:Lavi;-inkscape-font-specification:Lavi;text-align:center;letter-spacing:0px;word-spacing:0px;text-anchor:middle;fill:#000000;fill-opacity:1;stroke:none"
       x="1090.7429"
       y="3025.0105"
       id="text4246-3-7-6-7-0-9"><tspan
         sodipodi:role="line"
         style="font-size:45px;line-height:1.25"
         x="1090.7429"
         y="3025.0105"
         id="tspan4782">No seria</tspan><tspan
         sodipodi:role="line"
         style="font-size:45px;line-height:1.25"
         x="1090.7429"
         y="3081.2605"
         id="tspan3088">millor si...</tspan></text>
    <text
       xml:space="preserve"
       style="font-style:normal;font-variant:normal;font-weight:normal;font-stretch:normal;line-height:0%;font-family:Lavi;-inkscape-font-specification:Lavi;text-align:center;letter-spacing:0px;word-spacing:0px;text-anchor:middle;fill:#000000;fill-opacity:1;stroke:none"
       x="2045.2811"
       y="3281.2891"
       id="text4246-3-7-6-7-0-9-3"><tspan
         sodipodi:role="line"
         style="font-style:normal;font-variant:normal;font-weight:normal;font-stretch:normal;font-size:45px;line-height:1.25;font-family:Lavi;-inkscape-font-specification:'Lavi, Normal';font-variant-ligatures:normal;font-variant-caps:normal;font-variant-numeric:normal;font-feature-settings:normal;text-align:center;writing-mode:lr-tb;text-anchor:middle"
         x="2045.2811"
         y="3281.2891"
         id="tspan4464-5">Si... <tspan
   style="font-style:normal;font-variant:normal;font-weight:normal;font-stretch:normal;font-size:45px;line-height:125%;font-family:Lavi;-inkscape-font-specification:'Lavi, Normal';font-variant-ligatures:normal;font-variant-caps:normal;font-variant-numeric:normal;font-feature-settings:normal;text-align:center;writing-mode:lr-tb;text-anchor:middle;stroke:#000000;stroke-opacity:1"
   id="tspan3090">QUÈ</tspan>?</tspan></text>
  </g>
</svg>
